%YAML 1.1
%TAG !u! tag:unity3d.com,2011:
--- !u!74 &7400000
AnimationClip:
  m_ObjectHideFlags: 0
  m_PrefabParentObject: {fileID: 0}
  m_PrefabInternal: {fileID: 0}
  m_Name: Mage Deatgh
  serializedVersion: 6
  m_Legacy: 0
  m_Compressed: 0
  m_UseHighQualityCurve: 1
  m_RotationCurves: []
  m_CompressedRotationCurves: []
  m_EulerCurves: []
  m_PositionCurves: []
  m_ScaleCurves: []
  m_FloatCurves: []
  m_PPtrCurves:
  - curve:
    - time: 0
      value: {fileID: 21300000, guid: cc42873d7b8d3b94fa578b9893cc68e2, type: 3}
    - time: 0.1
      value: {fileID: 21300000, guid: f807a15b7f94ef04cbb2ddb3a81c3c1f, type: 3}
    - time: 0.2
      value: {fileID: 21300000, guid: b7d18bd5ed4c83743b352b0fd41d23c0, type: 3}
    - time: 0.3
      value: {fileID: 21300000, guid: d5111bd52ee16644a8ca67ebd6a1e142, type: 3}
    - time: 0.4
      value: {fileID: 21300000, guid: f92fb859ea8adb64182dbf4d204e25e1, type: 3}
    attribute: m_Sprite
    path: 
    classID: 212
    script: {fileID: 0}
  m_SampleRate: 10
  m_WrapMode: 0
  m_Bounds:
    m_Center: {x: 0, y: 0, z: 0}
    m_Extent: {x: 0, y: 0, z: 0}
  m_ClipBindingConstant:
    genericBindings:
    - serializedVersion: 2
      path: 0
      attribute: 0
      script: {fileID: 0}
      typeID: 212
      customType: 23
      isPPtrCurve: 1
    pptrCurveMapping:
    - {fileID: 21300000, guid: cc42873d7b8d3b94fa578b9893cc68e2, type: 3}
    - {fileID: 21300000, guid: f807a15b7f94ef04cbb2ddb3a81c3c1f, type: 3}
    - {fileID: 21300000, guid: b7d18bd5ed4c83743b352b0fd41d23c0, type: 3}
    - {fileID: 21300000, guid: d5111bd52ee16644a8ca67ebd6a1e142, type: 3}
    - {fileID: 21300000, guid: f92fb859ea8adb64182dbf4d204e25e1, type: 3}
  m_AnimationClipSettings:
    serializedVersion: 2
    m_AdditiveReferencePoseClip: {fileID: 0}
    m_AdditiveReferencePoseTime: 0
    m_StartTime: 0
    m_StopTime: 0.5
    m_OrientationOffsetY: 0
    m_Level: 0
    m_CycleOffset: 0
    m_HasAdditiveReferencePose: 0
    m_LoopTime: 0
    m_LoopBlend: 0
    m_LoopBlendOrientation: 0
    m_LoopBlendPositionY: 0
    m_LoopBlendPositionXZ: 0
    m_KeepOriginalOrientation: 0
    m_KeepOriginalPositionY: 1
    m_KeepOriginalPositionXZ: 0
    m_HeightFromFeet: 0
    m_Mirror: 0
  m_EditorCurves: []
  m_EulerEditorCurves: []
  m_HasGenericRootTransform: 0
  m_HasMotionFloatCurves: 0
  m_GenerateMotionCurves: 0
  m_Events: []
