{
"skeleton": {
	"hash": "0/8zO7OgLvM6Lnz84oCDC6QY5uQ",
	"spine": "3.6.53",
	"width": 2778.5,
	"height": 3178.64,
	"images": "E:/PhotoShop Creations/Gulrag The First Orc Assets/Sprites/Spine Images Cropped For Animation/Elf Mage/"
},
"bones": [
	{ "name": "root" },
	{ "name": "Hip", "parent": "root", "x": 0.07, "y": 1380.53 },
	{ "name": "Arcane Orb", "parent": "Hip", "length": 272.4, "rotation": 121.5, "x": 932.75, "y": 876.56 },
	{ "name": "Earth Orb", "parent": "Hip", "length": 278.42, "rotation": -113.81, "x": -947.74, "y": 1015.17 },
	{ "name": "Fire Orb", "parent": "Hip", "length": 246.47, "rotation": 46.85, "x": 741.71, "y": -187.3 },
	{ "name": "Torso", "parent": "Hip", "length": 501.27, "rotation": 96.34, "x": -0.8, "y": 159.04 },
	{ "name": "Neck", "parent": "Torso", "length": 83.88, "rotation": -14.47, "x": 550.61, "y": 14.41 },
	{ "name": "Head", "parent": "Neck", "length": 337.97, "rotation": 2.09, "x": 123.58, "y": -26.28 },
	{ "name": "Head3", "parent": "Head", "length": 549.83, "rotation": -175.6, "x": 87.43, "y": 188.18 },
	{ "name": "Head2", "parent": "Head3", "length": 188.51, "rotation": -8.01, "x": 561.8, "y": -3.61 },
	{ "name": "Head5", "parent": "Head2", "length": 207.58, "rotation": -8.08, "x": 226.25, "y": -9.62 },
	{ "name": "Left_Shoulder", "parent": "Hip", "length": 198.53, "rotation": -44.19, "x": 26.88, "y": 680.96 },
	{ "name": "Left_Bicep", "parent": "Left_Shoulder", "length": 264.56, "rotation": -36.34, "x": 187.03, "y": -22.21 },
	{ "name": "Left_Foot", "parent": "Hip", "length": 94.9, "rotation": -90, "x": 90.35, "y": -1182.84 },
	{ "name": "Left_Foot3", "parent": "Left_Foot", "length": 182.14, "rotation": 62.88, "x": 92.62, "y": 53.29 },
	{ "name": "Left_Forearm", "parent": "Left_Bicep", "length": 315.65, "rotation": 2.83, "x": 287.96, "y": -3.9 },
	{ "name": "Left_Hand", "parent": "Left_Forearm", "length": 106.1, "rotation": 14.27, "x": 353.44, "y": -12.28 },
	{ "name": "Left_Shoulder_Pad", "parent": "Hip", "length": 223.01, "rotation": -37.07, "x": 50.61, "y": 700.73 },
	{ "name": "Light Orb", "parent": "Hip", "length": 339.98, "rotation": -161.37, "x": -67.43, "y": 1580.81 },
	{ "name": "Right_Shoulder", "parent": "Hip", "length": 166.82, "rotation": -121.43, "x": -241.99, "y": 712.6 },
	{ "name": "Right_Bicep", "parent": "Right_Shoulder", "length": 265.24, "rotation": 21.12, "x": 170.76, "y": 16.31 },
	{ "name": "Right_Foot", "parent": "Hip", "length": 88.41, "rotation": -116.57, "x": -194.54, "y": -1181.37 },
	{ "name": "Right_Foot3", "parent": "Right_Foot", "length": 183.17, "rotation": 83.9, "x": 70.73, "y": 17.68 },
	{ "name": "Right_Forearm", "parent": "Right_Bicep", "length": 326.63, "rotation": 3.3, "x": 281.51, "y": -1.06 },
	{ "name": "Right_Hand", "parent": "Right_Forearm", "length": 93.07, "rotation": -5.31, "x": 349.7, "y": 6.8 },
	{ "name": "Right_Should_Pad", "parent": "Hip", "length": 274.17, "rotation": -146.77, "x": -186.63, "y": 700.73 },
	{ "name": "Robes", "parent": "Hip", "length": 1242.94, "rotation": -104.74, "x": -16.61, "y": 91.82 },
	{ "name": "Robes2", "parent": "Robes", "length": 1165.89, "rotation": 22.74, "x": -18.11, "y": 68.83 },
	{ "name": "Water Orb", "parent": "Hip", "length": 243.49, "rotation": -59.49, "x": -977.71, "y": 3.75 }
],
"slots": [
	{ "name": "Head", "bone": "Head5", "attachment": "Head" },
	{ "name": "Neck", "bone": "Neck", "attachment": "Neck" },
	{ "name": "Eyes_fire", "bone": "Head", "attachment": "Eyes_New_Fire" },
	{ "name": "Eyes_Lightning", "bone": "Head", "attachment": "Eyes_Lightning" },
	{ "name": "Eyes_Arcane", "bone": "Head", "attachment": "Eyes_Arcane" },
	{ "name": "Eyes_Earth", "bone": "Head", "attachment": "Eyes_Earth" },
	{ "name": "Eyes_Frost", "bone": "Head", "attachment": "Eyes_Frost" },
	{ "name": "Left_Forearm", "bone": "Left_Forearm", "attachment": "Left_Forearm" },
	{ "name": "Left_Bicep", "bone": "Left_Bicep", "attachment": "Left_Bicep" },
	{ "name": "Left_Hand", "bone": "Left_Hand", "attachment": "Left_Hand" },
	{ "name": "Left_Shoulder", "bone": "Left_Shoulder", "attachment": "Left_Shoulder" },
	{ "name": "Torso", "bone": "Torso", "attachment": "Torso" },
	{ "name": "Left_Foot", "bone": "Left_Foot3", "attachment": "Left_Foot" },
	{ "name": "Right_Foot", "bone": "Right_Foot3", "attachment": "Right_Foot" },
	{ "name": "Robes", "bone": "Robes2", "attachment": "Robes" },
	{ "name": "Right_Hand", "bone": "Right_Hand", "attachment": "Right_Hand" },
	{ "name": "Right_Forearm", "bone": "Right_Forearm", "attachment": "Right_Forearm" },
	{ "name": "Right_Bicep", "bone": "Right_Bicep", "attachment": "Right_Bicep" },
	{ "name": "Right_Shoulder", "bone": "Right_Shoulder", "attachment": "Right_Shoulder" },
	{ "name": "Right_Should_Pad", "bone": "Right_Should_Pad", "attachment": "Right_Should_Pad" },
	{ "name": "Left_Shoulder_Pad", "bone": "Left_Shoulder_Pad", "attachment": "Left_Shoulder_Pad" },
	{ "name": "Light Orb", "bone": "Light Orb", "attachment": "Light Orb" },
	{ "name": "Arcane Orb", "bone": "Arcane Orb", "attachment": "Arcane Orb" },
	{ "name": "Fire Orb", "bone": "Fire Orb", "attachment": "Fire Orb" },
	{ "name": "Water Orb", "bone": "Water Orb", "attachment": "Water Orb" },
	{ "name": "Earth Orb", "bone": "Earth Orb", "attachment": "Earth Orb" },
	{ "name": "Robs Light My Path", "bone": "root", "attachment": "Robs Light My Path" }
],
"path": [
	{
		"name": "Orbs Light My Path Constraint",
		"order": 0,
		"bones": [ "Arcane Orb", "Fire Orb", "Water Orb", "Earth Orb", "Light Orb" ],
		"target": "Robs Light My Path",
		"spacingMode": "percent",
		"spacing": 0.2
	}
],
"skins": {
	"default": {
		"Arcane Orb": {
			"Arcane Orb": { "x": 123.81, "y": -9.84, "rotation": -121.5, "width": 236, "height": 406 }
		},
		"Earth Orb": {
			"Earth Orb": { "x": 140.45, "y": 14.62, "rotation": 113.81, "width": 233, "height": 399 }
		},
		"Eyes_Arcane": {
			"Eyes_Arcane": { "x": 265.91, "y": -66.24, "rotation": -83.96, "width": 242, "height": 61 }
		},
		"Eyes_Earth": {
			"Eyes_Earth": { "x": 265.36, "y": -65.8, "rotation": -83.96, "width": 243, "height": 62 }
		},
		"Eyes_Frost": {
			"Eyes_Frost": { "x": 265.91, "y": -66.24, "rotation": -83.96, "width": 242, "height": 61 }
		},
		"Eyes_Lightning": {
			"Eyes_Lightning": { "x": 265.91, "y": -66.24, "rotation": -83.96, "width": 242, "height": 61 }
		},
		"Eyes_fire": {
			"Eyes_New_Fire": { "x": 265.41, "y": -66.3, "rotation": -83.96, "width": 242, "height": 62 }
		},
		"Fire Orb": {
			"Fire Orb": { "x": 150.06, "y": 28.64, "rotation": -46.85, "width": 272, "height": 381 }
		},
		"Head": {
			"Head": {
				"type": "mesh",
				"uvs": [ 0.47493, 0.0851, 0.59336, 0.07777, 0.71178, 0.07043, 0.76979, 0, 0.87613, 0, 0.82296, 0.14135, 1, 0.17069, 1, 0.22938, 0.87613, 0.20492, 0.8713, 0.37609, 0.78912, 0.48613, 0.70695, 0.59617, 0.61028, 0.64629, 0.5136, 0.69642, 0.41693, 0.76733, 0.32025, 0.83825, 0.2405, 0.91912, 0.16074, 1, 0, 0.96296, 0.02539, 0.88471, 0.09307, 0.74777, 0.08823, 0.53014, 0.07857, 0.40299, 0.17524, 0.25383, 0.04956, 0.24405, 0.04956, 0.20003, 0, 0.11445, 0, 0.04843, 0.13837, 0.10467, 0.27675, 0.16091, 0.34925, 0.09978, 0.67089, 0.27811, 0.27149, 0.5275, 0.39024, 0.26965, 0.51101, 0.47491, 0.34193, 0.65702, 0.28387, 0.3483, 0.54556, 0.30565, 0.68221, 0.41966, 0.18955, 0.79661, 0.6034, 0.54686, 0.3597, 0.45546, 0.19671, 0.65181, 0.45355, 0.59649, 0.20952, 0.41971, 0.78473, 0.28403, 0.50377, 0.18595 ],
				"triangles": [ 15, 39, 35, 19, 20, 39, 16, 39, 15, 19, 39, 16, 17, 19, 16, 18, 19, 17, 39, 20, 42, 15, 35, 14, 11, 40, 38, 43, 34, 40, 34, 41, 33, 44, 22, 23, 36, 44, 23, 41, 36, 33, 44, 36, 41, 32, 44, 41, 21, 22, 44, 21, 44, 32, 32, 41, 43, 43, 40, 12, 42, 21, 32, 35, 32, 43, 42, 32, 35, 13, 43, 12, 20, 21, 42, 14, 35, 43, 14, 43, 13, 35, 39, 42, 43, 41, 34, 40, 34, 38, 12, 40, 11, 10, 11, 38, 25, 26, 28, 23, 28, 29, 5, 3, 4, 2, 3, 5, 46, 0, 1, 8, 5, 6, 8, 6, 7, 46, 33, 30, 46, 30, 0, 29, 30, 33, 31, 1, 2, 31, 2, 5, 45, 31, 5, 46, 1, 31, 8, 45, 5, 37, 46, 31, 33, 46, 37, 9, 45, 8, 38, 31, 45, 38, 45, 9, 37, 31, 38, 37, 34, 33, 34, 37, 38, 10, 38, 9, 36, 29, 33, 26, 27, 28, 23, 25, 28, 23, 24, 25, 23, 29, 36 ],
				"vertices": [ 2, 7, 480.31, 82.66, 0.9391, 8, -383.64, 135.32, 0.0609, 2, 7, 502.31, -12.42, 0.9958, 8, -398.28, 231.81, 0.0042, 1, 7, 524.3, -107.51, 1, 1, 7, 642.55, -142.7, 1, 1, 7, 651.71, -229.2, 1, 1, 7, 419.85, -210.02, 1, 1, 7, 387.91, -359.03, 1, 1, 7, 293.54, -369.02, 1, 1, 7, 322.2, -264.09, 1, 2, 7, 46.54, -289.31, 0.91051, 6, 180.62, -313.7, 0.08949, 3, 7, -137.48, -241.2, 0.18682, 8, 257.16, 410.88, 0.6214, 6, -5.03, -272.32, 0.19178, 4, 7, -321.5, -193.09, 0.05008, 8, 436.95, 348.8, 0.66321, 9, -172.76, 331.57, 3.4E-4, 6, -190.68, -230.94, 0.28638, 4, 7, -410.43, -122.98, 0.00638, 8, 520.25, 272.09, 0.88763, 9, -79.58, 267.22, 0.00929, 6, -282.11, -164.12, 0.0967, 4, 7, -499.37, -52.88, 0.0017, 8, 603.54, 195.37, 0.54541, 9, 13.6, 202.86, 0.28933, 6, -373.53, -97.3, 0.16356, 4, 8, 720.44, 119.62, 0.11981, 9, 139.91, 144.14, 0.85265, 10, -107.1, 140.09, 0.00966, 6, -498.23, -35.23, 0.01788, 3, 8, 837.33, 43.88, 1.9E-4, 9, 266.22, 85.42, 0.31457, 10, 26.21, 99.72, 0.68525, 1, 10, 170.65, 77.44, 1, 1, 10, 315.09, 55.16, 1, 1, 10, 298.11, -88.32, 1, 1, 10, 171.27, -107.1, 1, 2, 9, 153.18, -122.33, 0.65453, 10, -56.49, -121.86, 0.34547, 2, 8, 344.79, -160.17, 0.96991, 9, -193.07, -185.28, 0.03009, 1, 8, 139.5, -173.99, 1, 2, 7, 183.19, 297.72, 0.82508, 8, -103.87, -101.88, 0.17492, 1, 7, 188.09, 401.62, 1, 1, 7, 258.87, 409.11, 1, 1, 7, 392.22, 464, 1, 1, 7, 498.38, 475.24, 1, 1, 7, 419.86, 353.11, 1, 1, 7, 341.35, 230.97, 1, 2, 7, 445.89, 182.4, 0.80474, 8, -356.96, 33.24, 0.19526, 1, 7, 186.83, -109.6, 1, 2, 8, 336.2, -10.45, 0.99957, 9, -222.45, -38.21, 4.3E-4, 1, 7, 176.27, 120.14, 1, 3, 7, -143.39, -13.05, 0.02805, 8, 245.56, 182.95, 0.66016, 6, -19.24, -44.55, 0.31179, 3, 8, 543.89, 53.17, 0.83326, 9, -25.65, 53.73, 0.1272, 6, -330.31, 50.73, 0.03954, 1, 8, 46.27, -8.66, 1, 1, 7, 131.75, -12.34, 1, 3, 7, -39.81, -142.91, 0.71172, 8, 152.24, 320.36, 0.00163, 6, 89, -170.54, 0.28665, 2, 9, 217.79, -31.27, 0.10677, 10, -5.33, -22.63, 0.89323, 3, 7, -251.13, -100.46, 0.06654, 8, 359.68, 261.84, 0.5523, 6, -123.73, -135.81, 0.38117, 2, 8, 217.7, 58.33, 0.63244, 6, -5.62, 82.43, 0.36756, 3, 8, 538.9, -65.81, 0.39421, 9, -14.01, -64.79, 0.60535, 10, -230.11, -88.41, 4.4E-4, 4, 7, -343.85, 12.99, 0.00702, 8, 443.44, 141.62, 0.68793, 9, -137.45, 127.32, 0.00685, 6, -220.52, -25.82, 0.29819, 1, 8, 163.45, -66.13, 1, 2, 7, 187.12, -203.21, 0.99869, 6, 317.97, -222.55, 0.00131, 2, 7, 320.64, 42.04, 0.95076, 8, -221.32, 163.59, 0.04924 ],
				"hull": 31,
				"edges": [ 0, 2, 2, 4, 4, 6, 6, 8, 8, 10, 10, 12, 12, 14, 14, 16, 16, 18, 18, 20, 20, 22, 22, 24, 24, 26, 26, 28, 28, 30, 30, 32, 32, 34, 34, 36, 36, 38, 38, 40, 40, 42, 42, 44, 44, 46, 46, 48, 48, 50, 50, 52, 52, 54, 54, 56, 56, 58, 58, 60, 60, 0 ],
				"width": 818,
				"height": 1617
			}
		},
		"Left_Bicep": {
			"Left_Bicep": {
				"type": "mesh",
				"uvs": [ 0.78947, 0, 0.39474, 0, 0, 0, 0, 0.33917, 0.17662, 0.66958, 0.35323, 1, 0.57135, 1, 0.54518, 0.93039, 0.77259, 0.91829, 1, 0.90619, 1, 0.68491, 1, 0.46364, 0.85927, 0.11443, 0.48238, 0.27907, 0.67682, 0.55926, 0.41432, 0.62734, 0.24566, 0.32012, 0.76158, 0.28328 ],
				"triangles": [ 5, 7, 6, 5, 15, 7, 7, 14, 8, 5, 4, 15, 7, 15, 14, 9, 8, 10, 8, 14, 10, 14, 11, 10, 4, 16, 15, 4, 3, 16, 15, 13, 14, 15, 16, 13, 14, 17, 11, 14, 13, 17, 17, 12, 11, 3, 2, 16, 16, 1, 13, 17, 13, 0, 16, 2, 1, 12, 17, 0, 13, 1, 0 ],
				"vertices": [ 1, 11, 188.16, 59.22, 1, 1, 11, 145.99, 18.22, 1, 2, 11, 103.82, -22.77, 0.87477, 12, -66.69, -49.77, 0.12523, 1, 12, 59.11, -70.73, 1, 2, 12, 185.98, -65.2, 0.99282, 15, -104.89, -56.19, 0.00718, 2, 12, 312.85, -59.67, 0.01911, 15, 22.1, -56.93, 0.98089, 1, 15, 29.02, -25.17, 1, 2, 12, 291.74, -27.15, 0.09252, 15, 2.62, -23.41, 0.90748, 2, 12, 292.82, 7.02, 0.10872, 15, 5.39, 10.66, 0.89128, 2, 12, 293.9, 41.19, 0.47358, 15, 8.16, 44.74, 0.52642, 2, 12, 211.83, 54.87, 0.99869, 15, -73.13, 62.46, 0.00131, 2, 11, 332.17, -43.9, 0.01761, 12, 129.76, 68.54, 0.98239, 2, 11, 225.61, 35.62, 0.96312, 12, -3.2, 69.45, 0.03688, 2, 11, 228.5, -47.91, 0.01625, 12, 48.63, 3.88, 0.98375, 1, 12, 157.32, 15.13, 1, 2, 12, 176.13, -27.65, 0.99995, 15, -112.87, -18.2, 5.0E-5, 1, 12, 58.06, -33.45, 1, 2, 11, 259.43, -20.04, 0.26917, 12, 57.03, 44.65, 0.73083 ],
				"hull": 13,
				"edges": [ 0, 2, 2, 4, 4, 6, 6, 8, 8, 10, 10, 12, 12, 14, 14, 16, 16, 18, 18, 20, 20, 22, 22, 24, 24, 0 ],
				"width": 149,
				"height": 376
			}
		},
		"Left_Foot": {
			"Left_Foot": {
				"type": "mesh",
				"uvs": [ 0.1264, 0.08283, 0.37736, 0, 0.58839, 0, 0.79942, 0, 0.6112, 0.13003, 0.61691, 0.31884, 0.80845, 0.55092, 1, 0.78299, 1, 1, 0.83982, 1, 0.67965, 1, 0.37736, 0.901, 0.25758, 0.69646, 0, 0.53125, 0, 0.27164, 0.31365, 0.32056, 0.6072, 0.74402, 0.5206, 0.5275, 0.24893, 0.50357, 0.82246, 0.84629, 0.43894, 0.14211, 0.40226, 0.67442 ],
				"triangles": [ 4, 2, 3, 20, 1, 2, 20, 2, 4, 20, 4, 5, 20, 15, 0, 20, 0, 1, 15, 20, 5, 14, 0, 15, 18, 14, 15, 17, 15, 5, 18, 15, 17, 13, 14, 18, 17, 5, 6, 21, 18, 17, 12, 18, 21, 13, 18, 12, 16, 17, 6, 21, 17, 16, 19, 16, 6, 7, 19, 6, 11, 12, 21, 11, 21, 16, 10, 16, 19, 11, 16, 10, 8, 9, 19, 10, 19, 9, 8, 19, 7 ],
				"vertices": [ 1, 27, 1249.13, -225.6, 1, 1, 27, 1242.25, -153.68, 1, 1, 27, 1250.47, -95.16, 1, 1, 27, 1258.69, -36.65, 1, 1, 27, 1277.5, -92.51, 1, 1, 27, 1315.68, -96.26, 1, 1, 27, 1369.79, -49.69, 1, 1, 27, 1423.9, -3.13, 1, 1, 27, 1467.52, -9.26, 1, 1, 27, 1461.29, -53.67, 1, 1, 27, 1455.05, -98.09, 1, 1, 27, 1423.38, -179.11, 1, 1, 27, 1377.6, -206.55, 1, 1, 27, 1334.36, -273.31, 1, 1, 27, 1282.17, -265.98, 1, 1, 27, 1304.22, -180.39, 1, 1, 27, 1400.77, -110.95, 1, 1, 27, 1353.87, -128.85, 1, 1, 27, 1338.48, -203.5, 1, 1, 27, 1429.71, -54.15, 1, 1, 27, 1273.22, -140.61, 1, 1, 27, 1378.8, -165.81, 1 ],
				"hull": 15,
				"edges": [ 0, 2, 2, 4, 4, 6, 6, 8, 8, 10, 10, 12, 12, 14, 14, 16, 16, 18, 18, 20, 20, 22, 22, 24, 24, 26, 26, 28, 28, 0 ],
				"width": 280,
				"height": 203
			}
		},
		"Left_Forearm": {
			"Left_Forearm": {
				"type": "mesh",
				"uvs": [ 0.016, 0.10367, 0.33245, 0, 0.58902, 0, 0.64889, 0.12038, 0.73667, 0.34028, 0.82445, 0.56019, 0.91222, 0.78009, 1, 1, 0.59758, 1, 0.26403, 0.67179, 0, 0.40778, 0.52781, 0.52952, 0.2991, 0.30394, 0.67466, 0.72083, 0.51515, 0.73123, 0.27206, 0.47812 ],
				"triangles": [ 12, 0, 1, 10, 0, 12, 15, 10, 12, 1, 3, 12, 4, 12, 3, 4, 11, 12, 15, 12, 11, 11, 4, 5, 9, 10, 15, 9, 15, 11, 13, 11, 5, 14, 9, 11, 14, 11, 13, 13, 5, 6, 8, 14, 13, 9, 14, 8, 8, 13, 6, 7, 8, 6, 3, 1, 2 ],
				"vertices": [ 2, 12, 269.08, -44.47, 0.29947, 15, -20.87, -39.58, 0.70053, 1, 12, 237.21, 9.61, 1, 2, 12, 243.62, 48.08, 0.95155, 15, -41.72, 54.11, 0.04845, 2, 12, 291.31, 49.36, 0.42295, 15, 5.97, 53.03, 0.57705, 1, 15, 92.39, 47.85, 1, 1, 15, 178.81, 42.67, 1, 1, 15, 265.24, 37.48, 1, 2, 15, 351.66, 32.3, 0.704, 16, 9.26, 43.65, 0.296, 2, 15, 338.63, -27.46, 0.664, 16, -18.09, -11.06, 0.336, 1, 15, 203.09, -49.81, 1, 1, 15, 94.2, -67.15, 1, 1, 15, 157.56, 1.15, 1, 1, 15, 64.42, -14.13, 1, 1, 15, 235.02, 7.11, 1, 1, 15, 233.81, -17.44, 1, 1, 15, 129.74, -32.57, 1 ],
				"hull": 11,
				"edges": [ 0, 2, 2, 4, 4, 6, 6, 8, 8, 10, 10, 12, 12, 14, 14, 16, 16, 18, 18, 20, 20, 0 ],
				"width": 152,
				"height": 389
			}
		},
		"Left_Hand": {
			"Left_Hand": {
				"type": "mesh",
				"uvs": [ 0, 0.87938, 0.35408, 1, 0.76666, 1, 0.77444, 0.69152, 1, 0.63892, 1, 0.42851, 0.76656, 0.29701, 0.53312, 0.16551, 0.46306, 0, 0.07384, 1.9E-4, 0, 0.39845, 0, 0.63892, 0.40587, 0.67317, 0.34605, 0.28281, 0.61008, 0.45008, 0.26458, 0.44484, 0.57516, 0.84125, 0.22889, 0.22531 ],
				"triangles": [ 1, 16, 2, 2, 16, 3, 1, 12, 16, 1, 0, 12, 0, 11, 12, 16, 12, 3, 12, 14, 3, 4, 3, 5, 11, 15, 12, 12, 15, 14, 6, 5, 3, 3, 14, 6, 11, 10, 15, 15, 13, 14, 13, 7, 14, 14, 7, 6, 10, 17, 15, 15, 17, 13, 10, 9, 17, 7, 13, 8, 13, 17, 8, 17, 9, 8 ],
				"vertices": [ 1, 16, 88.09, -85.2, 1, 1, 16, 133.2, -41.65, 1, 1, 16, 164.01, 19.98, 1, 1, 16, 116.86, 45.01, 1, 1, 16, 125.57, 82.77, 1, 1, 16, 93.01, 99.05, 1, 1, 16, 55.23, 74.35, 1, 1, 16, 17.45, 49.66, 1, 2, 15, 327.64, 34.81, 0.512, 16, -13.4, 52, 0.488, 2, 15, 313.83, -28.71, 0.528, 16, -42.43, -6.15, 0.472, 1, 16, 13.68, -48, 1, 1, 16, 50.88, -66.6, 1, 1, 16, 86.5, -8.63, 1, 1, 16, 21.63, 12.64, 1, 1, 16, 67.23, 39.14, 1, 1, 16, 40.61, -12.07, 1, 1, 16, 125.15, 3.66, 1, 1, 16, 3.98, -0.41, 1 ],
				"hull": 12,
				"edges": [ 0, 2, 2, 4, 4, 6, 6, 8, 8, 10, 10, 12, 12, 14, 14, 16, 16, 18, 18, 20, 20, 22, 22, 0 ],
				"width": 167,
				"height": 173
			}
		},
		"Left_Shoulder": {
			"Left_Shoulder": {
				"type": "mesh",
				"uvs": [ 1, 1, 0.6162, 1, 0.3081, 0.70938, 0, 0.41876, 0, 0, 0.5685, 0, 0.78425, 0.18671, 1, 0.37341, 1, 0.6867, 0.42733, 0.36707, 0.67294, 0.69165, 0.24909, 0.19634, 0.69009, 0.32433 ],
				"triangles": [ 11, 4, 5, 12, 5, 6, 9, 11, 5, 12, 9, 5, 12, 6, 7, 3, 4, 11, 10, 12, 7, 10, 9, 12, 8, 10, 7, 9, 3, 11, 2, 9, 10, 2, 3, 9, 1, 2, 10, 10, 8, 0, 1, 10, 0 ],
				"vertices": [ 2, 11, 227.54, 24.98, 0.648, 12, 4.66, 62.02, 0.352, 2, 11, 167.55, -33.34, 0.704, 12, -9.09, -20.51, 0.296, 2, 11, 84.55, -44.32, 0.632, 12, -69.44, -78.54, 0.368, 2, 11, 1.55, -55.3, 0.656, 5, 479.33, -43.44, 0.344, 2, 11, -48.66, -3.66, 0.624, 5, 550.92, -51.39, 0.376, 1, 11, 40.2, 82.73, 1, 1, 11, 96.31, 92.5, 1, 1, 11, 152.42, 102.26, 1, 2, 11, 189.98, 63.62, 0.608, 12, -48.49, 70.88, 0.392, 1, 11, 62.14, 16.01, 1, 1, 11, 139.45, 13.31, 1, 2, 11, 13.81, 9.98, 0.72, 5, 511.36, -101.63, 0.28, 1, 11, 98.09, 61.22, 1 ],
				"hull": 9,
				"edges": [ 0, 2, 2, 4, 4, 6, 6, 8, 8, 10, 10, 12, 12, 14, 14, 16, 16, 0 ],
				"width": 218,
				"height": 172
			}
		},
		"Left_Shoulder_Pad": {
			"Left_Shoulder_Pad": {
				"type": "mesh",
				"uvs": [ 0.33015, 1, 0.672, 1, 1, 0.72427, 1, 0.45969, 0.74484, 0.22984, 0.48968, 0, 0.24484, 0, 0, 0, 0, 0.45969, 0.18202, 0.63608, 0.37897, 0.37664, 0.59501, 0.70013, 0.74378, 0.4981, 0.22264, 0.1679, 0.43161, 0.74258 ],
				"triangles": [ 13, 7, 6, 5, 13, 6, 10, 5, 4, 10, 13, 5, 8, 7, 13, 8, 13, 10, 12, 10, 4, 12, 4, 3, 9, 8, 10, 11, 10, 12, 14, 9, 10, 12, 3, 2, 11, 12, 2, 11, 14, 10, 0, 9, 14, 1, 11, 2, 14, 11, 1, 0, 14, 1 ],
				"vertices": [ 173.92, -144.92, 268.56, -73.41, 314.66, 54.38, 271.76, 111.17, 163.84, 107.12, 55.92, 103.08, -11.86, 51.86, -79.65, 0.64, -5.1, -98.02, 73.89, -97.8, 86.35, -0.92, 198.62, -25.15, 207.05, 49.32, 9.22, 11.18, 160.27, -68.45 ],
				"hull": 10,
				"edges": [ 0, 2, 2, 4, 4, 6, 6, 8, 8, 10, 10, 12, 12, 14, 14, 16, 16, 18, 18, 0 ],
				"width": 347,
				"height": 269
			}
		},
		"Light Orb": {
			"Light Orb": { "x": 164.15, "y": -31.56, "rotation": 161.37, "width": 469, "height": 208 }
		},
		"Neck": {
			"Neck": {
				"type": "mesh",
				"uvs": [ 0.31855, 0, 0.17775, 0, 0.08888, 0.3697, 0, 0.73941, 0.13509, 0.87515, 0.44655, 1, 0.82202, 1, 1, 0.85326, 1, 0.66278, 1, 0.47229, 0.72815, 0.43726, 0.55749, 0.33436, 0.38682, 0.23145, 0.35873, 0.62534, 0.72587, 0.73043, 0.61562, 0.75876, 0.17706, 0.6006, 0.25492, 0.19892, 0.3037, 0.3934 ],
				"triangles": [ 5, 15, 6, 15, 14, 6, 6, 14, 7, 5, 4, 13, 4, 16, 13, 5, 13, 15, 4, 3, 16, 14, 8, 7, 14, 15, 10, 3, 2, 16, 10, 15, 13, 14, 10, 8, 10, 13, 11, 10, 9, 8, 16, 18, 13, 13, 18, 11, 16, 2, 18, 2, 17, 18, 18, 12, 11, 18, 17, 12, 2, 1, 17, 17, 0, 12, 17, 1, 0 ],
				"vertices": [ 2, 6, 160.44, 68.9, 0.616, 7, 40.3, 93.77, 0.384, 2, 6, 156.56, 96.08, 0.56, 7, 37.41, 121.08, 0.44, 1, 6, 84.57, 103.3, 1, 2, 6, 12.58, 110.52, 0.616, 5, 590.41, 118.28, 0.384, 2, 6, -9.22, 80.8, 0.504, 5, 561.87, 94.95, 0.496, 2, 6, -24.12, 17.32, 0.56, 5, 531.59, 37.21, 0.44, 2, 6, -13.76, -55.16, 0.576, 5, 523.5, -35.56, 0.424, 2, 6, 18.74, -85.58, 0.536, 5, 547.38, -73.14, 0.464, 1, 6, 54.57, -80.46, 1, 2, 6, 90.4, -75.34, 0.544, 7, -34.94, -47.82, 0.456, 2, 6, 89.49, -21.92, 0.584, 7, -33.9, 5.6, 0.416, 2, 6, 104.14, 13.79, 0.544, 7, -17.97, 40.75, 0.456, 2, 6, 118.79, 49.5, 0.496, 7, -2.03, 75.91, 0.504, 1, 6, 43.93, 44.34, 1, 1, 6, 34.29, -29.36, 1, 1, 6, 25.92, -8.84, 1, 1, 6, 43.57, 80.07, 1, 1, 6, 121.27, 75.84, 1, 1, 6, 86.04, 61.19, 1 ],
				"hull": 13,
				"edges": [ 0, 2, 2, 4, 4, 6, 6, 8, 8, 10, 10, 12, 12, 14, 14, 16, 16, 18, 18, 20, 20, 22, 22, 24, 24, 0 ],
				"width": 195,
				"height": 190
			}
		},
		"Right_Bicep": {
			"Right_Bicep": {
				"type": "mesh",
				"uvs": [ 0, 1, 0, 0.81054, 0.08614, 0.49213, 0.17228, 0.17373, 0.45949, 0, 1, 0, 1, 0.23779, 0.81288, 0.61889, 0.62576, 1, 0.31288, 1, 0.44894, 0.57569, 0.64658, 0.26887, 0.36316, 0.30238, 0.24569, 0.81292 ],
				"triangles": [ 8, 13, 10, 6, 11, 5, 12, 3, 4, 12, 4, 11, 2, 3, 12, 10, 12, 11, 2, 12, 10, 7, 11, 6, 10, 11, 7, 13, 2, 10, 1, 2, 13, 8, 10, 7, 0, 1, 13, 0, 13, 9, 8, 9, 13, 11, 4, 5 ],
				"vertices": [ 2, 20, 319.78, -41.91, 0.224, 23, 35.86, -42.98, 0.776, 1, 20, 255.47, -53.6, 1, 2, 19, 326.92, 13.74, 3.1E-4, 20, 144.74, -58.68, 0.99969, 2, 19, 225.46, -30.9, 0.29692, 20, 34.01, -63.75, 0.70308, 1, 19, 148.56, -20, 1, 2, 19, 100.08, 59.33, 0.56359, 20, -50.42, 65.6, 0.43641, 2, 19, 170.08, 102.11, 0.00277, 20, 30.29, 80.28, 0.99723, 1, 20, 165.41, 72.13, 1, 2, 20, 300.53, 63.99, 0.344, 23, 22.73, 63.85, 0.656, 2, 20, 310.15, 11.04, 0.608, 23, 29.29, 10.43, 0.392, 1, 20, 161.94, 7.88, 1, 1, 20, 51.72, 22.39, 1, 2, 19, 246.21, 20.26, 0.0325, 20, 71.81, -23.51, 0.9675, 1, 20, 248.72, -11.88, 1 ],
				"hull": 10,
				"edges": [ 0, 2, 2, 4, 4, 6, 6, 8, 8, 10, 10, 12, 12, 14, 14, 16, 16, 18, 18, 0 ],
				"width": 172,
				"height": 345
			}
		},
		"Right_Foot": {
			"Right_Foot": {
				"type": "mesh",
				"uvs": [ 0.27686, 0, 0.50044, 0, 0.72402, 0, 0.69847, 0.26102, 0.78151, 0.47195, 1, 0.78833, 1, 1, 0.65375, 1, 0.47169, 0.89417, 0.28964, 0.78833, 0.14271, 0.50961, 0, 0.32882, 0, 0.11036, 0.10438, 0, 0.30483, 0.21402, 0.48769, 0.50082, 0.70288, 0.7584, 0.51905, 0.31835, 0.34763, 0.46561, 0.54669, 0.68279 ],
				"triangles": [ 14, 0, 1, 3, 1, 2, 17, 14, 1, 3, 17, 1, 14, 11, 12, 18, 14, 17, 15, 18, 17, 12, 13, 14, 14, 13, 0, 10, 14, 18, 10, 11, 14, 17, 4, 15, 4, 17, 3, 19, 15, 4, 16, 19, 4, 16, 4, 5, 9, 10, 18, 19, 9, 18, 19, 18, 15, 8, 9, 19, 8, 19, 16, 7, 8, 16, 16, 5, 6, 7, 16, 6 ],
				"vertices": [ -56.87, 70.22, -9.81, 100.38, 37.25, 130.55, 61.73, 80.51, 103.34, 54.07, 185.52, 27.08, 209.74, -10.7, 136.87, -57.41, 86.44, -63.08, 36.01, -68.76, -26.8, -38.83, -77.52, -25.82, -102.51, 13.17, -93.17, 46.95, -26.49, 35.79, 44.8, 9.28, 119.56, -7.66, 30.53, 46.08, 11.3, -3.33, 78.04, -15.24 ],
				"hull": 14,
				"edges": [ 0, 2, 2, 4, 4, 6, 6, 8, 8, 10, 10, 12, 12, 14, 14, 16, 16, 18, 18, 20, 20, 22, 22, 24, 24, 26, 26, 0 ],
				"width": 250,
				"height": 212
			}
		},
		"Right_Forearm": {
			"Right_Forearm": {
				"type": "mesh",
				"uvs": [ 0.05213, 1, 0.32991, 1, 0.60769, 1, 0.70577, 0.75, 0.80384, 0.5, 0.90192, 0.25, 1, 0, 0.67607, 0, 0.35213, 0, 0.17607, 0.101, 0, 0.202, 0.01303, 0.4015, 0.02607, 0.601, 0.0391, 0.8005, 0.36254, 0.54062, 0.26274, 0.7859, 0.63872, 0.20923, 0.32924, 0.32926, 0.74321, 0.22656, 0.59713, 0.42539, 0.1783, 0.35496, 0.4543, 0.81554, 0.46139, 0.1775, 0.58467, 0.60626, 0.14725, 0.58107, 0.79201, 0.13706 ],
				"triangles": [ 1, 21, 2, 2, 21, 3, 0, 15, 1, 1, 15, 21, 0, 13, 15, 15, 14, 21, 21, 23, 3, 21, 14, 23, 13, 24, 15, 13, 12, 24, 15, 24, 14, 3, 23, 4, 23, 19, 4, 23, 14, 19, 12, 11, 24, 24, 20, 14, 24, 11, 20, 19, 18, 4, 19, 16, 18, 20, 17, 14, 14, 17, 19, 4, 18, 5, 17, 22, 19, 19, 22, 16, 11, 10, 20, 10, 9, 20, 20, 9, 17, 22, 9, 8, 22, 17, 9, 18, 25, 5, 5, 25, 6, 18, 16, 25, 16, 7, 25, 16, 22, 7, 22, 8, 7, 25, 7, 6 ],
				"vertices": [ 2, 23, 351.18, -18.56, 0.536, 24, 3.82, -25.11, 0.464, 2, 23, 347.24, 13.7, 0.512, 24, -3.09, 6.65, 0.488, 2, 23, 343.31, 45.96, 0.504, 24, -9.99, 38.4, 0.496, 1, 23, 249.85, 46.12, 1, 1, 23, 156.39, 46.29, 1, 2, 20, 341.67, 48.93, 0.00481, 23, 62.94, 46.45, 0.99519, 2, 20, 248.36, 43.72, 0.88853, 23, -30.52, 46.61, 0.11147, 1, 20, 255.11, 6.42, 1, 2, 20, 261.85, -30.87, 0.50303, 23, -21.34, -28.63, 0.49697, 2, 20, 302.39, -44.48, 0.02027, 23, 18.35, -44.54, 0.97973, 1, 23, 58.04, -60.45, 1, 1, 23, 131.32, -49.98, 1, 1, 23, 204.61, -39.51, 1, 1, 23, 277.89, -29.03, 1, 1, 23, 177.6, -3.14, 1, 1, 23, 269.35, -3.72, 1, 2, 20, 332.27, 15.94, 0.00283, 23, 51.65, 14.05, 0.99717, 1, 23, 100.24, -16.5, 1, 2, 20, 336.42, 29.11, 0.00569, 23, 56.55, 26.96, 0.99431, 1, 23, 131.85, 18.93, 1, 1, 23, 111.84, -32.88, 1, 1, 23, 277.55, 19.86, 1, 1, 23, 42.48, -7.97, 1, 1, 23, 198.63, 25.6, 1, 1, 23, 195.55, -26.33, 1, 2, 20, 302.73, 28.82, 0.13511, 23, 22.9, 28.61, 0.86489 ],
				"hull": 14,
				"edges": [ 0, 2, 2, 4, 4, 6, 6, 8, 8, 10, 10, 12, 12, 14, 14, 16, 16, 18, 18, 20, 20, 22, 22, 24, 24, 26, 26, 0 ],
				"width": 117,
				"height": 371
			}
		},
		"Right_Hand": {
			"Right_Hand": {
				"type": "mesh",
				"uvs": [ 0.51547, 0, 0.84821, 0, 0.89464, 0.29725, 1, 0.43822, 1, 0.65749, 1, 0.87677, 0.67023, 1, 0.46131, 1, 0.25238, 1, 0.29107, 0.66533, 0, 0.65749, 0, 0.43039, 0.18273, 0.35207, 0.36845, 0.16412, 0.50929, 0.72818, 0.54938, 0.35371, 0.77252, 0.61663, 0.63525, 0.16266, 0.37987, 0.45272, 0.7906, 0.77626 ],
				"triangles": [ 17, 0, 1, 13, 0, 17, 17, 1, 2, 15, 13, 17, 15, 17, 2, 18, 12, 13, 15, 18, 13, 16, 15, 2, 16, 2, 3, 9, 10, 11, 16, 3, 4, 9, 12, 18, 9, 11, 12, 14, 18, 15, 14, 15, 16, 9, 18, 14, 19, 16, 4, 14, 16, 19, 19, 4, 5, 7, 8, 9, 14, 7, 9, 6, 14, 19, 7, 14, 6, 6, 19, 5 ],
				"vertices": [ 2, 24, -17.28, -36.35, 0.29986, 23, 329.13, -27.8, 0.70014, 2, 24, -29.15, 18.27, 0.49531, 23, 322.36, 27.69, 0.50469, 1, 24, 17.41, 36.38, 1, 1, 24, 36.51, 58.65, 1, 1, 24, 72.08, 66.38, 1, 1, 24, 107.65, 74.11, 1, 1, 24, 139.41, 24.32, 1, 1, 24, 146.87, -9.98, 1, 1, 24, 154.32, -44.28, 1, 2, 24, 98.65, -49.73, 0.99794, 23, 443.33, -51.85, 0.00206, 1, 24, 107.77, -97.79, 1, 2, 24, 70.93, -105.8, 0.9948, 23, 410.53, -105.11, 0.0052, 2, 24, 51.71, -78.56, 0.96528, 23, 393.91, -76.21, 0.03472, 2, 24, 14.59, -54.7, 0.75912, 23, 359.16, -49.02, 0.24088, 1, 24, 101.06, -11.69, 1, 2, 24, 38.89, -18.31, 0.96504, 23, 386.73, -15.04, 0.03496, 1, 24, 73.57, 27.59, 1, 2, 24, 4.83, -10.95, 0.83652, 23, 353.5, -4.55, 0.16348, 2, 24, 61, -42.65, 0.97129, 23, 406.49, -41.31, 0.02871, 1, 24, 98.82, 36.19, 1 ],
				"hull": 14,
				"edges": [ 0, 2, 2, 4, 4, 6, 6, 8, 8, 10, 10, 12, 12, 14, 14, 16, 16, 18, 18, 20, 20, 22, 22, 24, 24, 26, 26, 0 ],
				"width": 168,
				"height": 166
			}
		},
		"Right_Should_Pad": {
			"Right_Should_Pad": {
				"type": "mesh",
				"uvs": [ 0.66173, 1, 0.35918, 1, 0, 0.74851, 0, 0.35311, 0.31521, 0.17655, 0.63043, 0, 1, 0, 1, 0.33993, 0.83086, 0.66996, 0.31859, 0.53387, 0.59554, 0.5736, 0.7287, 0.29336, 0.38631, 0.77081 ],
				"triangles": [ 11, 5, 6, 4, 5, 11, 11, 6, 7, 10, 9, 4, 3, 4, 9, 11, 10, 4, 8, 11, 7, 10, 11, 8, 2, 3, 9, 12, 9, 10, 2, 9, 12, 1, 2, 12, 0, 10, 8, 12, 10, 0, 1, 12, 0 ],
				"vertices": [ 197.36, 164.16, 293.28, 101.32, 365.79, -36.4, 300.79, -135.62, 171.83, -114.45, 42.88, -93.28, -74.28, -16.52, -18.4, 68.78, 89.48, 116.47, 229.51, -24.08, 148.24, 43.41, 59.95, 0.74, 247, 49.44 ],
				"hull": 9,
				"edges": [ 0, 2, 2, 4, 4, 6, 6, 8, 8, 10, 10, 12, 12, 14, 14, 16, 16, 0 ],
				"width": 379,
				"height": 300
			}
		},
		"Right_Shoulder": {
			"Right_Shoulder": {
				"type": "mesh",
				"uvs": [ 0, 1, 0, 0.694, 0, 0.388, 0.36478, 0, 0.68239, 0, 1, 0, 1, 0.388, 0.82489, 0.77347, 0.58388, 0.95486, 0.47433, 1, 0.59858, 0.38354, 0.41193, 0.75024, 0.39533, 0.2572, 0.33703, 0.5163, 0.62511, 0.62744 ],
				"triangles": [ 0, 11, 9, 9, 11, 8, 0, 1, 11, 8, 14, 7, 8, 11, 14, 7, 14, 6, 1, 13, 11, 11, 13, 14, 1, 2, 13, 13, 10, 14, 14, 10, 6, 13, 12, 10, 13, 2, 12, 10, 4, 6, 4, 5, 6, 2, 3, 12, 10, 12, 4, 12, 3, 4 ],
				"vertices": [ 2, 19, 203.52, -27.47, 0.7194, 20, 14.78, -52.64, 0.2806, 1, 19, 158.61, -54.92, 1, 1, 19, 113.7, -82.36, 1, 1, 19, 22.89, -61.76, 1, 1, 19, -6.59, -13.52, 1, 2, 19, -36.07, 34.72, 0.624, 5, 584.05, 129.05, 0.376, 3, 19, 20.88, 69.52, 0.66303, 5, 517.72, 136.42, 0.328, 20, -120.62, 103.66, 0.00897, 2, 19, 93.7, 77.5, 0.82234, 20, -49.82, 84.85, 0.17766, 2, 19, 142.7, 57.16, 0.42827, 20, -11.45, 48.22, 0.57173, 2, 19, 159.49, 44.57, 0.21044, 20, -0.32, 30.43, 0.78956, 2, 19, 57.48, 8.15, 0.99748, 20, -108.6, 33.22, 0.00252, 2, 19, 128.63, 12.69, 0.89148, 20, -40.6, 11.81, 0.10852, 1, 19, 57.81, -34.05, 1, 1, 19, 101.24, -19.66, 1, 2, 19, 90.82, 34.06, 0.90416, 20, -68.17, 45.37, 0.09584 ],
				"hull": 10,
				"edges": [ 0, 2, 2, 4, 4, 6, 6, 8, 8, 10, 10, 12, 12, 14, 14, 16, 16, 18, 18, 0 ],
				"width": 178,
				"height": 172
			}
		},
		"Robes": {
			"Robes": {
				"type": "mesh",
				"uvs": [ 0.03482, 0.99257, 0.12787, 0.98446, 0.25987, 1, 0.33777, 1, 0.41351, 0.9891, 0.49357, 1, 0.59744, 1, 0.67318, 0.98678, 0.7922, 1, 0.85063, 1, 0.9004, 0.97055, 0.9545, 0.95549, 1, 0.95085, 1, 0.89522, 0.95882, 0.82221, 0.94368, 0.76079, 0.93286, 0.59854, 0.89607, 0.45135, 0.85171, 0.33141, 0.80735, 0.21146, 0.77056, 0.1199, 0.73377, 0.02835, 0.63315, 0.03356, 0.53253, 0.03878, 0.42108, 0.01939, 0.30964, 0, 0.24256, 0, 0.17331, 0.13876, 0.10406, 0.27752, 0.06295, 0.3853, 0.03698, 0.50582, 0.02616, 0.64258, 0.01308, 0.78339, 0, 0.9242, 0, 0.97635, 0.33526, 0.81362, 0.31077, 0.13749, 0.36128, 0.37589, 0.69388, 0.64861, 0.6353, 0.44176, 0.48845, 0.76191, 0.56355, 0.20533, 0.18955, 0.60898, 0.50454, 0.56533, 0.78773, 0.86855, 0.34375, 0.59764, 0.18315, 0.45871, 0.13621, 0.82219, 0.50812, 0.33855, 0.67322, 0.30567, 0.22652, 0.27767, 0.65211, 0.86005, 0.78049, 0.46291, 0.82848, 0.75909, 0.20619, 0.69702 ],
				"triangles": [ 4, 35, 40, 4, 3, 35, 36, 25, 24, 26, 25, 36, 27, 26, 36, 50, 27, 36, 28, 27, 50, 24, 41, 36, 41, 24, 23, 48, 36, 41, 37, 50, 36, 48, 37, 36, 46, 28, 50, 46, 50, 37, 29, 28, 46, 30, 29, 46, 43, 37, 48, 45, 46, 37, 45, 37, 43, 42, 46, 45, 30, 46, 42, 31, 30, 42, 54, 42, 45, 31, 42, 54, 40, 45, 43, 47, 32, 31, 35, 54, 45, 35, 45, 40, 54, 47, 31, 47, 54, 35, 33, 32, 47, 33, 0, 34, 47, 1, 33, 1, 0, 33, 2, 47, 35, 1, 47, 2, 3, 2, 35, 41, 23, 22, 22, 20, 41, 20, 22, 21, 49, 20, 19, 49, 41, 20, 49, 19, 18, 48, 41, 49, 39, 48, 49, 52, 49, 18, 52, 18, 17, 39, 49, 52, 43, 48, 39, 38, 39, 52, 43, 39, 38, 52, 16, 38, 16, 52, 17, 53, 38, 16, 53, 16, 15, 40, 43, 38, 51, 40, 38, 51, 38, 53, 44, 51, 53, 11, 14, 13, 15, 14, 53, 12, 11, 13, 53, 14, 44, 11, 10, 14, 10, 44, 14, 7, 51, 44, 51, 5, 40, 51, 6, 5, 7, 6, 51, 9, 8, 44, 7, 44, 8, 10, 9, 44, 5, 4, 40 ],
				"vertices": [ 1, 26, 1318.14, -17.36, 1, 1, 26, 1289.85, 46.2, 1, 1, 26, 1285.77, 145.86, 1, 1, 26, 1271.14, 201.46, 1, 1, 26, 1242.38, 251.69, 1, 1, 27, 1256.32, -262.09, 1, 1, 27, 1266.98, -186.18, 1, 1, 27, 1256.71, -128.29, 1, 1, 27, 1286.97, -43.85, 1, 1, 27, 1292.96, -1.15, 1, 1, 27, 1257.88, 40.87, 1, 1, 27, 1242.88, 83.3, 1, 1, 27, 1241.22, 117.44, 1, 1, 27, 1165.31, 128.1, 1, 1, 27, 1061.45, 112, 1, 1, 27, 976.08, 112.7, 1, 1, 27, 753.56, 135.88, 1, 1, 27, 548.94, 137.2, 1, 1, 27, 380.7, 127.76, 1, 1, 27, 212.46, 118.32, 1, 1, 27, 83.75, 108.98, 1, 1, 27, -44.96, 99.64, 1, 2, 27, -48.17, 25.1, 0.97497, 26, -72.24, 73.36, 0.02503, 2, 27, -51.38, -49.44, 0.20069, 26, -46.39, 3.38, 0.79931, 1, 26, -51.3, -82.96, 1, 1, 26, -56.21, -169.3, 1, 1, 26, -43.61, -217.17, 1, 1, 26, 154.31, -217.94, 1, 1, 26, 352.23, -218.7, 1, 1, 26, 503.58, -210.25, 1, 1, 26, 669.08, -186.51, 1, 1, 26, 853.35, -146.28, 1, 1, 26, 1043.45, -106.23, 1, 1, 26, 1233.56, -66.19, 1, 1, 26, 1303.06, -47.9, 1, 2, 27, 985.74, -342.08, 0.20101, 26, 1023.23, 134.31, 0.79899, 1, 26, 126.8, -120.28, 1, 1, 26, 435.01, -0.62, 1, 2, 27, 797.36, -48.37, 0.94397, 26, 735.98, 332.39, 0.05603, 2, 27, 509.08, -51.55, 0.88714, 26, 471.33, 218.04, 0.11286, 2, 27, 930.9, -220.21, 0.5368, 26, 925.56, 225.51, 0.4632, 2, 27, 179.09, -58.68, 0.60606, 26, 169.74, 83.92, 0.39394, 1, 26, 777.89, -41.45, 1, 2, 27, 664.29, -170.79, 0.49444, 26, 660.56, 168.05, 0.50556, 2, 27, 1107.13, -21.92, 0.99743, 26, 1011.46, 476.5, 0.00257, 2, 27, 691.88, -294.49, 0.09985, 26, 733.82, 64.63, 0.90015, 1, 26, 578.84, -98.71, 1, 1, 26, 1072.04, -4.75, 1, 2, 27, 355.18, -124.71, 0.38457, 26, 357.67, 91.08, 0.61543, 1, 27, 327.26, 2.25, 1, 1, 26, 329.43, -131.24, 1, 2, 27, 1081.61, -119.41, 0.93148, 26, 1025.6, 376.73, 0.06852, 1, 27, 552.84, 50.52, 1, 1, 27, 961.94, 28.83, 1, 2, 27, 813.38, -414.06, 3.5E-4, 26, 892.09, 1.3, 0.99965 ],
				"hull": 35,
				"edges": [ 0, 2, 2, 4, 4, 6, 6, 8, 8, 10, 10, 12, 12, 14, 14, 16, 16, 18, 18, 20, 20, 22, 22, 24, 24, 26, 26, 28, 28, 30, 30, 32, 32, 34, 34, 36, 36, 38, 38, 40, 40, 42, 42, 44, 44, 46, 46, 48, 48, 50, 50, 52, 52, 54, 54, 56, 56, 58, 58, 60, 60, 62, 62, 64, 64, 66, 66, 68, 68, 0 ],
				"width": 738,
				"height": 1378
			}
		},
		"Robs Light My Path": {
			"Robs Light My Path": {
				"type": "path",
				"closed": true,
				"lengths": [ 1176.15, 2528.12, 4001.04, 5459.24, 6779.21, 7973.41 ],
				"vertexCount": 18,
				"vertices": [ -1171.58, 1019.19, -1247.8, 1360.12, -1318.12, 1674.63, -1301.86, 2213.33, -1130.71, 2511.5, -955.54, 2816.7, -417.84, 3188.21, -10.55, 3194.53, 397.23, 3200.86, 1004.56, 2782.52, 1156.44, 2394.41, 1312.55, 1995.49, 1235.23, 1290.78, 1015.94, 981.53, 796.64, 672.28, 203.52, 402.48, -143.25, 435.11, -545.65, 472.97 ]
			}
		},
		"Torso": {
			"Torso": {
				"type": "mesh",
				"uvs": [ 1, 1, 1, 0.73696, 1, 0.47392, 0.92803, 0.15736, 0.75935, 0.11516, 0.62848, 0.02019, 0.48016, 0.05818, 0.27949, 0, 0.18933, 0, 0.11663, 0.10249, 0, 0.19957, 0, 0.32409, 0.10048, 0.51191, 0.20097, 0.69973, 0.14571, 0.93821, 0.55577, 1, 0.77789, 1, 0.66655, 0.3146, 0.77791, 0.70027, 0.44359, 0.66328, 0.3127, 0.31074, 0.3873, 0.81883, 0.58876, 0.5423, 0.58897, 0.78824, 0.32943, 0.54517 ],
				"triangles": [ 17, 5, 4, 3, 17, 4, 16, 1, 0, 14, 21, 15, 17, 3, 2, 20, 7, 6, 6, 5, 17, 20, 6, 17, 11, 10, 9, 20, 12, 11, 22, 20, 17, 24, 20, 22, 19, 24, 22, 9, 7, 20, 7, 9, 8, 24, 12, 20, 13, 24, 19, 9, 20, 11, 24, 13, 12, 2, 22, 17, 18, 22, 2, 18, 2, 1, 23, 22, 18, 19, 22, 23, 21, 13, 19, 21, 19, 23, 14, 13, 21, 15, 21, 23, 16, 23, 18, 16, 18, 1, 15, 23, 16 ],
				"vertices": [ 1, 27, -14.71, 106.97, 1, 2, 5, 105.91, -171.99, 0.95059, 11, 371.54, -193.42, 0.04941, 2, 5, 266.96, -189.88, 0.85635, 11, 258.59, -77.24, 0.14365, 1, 11, 99.59, 40.15, 1, 1, 11, 27.41, 6.23, 1, 2, 5, 563.08, -55.7, 0.35099, 11, -55.32, 7.4, 0.64901, 2, 5, 547.15, 12.78, 0.94528, 11, -86.54, -55.6, 0.05472, 2, 5, 592.67, 97.98, 0.784, 19, -61.91, 54.01, 0.216, 2, 5, 597.12, 138.03, 0.856, 19, -40.9, 19.62, 0.144, 2, 5, 537.96, 177.3, 0.816, 19, 29.92, 24.81, 0.184, 2, 5, 484.28, 235.72, 0.84, 19, 108.13, 11.51, 0.16, 2, 5, 408.05, 244.19, 0.856, 19, 173.58, 51.51, 0.144, 1, 5, 288.1, 212.33, 1, 1, 5, 168.15, 180.46, 1, 1, 26, -12.65, -217.18, 1, 1, 26, -22.49, -30.23, 1, 1, 27, -28.52, 8.65, 1, 2, 5, 380.96, -52.58, 0.84494, 11, 83.3, -110.77, 0.15506, 2, 5, 139.34, -75.82, 0.96773, 11, 284.6, -246.41, 0.03227, 1, 5, 178.49, 70.19, 1, 1, 5, 400.79, 104.36, 1, 2, 5, 86.03, 105.78, 0.856, 26, -111.25, -131.46, 0.144, 2, 5, 245.39, -2.53, 0.99898, 11, 156.15, -235.58, 0.00102, 1, 5, 94.81, 14.1, 1, 1, 5, 256.43, 112.88, 1 ],
				"hull": 17,
				"edges": [ 0, 2, 2, 4, 4, 6, 6, 8, 8, 10, 10, 12, 12, 14, 14, 16, 16, 18, 18, 20, 20, 22, 22, 24, 24, 26, 26, 28, 28, 30, 30, 32, 32, 0 ],
				"width": 447,
				"height": 616
			}
		},
		"Water Orb": {
			"Water Orb": { "x": 120.17, "y": -6.8, "rotation": 59.49, "width": 232, "height": 329 }
		}
	}
},
"animations": {
	"Death Animation": {
		"slots": {
			"Arcane Orb": {
				"attachment": [
					{ "time": 0.4333, "name": null },
					{ "time": 0.7333, "name": null }
				]
			},
			"Earth Orb": {
				"attachment": [
					{ "time": 0.6667, "name": null },
					{ "time": 0.7333, "name": null }
				]
			},
			"Eyes_Arcane": {
				"attachment": [
					{ "time": 0.7333, "name": null }
				]
			},
			"Eyes_Earth": {
				"attachment": [
					{ "time": 0.7333, "name": null }
				]
			},
			"Eyes_Frost": {
				"attachment": [
					{ "time": 0.7333, "name": null }
				]
			},
			"Eyes_Lightning": {
				"attachment": [
					{ "time": 0.7333, "name": null }
				]
			},
			"Eyes_fire": {
				"attachment": [
					{ "time": 0.7333, "name": null }
				]
			},
			"Fire Orb": {
				"attachment": [
					{ "time": 0.1333, "name": "Fire Orb" },
					{ "time": 0.2, "name": null }
				]
			},
			"Head": {
				"attachment": [
					{ "time": 0.7333, "name": "Head" },
					{ "time": 1.0667, "name": null },
					{ "time": 1.6, "name": null }
				]
			},
			"Left_Bicep": {
				"attachment": [
					{ "time": 0.0667, "name": null }
				]
			},
			"Left_Foot": {
				"attachment": [
					{ "time": 0.1333, "name": null }
				]
			},
			"Left_Forearm": {
				"attachment": [
					{ "time": 0.6667, "name": null }
				]
			},
			"Left_Hand": {
				"attachment": [
					{ "time": 0.2, "name": "Left_Hand" },
					{ "time": 0.6, "name": null }
				]
			},
			"Left_Shoulder": {
				"attachment": [
					{ "time": 0.4, "name": null }
				]
			},
			"Left_Shoulder_Pad": {
				"attachment": [
					{ "time": 0.3333, "name": null }
				]
			},
			"Light Orb": {
				"attachment": [
					{ "time": 0.9333, "name": null }
				]
			},
			"Neck": {
				"attachment": [
					{ "time": 0.5333, "name": null }
				]
			},
			"Right_Bicep": {
				"attachment": [
					{ "time": 0.2667, "name": null }
				]
			},
			"Right_Foot": {
				"attachment": [
					{ "time": 0.4667, "name": null }
				]
			},
			"Right_Forearm": {
				"attachment": [
					{ "time": 0.2, "name": null }
				]
			},
			"Right_Hand": {
				"attachment": [
					{ "time": 0.8, "name": null }
				]
			},
			"Right_Should_Pad": {
				"attachment": [
					{ "time": 0.8667, "name": null }
				]
			},
			"Right_Shoulder": {
				"attachment": [
					{ "time": 0.9333, "name": null }
				]
			},
			"Robes": {
				"attachment": [
					{ "time": 0.4667, "name": null }
				]
			},
			"Robs Light My Path": {
				"attachment": [
					{ "time": 1.0333, "name": null }
				]
			},
			"Torso": {
				"attachment": [
					{ "time": 1, "name": null }
				]
			},
			"Water Orb": {
				"attachment": [
					{ "time": 1.0333, "name": null }
				]
			}
		},
		"bones": {
			"root": {
				"rotate": [
					{ "time": 0, "angle": 0 }
				],
				"translate": [
					{ "time": 0, "x": 0, "y": 0 }
				]
			},
			"Hip": {
				"rotate": [
					{ "time": 0, "angle": 0 }
				],
				"translate": [
					{ "time": 0, "x": 0, "y": 0 },
					{ "time": 0.0667, "x": -14.08, "y": 150.21 },
					{ "time": 0.1333, "x": 253.48, "y": 248.78 },
					{ "time": 0.2, "x": -112.66, "y": 75.1 },
					{ "time": 0.2667, "x": 215.92, "y": -84.49 },
					{ "time": 0.3333, "x": -244.09, "y": 502.26 },
					{ "time": 0.4, "x": 187.76, "y": 295.72 },
					{ "time": 0.4667, "x": -253.47, "y": -32.86 },
					{ "time": 0.5333, "x": 328.58, "y": 403.68 },
					{ "time": 0.6, "x": -154.9, "y": 9.39 },
					{ "time": 0.6667, "x": 389.6, "y": -61.02 },
					{ "time": 0.7333, "x": -478.79, "y": 690.02 },
					{ "time": 0.8, "x": 32.86, "y": 558.59 },
					{ "time": 0.8667, "x": 182.46, "y": 510.71 },
					{ "time": 0.9333, "x": -182.56, "y": 486.78 },
					{ "time": 1, "x": 86.72, "y": 504.73 },
					{ "time": 1.0667, "x": -62.88, "y": 486.78, "curve": "stepped" },
					{ "time": 1.6, "x": -62.88, "y": 486.78 }
				]
			},
			"Arcane Orb": {
				"rotate": [
					{ "time": 0, "angle": -18.51 }
				],
				"translate": [
					{ "time": 0, "x": -2180.63, "y": -896.96 }
				]
			},
			"Fire Orb": {
				"rotate": [
					{ "time": 0, "angle": -8.94 }
				],
				"translate": [
					{ "time": 0, "x": -1548.15, "y": 1667.09 }
				]
			},
			"Water Orb": {
				"rotate": [
					{ "time": 0, "angle": 23.51 }
				],
				"translate": [
					{ "time": 0, "x": 1686.23, "y": 1530.08 }
				]
			},
			"Earth Orb": {
				"rotate": [
					{ "time": 0, "angle": 12.14 }
				],
				"translate": [
					{ "time": 0, "x": 2142.01, "y": -954.2 }
				]
			},
			"Light Orb": {
				"rotate": [
					{ "time": 0, "angle": -11.89 }
				],
				"translate": [
					{ "time": 0, "x": 84.56, "y": -2522.63 }
				]
			},
			"Robes": {
				"rotate": [
					{ "time": 0, "angle": 0 },
					{ "time": 0.4, "angle": -0.45 }
				],
				"translate": [
					{ "time": 0, "x": 0, "y": 0 }
				]
			},
			"Robes2": {
				"rotate": [
					{ "time": 0, "angle": 0 },
					{ "time": 0.4, "angle": 15.56 }
				],
				"translate": [
					{ "time": 0, "x": 0, "y": 0 }
				]
			},
			"Left_Foot": {
				"rotate": [
					{ "time": 0, "angle": 0 }
				],
				"translate": [
					{ "time": 0, "x": 0, "y": 0 }
				]
			},
			"Left_Foot3": {
				"rotate": [
					{ "time": 0, "angle": 0 }
				],
				"translate": [
					{ "time": 0, "x": 0, "y": 0 }
				]
			},
			"Right_Foot": {
				"rotate": [
					{ "time": 0, "angle": 0 }
				],
				"translate": [
					{ "time": 0, "x": 0, "y": 0 }
				]
			},
			"Right_Foot3": {
				"rotate": [
					{ "time": 0, "angle": 0 }
				],
				"translate": [
					{ "time": 0, "x": 0, "y": 0 }
				]
			},
			"Torso": {
				"rotate": [
					{ "time": 0, "angle": 0 },
					{ "time": 0.4, "angle": -2.16 }
				],
				"translate": [
					{ "time": 0, "x": 0, "y": 0 }
				]
			},
			"Neck": {
				"rotate": [
					{ "time": 0, "angle": 0 }
				],
				"translate": [
					{ "time": 0, "x": 0, "y": 0 }
				]
			},
			"Head": {
				"rotate": [
					{ "time": 0, "angle": 0 },
					{ "time": 0.4, "angle": 23.94 }
				],
				"translate": [
					{ "time": 0, "x": 0, "y": 0 }
				]
			},
			"Head3": {
				"rotate": [
					{ "time": 0, "angle": 0 }
				],
				"translate": [
					{ "time": 0, "x": 0, "y": 0 }
				]
			},
			"Head2": {
				"rotate": [
					{ "time": 0, "angle": 0 }
				],
				"translate": [
					{ "time": 0, "x": 0, "y": 0 }
				]
			},
			"Head5": {
				"rotate": [
					{ "time": 0, "angle": 0 }
				],
				"translate": [
					{ "time": 0, "x": 0, "y": 0 }
				]
			},
			"Left_Shoulder_Pad": {
				"rotate": [
					{ "time": 0, "angle": 0 },
					{ "time": 0.4, "angle": 21.19 }
				],
				"translate": [
					{ "time": 0, "x": 0, "y": 0 }
				]
			},
			"Right_Should_Pad": {
				"rotate": [
					{ "time": 0, "angle": 0 },
					{ "time": 0.4, "angle": 291.4 }
				],
				"translate": [
					{ "time": 0, "x": 0, "y": 0 }
				]
			},
			"Left_Shoulder": {
				"rotate": [
					{ "time": 0, "angle": 0 },
					{ "time": 0.4, "angle": 47.86 }
				],
				"translate": [
					{ "time": 0, "x": 0, "y": 0 }
				]
			},
			"Left_Bicep": {
				"rotate": [
					{ "time": 0, "angle": 0 },
					{ "time": 0.4, "angle": 0.12 }
				],
				"translate": [
					{ "time": 0, "x": 0, "y": 0 }
				]
			},
			"Left_Forearm": {
				"rotate": [
					{ "time": 0, "angle": 0 }
				],
				"translate": [
					{ "time": 0, "x": 0, "y": 0 }
				]
			},
			"Left_Hand": {
				"rotate": [
					{ "time": 0, "angle": 0 }
				],
				"translate": [
					{ "time": 0, "x": 0, "y": 0 }
				]
			},
			"Right_Shoulder": {
				"rotate": [
					{ "time": 0, "angle": 0 },
					{ "time": 0.4, "angle": 279.01 }
				],
				"translate": [
					{ "time": 0, "x": 0, "y": 0 }
				]
			},
			"Right_Bicep": {
				"rotate": [
					{ "time": 0, "angle": 0 }
				],
				"translate": [
					{ "time": 0, "x": 0, "y": 0 }
				]
			},
			"Right_Forearm": {
				"rotate": [
					{ "time": 0, "angle": 0 }
				],
				"translate": [
					{ "time": 0, "x": 0, "y": 0 }
				]
			},
			"Right_Hand": {
				"rotate": [
					{ "time": 0, "angle": 0 }
				],
				"translate": [
					{ "time": 0, "x": 0, "y": 0 }
				]
			}
		},
		"deform": {
			"default": {
				"Head": {
					"Head": [
						{ "time": 0 }
					]
				},
				"Left_Bicep": {
					"Left_Bicep": [
						{ "time": 0 }
					]
				},
				"Left_Foot": {
					"Left_Foot": [
						{ "time": 0 }
					]
				},
				"Left_Forearm": {
					"Left_Forearm": [
						{ "time": 0 }
					]
				},
				"Left_Hand": {
					"Left_Hand": [
						{ "time": 0 }
					]
				},
				"Left_Shoulder": {
					"Left_Shoulder": [
						{ "time": 0 }
					]
				},
				"Left_Shoulder_Pad": {
					"Left_Shoulder_Pad": [
						{ "time": 0 }
					]
				},
				"Neck": {
					"Neck": [
						{ "time": 0 }
					]
				},
				"Right_Bicep": {
					"Right_Bicep": [
						{ "time": 0 }
					]
				},
				"Right_Foot": {
					"Right_Foot": [
						{ "time": 0 }
					]
				},
				"Right_Forearm": {
					"Right_Forearm": [
						{ "time": 0 }
					]
				},
				"Right_Hand": {
					"Right_Hand": [
						{ "time": 0 }
					]
				},
				"Right_Should_Pad": {
					"Right_Should_Pad": [
						{ "time": 0 }
					]
				},
				"Right_Shoulder": {
					"Right_Shoulder": [
						{ "time": 0 }
					]
				},
				"Robes": {
					"Robes": [
						{ "time": 0 }
					]
				},
				"Robs Light My Path": {
					"Robs Light My Path": [
						{ "time": 0 }
					]
				},
				"Torso": {
					"Torso": [
						{ "time": 0 }
					]
				}
			}
		},
		"drawOrder": [
			{ "time": 0 }
		]
	},
	"Fireball": {
		"slots": {
			"Eyes_Frost": {
				"attachment": [
					{ "time": 2.2667, "name": "Eyes_Frost" }
				]
			},
			"Eyes_fire": {
				"attachment": [
					{ "time": 1, "name": "Eyes_New_Fire" },
					{ "time": 1.8, "name": "Eyes_New_Fire" }
				]
			}
		},
		"bones": {
			"root": {
				"rotate": [
					{ "time": 0, "angle": 0 }
				],
				"translate": [
					{ "time": 0, "x": 0, "y": 0 }
				]
			},
			"Hip": {
				"rotate": [
					{ "time": 0, "angle": 0, "curve": "stepped" },
					{ "time": 2.2667, "angle": 0 }
				],
				"translate": [
					{ "time": 0, "x": 0, "y": 0 },
					{ "time": 0.6, "x": 0, "y": 138.78 },
					{ "time": 2.2667, "x": 0, "y": 0 }
				]
			},
			"Robes": {
				"rotate": [
					{ "time": 0, "angle": 0 },
					{ "time": 0.6, "angle": -2.91 },
					{ "time": 2.2667, "angle": 0 }
				],
				"translate": [
					{ "time": 0, "x": 0, "y": 0, "curve": "stepped" },
					{ "time": 2.2667, "x": 0, "y": 0 }
				]
			},
			"Robes2": {
				"rotate": [
					{ "time": 0, "angle": 0 },
					{ "time": 0.6, "angle": 13.03 },
					{ "time": 2.2667, "angle": 0 }
				],
				"translate": [
					{ "time": 0, "x": 0, "y": 0, "curve": "stepped" },
					{ "time": 2.2667, "x": 0, "y": 0 }
				]
			},
			"Left_Foot": {
				"rotate": [
					{ "time": 0, "angle": 0, "curve": "stepped" },
					{ "time": 2.2667, "angle": 0 }
				],
				"translate": [
					{ "time": 0, "x": 0, "y": 0 },
					{ "time": 0.8, "x": 273.13, "y": 65.17 },
					{ "time": 2.2667, "x": 0, "y": 0 }
				]
			},
			"Left_Foot3": {
				"rotate": [
					{ "time": 0, "angle": 0, "curve": "stepped" },
					{ "time": 2.2667, "angle": 0 }
				],
				"translate": [
					{ "time": 0, "x": 0, "y": 0, "curve": "stepped" },
					{ "time": 2.2667, "x": 0, "y": 0 }
				]
			},
			"Right_Foot": {
				"rotate": [
					{ "time": 0, "angle": 0 },
					{ "time": 0.8, "angle": -11.27 },
					{ "time": 2.2667, "angle": 0 }
				],
				"translate": [
					{ "time": 0, "x": 0, "y": 0 },
					{ "time": 0.8, "x": -44.41, "y": 22.2 },
					{ "time": 2.2667, "x": 0, "y": 0 }
				]
			},
			"Right_Foot3": {
				"rotate": [
					{ "time": 0, "angle": 0, "curve": "stepped" },
					{ "time": 2.2667, "angle": 0 }
				],
				"translate": [
					{ "time": 0, "x": 0, "y": 0, "curve": "stepped" },
					{ "time": 2.2667, "x": 0, "y": 0 }
				]
			},
			"Torso": {
				"rotate": [
					{ "time": 0, "angle": 0, "curve": "stepped" },
					{ "time": 2.2667, "angle": 0 }
				],
				"translate": [
					{ "time": 0, "x": 0, "y": 0, "curve": "stepped" },
					{ "time": 2.2667, "x": 0, "y": 0 }
				]
			},
			"Neck": {
				"rotate": [
					{ "time": 0, "angle": 0, "curve": "stepped" },
					{ "time": 2.2667, "angle": 0 }
				],
				"translate": [
					{ "time": 0, "x": 0, "y": 0, "curve": "stepped" },
					{ "time": 2.2667, "x": 0, "y": 0 }
				]
			},
			"Head": {
				"rotate": [
					{ "time": 0, "angle": -0.04 },
					{ "time": 1, "angle": 15.62, "curve": "stepped" },
					{ "time": 1.8, "angle": 15.62 },
					{ "time": 2.2667, "angle": 0 }
				],
				"translate": [
					{ "time": 0, "x": 0, "y": 0 },
					{ "time": 1.1, "x": -21.65, "y": -17.59 },
					{ "time": 2.2667, "x": 0, "y": 0 }
				]
			},
			"Head3": {
				"rotate": [
					{ "time": 0, "angle": 0 },
					{ "time": 1.1, "angle": 9.73 },
					{ "time": 1.3333, "angle": 1.57 },
					{ "time": 1.7333, "angle": 5.54 },
					{ "time": 2.0333, "angle": -3.14 },
					{ "time": 2.1333, "angle": -2.84 },
					{ "time": 2.2667, "angle": 0 }
				],
				"translate": [
					{ "time": 0, "x": 0, "y": 0, "curve": "stepped" },
					{ "time": 2.2667, "x": 0, "y": 0 }
				]
			},
			"Head2": {
				"rotate": [
					{ "time": 0, "angle": 0 },
					{ "time": 0.2333, "angle": -8.75 },
					{ "time": 1.1, "angle": 33.41 },
					{ "time": 1.6, "angle": -3.15 },
					{ "time": 2.2667, "angle": 0 }
				],
				"translate": [
					{ "time": 0, "x": 0, "y": 0, "curve": "stepped" },
					{ "time": 2.2667, "x": 0, "y": 0 }
				]
			},
			"Head5": {
				"rotate": [
					{ "time": 0, "angle": 0 },
					{ "time": 0.2333, "angle": 9.46 },
					{ "time": 2.2667, "angle": 0 }
				],
				"translate": [
					{ "time": 0, "x": 0, "y": 0, "curve": "stepped" },
					{ "time": 2.2667, "x": 0, "y": 0 }
				]
			},
			"Left_Shoulder_Pad": {
				"rotate": [
					{ "time": 0, "angle": 0 },
					{ "time": 0.6, "angle": 12.82 },
					{ "time": 0.8667, "angle": 25.63 },
					{ "time": 1, "angle": 40.25, "curve": "stepped" },
					{ "time": 1.8, "angle": 40.25 },
					{ "time": 1.8667, "angle": 19.14 },
					{ "time": 2.2667, "angle": 0 }
				],
				"translate": [
					{ "time": 0, "x": 0, "y": 0, "curve": "stepped" },
					{ "time": 2.2667, "x": 0, "y": 0 }
				]
			},
			"Right_Should_Pad": {
				"rotate": [
					{ "time": 0, "angle": 0 },
					{ "time": 0.6, "angle": -14.81 },
					{ "time": 0.8667, "angle": 315.72 },
					{ "time": 1, "angle": 321.43, "curve": "stepped" },
					{ "time": 1.8, "angle": 321.43 },
					{ "time": 2.2667, "angle": 0 }
				],
				"translate": [
					{ "time": 0, "x": 0, "y": 0, "curve": "stepped" },
					{ "time": 2.2667, "x": 0, "y": 0 }
				]
			},
			"Left_Shoulder": {
				"rotate": [
					{ "time": 0, "angle": 0 },
					{ "time": 0.6, "angle": 32.48 },
					{ "time": 0.8667, "angle": 37.78 },
					{ "time": 1, "angle": 48.63 },
					{ "time": 1.0333, "angle": 45.52 },
					{ "time": 1.0667, "angle": 50.39 },
					{ "time": 1.1, "angle": 45.03 },
					{ "time": 1.1333, "angle": 41.28 },
					{ "time": 1.1667, "angle": 47.82 },
					{ "time": 1.2, "angle": 51.89 },
					{ "time": 1.2333, "angle": 44.97 },
					{ "time": 1.2667, "angle": 40.95 },
					{ "time": 1.3, "angle": 42.42 },
					{ "time": 1.3333, "angle": 50.45 },
					{ "time": 1.3667, "angle": 55.01 },
					{ "time": 1.4, "angle": 52.42 },
					{ "time": 1.4333, "angle": 46.61 },
					{ "time": 1.4667, "angle": 50.93 },
					{ "time": 1.5, "angle": 57.55 },
					{ "time": 1.5333, "angle": 49.91 },
					{ "time": 1.5667, "angle": 57.78 },
					{ "time": 1.6, "angle": 53.71 },
					{ "time": 1.6333, "angle": 46.45 },
					{ "time": 1.6667, "angle": 50.37 },
					{ "time": 1.7, "angle": 53.3 },
					{ "time": 1.7333, "angle": 46.54 },
					{ "time": 1.7667, "angle": 52.45 },
					{ "time": 1.8, "angle": 48.63 },
					{ "time": 1.8667, "angle": 19.81 },
					{ "time": 2.2667, "angle": 0 }
				],
				"translate": [
					{ "time": 0, "x": 0, "y": 0, "curve": "stepped" },
					{ "time": 2.2667, "x": 0, "y": 0 }
				]
			},
			"Left_Bicep": {
				"rotate": [
					{ "time": 0, "angle": 0 },
					{ "time": 0.6, "angle": 45.41 },
					{ "time": 1, "angle": 57.11, "curve": "stepped" },
					{ "time": 1.8, "angle": 57.11 },
					{ "time": 1.9333, "angle": -8.95 },
					{ "time": 2.2667, "angle": 0 }
				],
				"translate": [
					{ "time": 0, "x": 0, "y": 0, "curve": "stepped" },
					{ "time": 2.2667, "x": 0, "y": 0 }
				]
			},
			"Left_Forearm": {
				"rotate": [
					{ "time": 0, "angle": 0 },
					{ "time": 0.6, "angle": 37.34 },
					{ "time": 1, "angle": 68.73, "curve": "stepped" },
					{ "time": 1.8, "angle": 68.73 },
					{ "time": 1.8667, "angle": 35.62 },
					{ "time": 1.9333, "angle": 19.46 },
					{ "time": 2.2667, "angle": 0 }
				],
				"translate": [
					{ "time": 0, "x": 0, "y": 0, "curve": "stepped" },
					{ "time": 2.2667, "x": 0, "y": 0 }
				]
			},
			"Left_Hand": {
				"rotate": [
					{ "time": 0, "angle": 0 },
					{ "time": 0.6, "angle": 7.33 },
					{ "time": 0.6667, "angle": 10.35 },
					{ "time": 0.7333, "angle": 18.87 },
					{ "time": 0.8, "angle": 35.95 },
					{ "time": 1.8667, "angle": 20.08 },
					{ "time": 2.2667, "angle": 0 }
				],
				"translate": [
					{ "time": 0, "x": 0, "y": 0, "curve": "stepped" },
					{ "time": 2.2667, "x": 0, "y": 0 }
				]
			},
			"Right_Shoulder": {
				"rotate": [
					{ "time": 0, "angle": 0 },
					{ "time": 0.6, "angle": -30.92 },
					{ "time": 0.7333, "angle": -49.91 },
					{ "time": 0.8, "angle": 296.65 },
					{ "time": 1, "angle": 283.32 },
					{ "time": 1.0333, "angle": 288.6 },
					{ "time": 1.0667, "angle": 283.81 },
					{ "time": 1.1, "angle": 291.49 },
					{ "time": 1.1333, "angle": 296.72 },
					{ "time": 1.1667, "angle": 290.97 },
					{ "time": 1.2, "angle": 287.32 },
					{ "time": 1.2333, "angle": 291.68 },
					{ "time": 1.2667, "angle": 292.99 },
					{ "time": 1.3, "angle": 297.22 },
					{ "time": 1.3333, "angle": 291.68 },
					{ "time": 1.3667, "angle": 287.32 },
					{ "time": 1.4, "angle": 290.97 },
					{ "time": 1.4333, "angle": 296.72 },
					{ "time": 1.4667, "angle": 291.49 },
					{ "time": 1.5, "angle": 283.81 },
					{ "time": 1.5333, "angle": 288.6 },
					{ "time": 1.5667, "angle": 283.32 },
					{ "time": 1.6, "angle": 288.84 },
					{ "time": 1.6333, "angle": 293.63 },
					{ "time": 1.6667, "angle": 287.77 },
					{ "time": 1.7, "angle": 281.39 },
					{ "time": 1.7333, "angle": 286.65 },
					{ "time": 1.7667, "angle": 288.71 },
					{ "time": 1.8, "angle": 283.28 },
					{ "time": 1.8667, "angle": -41.64 },
					{ "time": 2.2667, "angle": 0 }
				],
				"translate": [
					{ "time": 0, "x": 0, "y": 0, "curve": "stepped" },
					{ "time": 2.2667, "x": 0, "y": 0 }
				]
			},
			"Right_Bicep": {
				"rotate": [
					{ "time": 0, "angle": 0 },
					{ "time": 0.6, "angle": -68.16 },
					{ "time": 0.6667, "angle": -65.03 },
					{ "time": 1, "angle": -81.69, "curve": "stepped" },
					{ "time": 1.8, "angle": -81.69 },
					{ "time": 1.8667, "angle": -45.68 },
					{ "time": 1.9333, "angle": 44.03 },
					{ "time": 2.2667, "angle": 0 }
				],
				"translate": [
					{ "time": 0, "x": 0, "y": 0, "curve": "stepped" },
					{ "time": 2.2667, "x": 0, "y": 0 }
				]
			},
			"Right_Forearm": {
				"rotate": [
					{ "time": 0, "angle": 0 },
					{ "time": 0.6, "angle": -55.27 },
					{ "time": 0.6667, "angle": -75.84 },
					{ "time": 1, "angle": -62.25, "curve": "stepped" },
					{ "time": 1.8, "angle": -62.25 },
					{ "time": 1.8667, "angle": -53.92 },
					{ "time": 1.9333, "angle": -16.64 },
					{ "time": 2.2667, "angle": 0 }
				],
				"translate": [
					{ "time": 0, "x": 0, "y": 0, "curve": "stepped" },
					{ "time": 2.2667, "x": 0, "y": 0 }
				]
			},
			"Right_Hand": {
				"rotate": [
					{ "time": 0, "angle": 0 },
					{ "time": 0.6667, "angle": 6.65 },
					{ "time": 0.8, "angle": -16.32 },
					{ "time": 1.8667, "angle": 4.47 },
					{ "time": 2.2667, "angle": 0 }
				],
				"translate": [
					{ "time": 0, "x": 0, "y": 0, "curve": "stepped" },
					{ "time": 2.2667, "x": 0, "y": 0 }
				]
			}
		},
		"drawOrder": [
			{
				"time": 0.1333,
				"offsets": [
					{ "slot": "Eyes_fire", "offset": 4 }
				]
			},
			{
				"time": 1,
				"offsets": [
					{ "slot": "Eyes_fire", "offset": 4 }
				]
			},
			{
				"time": 1.8,
				"offsets": [
					{ "slot": "Eyes_fire", "offset": 4 }
				]
			},
			{
				"time": 2.2667,
				"offsets": [
					{ "slot": "Eyes_fire", "offset": 3 }
				]
			}
		]
	},
	"Float Down For Next Move": {
		"bones": {
			"Right_Bicep": {
				"rotate": [
					{ "time": 0, "angle": -3.09 },
					{ "time": 0.8, "angle": 0 }
				],
				"translate": [
					{ "time": 0, "x": 0, "y": 0, "curve": "stepped" },
					{ "time": 0.8, "x": 0, "y": 0 }
				]
			},
			"Right_Foot3": {
				"rotate": [
					{ "time": 0.8, "angle": 0 }
				],
				"translate": [
					{ "time": 0, "x": 0, "y": 0, "curve": "stepped" },
					{ "time": 0.8, "x": 0, "y": 0 }
				]
			},
			"Left_Hand": {
				"rotate": [
					{ "time": 0.8, "angle": 0 }
				],
				"translate": [
					{ "time": 0, "x": 0, "y": 0, "curve": "stepped" },
					{ "time": 0.8, "x": 0, "y": 0 }
				]
			},
			"Right_Foot": {
				"rotate": [
					{ "time": 0, "angle": -5.07 },
					{ "time": 0.8, "angle": 0 }
				],
				"translate": [
					{ "time": 0, "x": -146.07, "y": 57.16 },
					{ "time": 0.8, "x": 0, "y": 0 }
				]
			},
			"Left_Forearm": {
				"rotate": [
					{ "time": 0, "angle": 7.53 },
					{ "time": 0.8, "angle": 0 }
				],
				"translate": [
					{ "time": 0, "x": 0, "y": 0, "curve": "stepped" },
					{ "time": 0.8, "x": 0, "y": 0 }
				]
			},
			"Head2": {
				"rotate": [
					{ "time": 0, "angle": 0, "curve": "stepped" },
					{ "time": 0.8, "angle": 0 }
				],
				"translate": [
					{ "time": 0, "x": 0, "y": 0, "curve": "stepped" },
					{ "time": 0.8, "x": 0, "y": 0 }
				]
			},
			"Left_Bicep": {
				"rotate": [
					{ "time": 0, "angle": 2.94 },
					{ "time": 0.8, "angle": 0 }
				],
				"translate": [
					{ "time": 0, "x": 0, "y": 0, "curve": "stepped" },
					{ "time": 0.8, "x": 0, "y": 0 }
				]
			},
			"Left_Foot3": {
				"rotate": [
					{ "time": 0.8, "angle": 0 }
				],
				"translate": [
					{ "time": 0, "x": 0, "y": 0, "curve": "stepped" },
					{ "time": 0.8, "x": 0, "y": 0 }
				]
			},
			"Head5": {
				"rotate": [
					{ "time": 0, "angle": 0, "curve": "stepped" },
					{ "time": 0.8, "angle": 0 }
				],
				"translate": [
					{ "time": 0, "x": 0, "y": 0, "curve": "stepped" },
					{ "time": 0.8, "x": 0, "y": 0 }
				]
			},
			"Right_Hand": {
				"rotate": [
					{ "time": 0.8, "angle": 0 }
				],
				"translate": [
					{ "time": 0, "x": 0, "y": 0, "curve": "stepped" },
					{ "time": 0.8, "x": 0, "y": 0 }
				]
			},
			"Right_Forearm": {
				"rotate": [
					{ "time": 0, "angle": -3.39 },
					{ "time": 0.8, "angle": 0 }
				],
				"translate": [
					{ "time": 0, "x": 0, "y": 0, "curve": "stepped" },
					{ "time": 0.8, "x": 0, "y": 0 }
				]
			},
			"root": {
				"rotate": [
					{ "time": 0.8, "angle": 0 }
				],
				"translate": [
					{ "time": 0, "x": 0, "y": 0, "curve": "stepped" },
					{ "time": 0.8, "x": 0, "y": 0 }
				]
			},
			"Left_Shoulder": {
				"rotate": [
					{ "time": 0, "angle": 4.21 },
					{ "time": 0.8, "angle": 0 }
				],
				"translate": [
					{ "time": 0, "x": 0, "y": 0, "curve": "stepped" },
					{ "time": 0.8, "x": 0, "y": 0 }
				]
			},
			"Neck": {
				"rotate": [
					{ "time": 0.8, "angle": 0 }
				],
				"translate": [
					{ "time": 0, "x": 0, "y": 0, "curve": "stepped" },
					{ "time": 0.8, "x": 0, "y": 0 }
				]
			},
			"Robes2": {
				"rotate": [
					{ "time": 0.8, "angle": 0 }
				],
				"translate": [
					{ "time": 0, "x": 0, "y": 0, "curve": "stepped" },
					{ "time": 0.8, "x": 0, "y": 0 }
				]
			},
			"Robes": {
				"rotate": [
					{ "time": 0, "angle": -8.68 },
					{ "time": 0.8, "angle": 0 }
				],
				"translate": [
					{ "time": 0, "x": 0, "y": 0, "curve": "stepped" },
					{ "time": 0.8, "x": 0, "y": 0 }
				]
			},
			"Torso": {
				"rotate": [
					{ "time": 0, "angle": 3.1 },
					{ "time": 0.8, "angle": 0 }
				],
				"translate": [
					{ "time": 0, "x": 0, "y": 0, "curve": "stepped" },
					{ "time": 0.8, "x": 0, "y": 0 }
				]
			},
			"Light Orb": {
				"rotate": [
					{ "time": 0.8, "angle": 0 }
				],
				"translate": [
					{ "time": 0, "x": 0, "y": 0, "curve": "stepped" },
					{ "time": 0.8, "x": 0, "y": 0 }
				]
			},
			"Right_Shoulder": {
				"rotate": [
					{ "time": 0.8, "angle": 0 }
				],
				"translate": [
					{ "time": 0, "x": 0, "y": 0, "curve": "stepped" },
					{ "time": 0.8, "x": 0, "y": 0 }
				]
			},
			"Hip": {
				"rotate": [
					{ "time": 0.8, "angle": 0 }
				],
				"translate": [
					{ "time": 0, "x": 9.88, "y": 123.45 },
					{ "time": 0.8, "x": 0, "y": 0 }
				]
			},
			"Fire Orb": {
				"rotate": [
					{ "time": 0.8, "angle": 0 }
				],
				"translate": [
					{ "time": 0, "x": 0, "y": 0, "curve": "stepped" },
					{ "time": 0.8, "x": 0, "y": 0 }
				]
			},
			"Right_Should_Pad": {
				"rotate": [
					{ "time": 0.8, "angle": 0 }
				],
				"translate": [
					{ "time": 0, "x": 0, "y": 0, "curve": "stepped" },
					{ "time": 0.8, "x": 0, "y": 0 }
				]
			},
			"Arcane Orb": {
				"rotate": [
					{ "time": 0.8, "angle": 0 }
				],
				"translate": [
					{ "time": 0, "x": 0, "y": 0, "curve": "stepped" },
					{ "time": 0.8, "x": 0, "y": 0 }
				]
			},
			"Water Orb": {
				"rotate": [
					{ "time": 0.8, "angle": 0 }
				],
				"translate": [
					{ "time": 0, "x": 0, "y": 0, "curve": "stepped" },
					{ "time": 0.8, "x": 0, "y": 0 }
				]
			},
			"Head3": {
				"rotate": [
					{ "time": 0, "angle": 348.7 },
					{ "time": 0.8, "angle": 0 }
				],
				"translate": [
					{ "time": 0, "x": -0.27, "y": -5.17 },
					{ "time": 0.8, "x": 0, "y": 0 }
				]
			},
			"Head": {
				"rotate": [
					{ "time": 0, "angle": 5.96 },
					{ "time": 0.8, "angle": 0 }
				],
				"translate": [
					{ "time": 0, "x": 0, "y": 0, "curve": "stepped" },
					{ "time": 0.8, "x": 0, "y": 0 }
				]
			},
			"Left_Foot": {
				"rotate": [
					{ "time": 0, "angle": -15.77 },
					{ "time": 0.8, "angle": 0 }
				],
				"translate": [
					{ "time": 0, "x": -144.97, "y": 75.07 },
					{ "time": 0.8, "x": 0, "y": 0 }
				]
			},
			"Left_Shoulder_Pad": {
				"rotate": [
					{ "time": 0.8, "angle": 0 }
				],
				"translate": [
					{ "time": 0, "x": 0, "y": 0, "curve": "stepped" },
					{ "time": 0.8, "x": 0, "y": 0 }
				]
			},
			"Earth Orb": {
				"rotate": [
					{ "time": 0.8, "angle": 0 }
				],
				"translate": [
					{ "time": 0, "x": 0, "y": 0, "curve": "stepped" },
					{ "time": 0.8, "x": 0, "y": 0 }
				]
			}
		},
		"deform": {
			"default": {
				"Left_Foot": {
					"Left_Foot": [
						{
							"time": 0,
							"vertices": [ -56.44446, 79.08896, -56.44446, 79.08896, -56.44446, 79.08896, -56.44446, 79.08896, -56.44446, 79.08896, -56.44446, 79.08896, -56.44446, 79.08896, -56.44446, 79.08896, -56.44446, 79.08896, -56.44446, 79.08896, -56.44446, 79.08896, -56.44446, 79.08896, -56.44446, 79.08896, -56.44446, 79.08896, -56.44446, 79.08896, -56.44446, 79.08896, -56.44446, 79.08896, -56.44446, 79.08896, -56.44446, 79.08896, -56.44446, 79.08896, -56.44446, 79.08896, -56.44446, 79.08896 ]
						},
						{
							"time": 0.8,
							"vertices": [ -0.02649, 0.04543, -0.02649, 0.04543, -0.02649, 0.04543, -0.02649, 0.04543, -0.02649, 0.04543, -0.02649, 0.04543, -0.02649, 0.04543, -0.02649, 0.04543, -0.02649, 0.04543, -0.02649, 0.04543, -0.02649, 0.04543, -0.02649, 0.04543, -0.02649, 0.04543, -0.02649, 0.04543, -0.02649, 0.04543, -0.02649, 0.04543, -0.02649, 0.04543, -0.02649, 0.04543, -0.02649, 0.04543, -0.02649, 0.04543, -0.02649, 0.04543, -0.02649, 0.04543 ]
						}
					]
				},
				"Right_Foot": {
					"Right_Foot": [
						{
							"time": 0,
							"vertices": [ -1.35388, 2.11192, -1.35388, 2.11192, -1.35388, 2.11192, -1.35388, 2.11192, -1.35388, 2.11192, -1.35388, 2.11192, -1.35388, 2.11192, -1.35388, 2.11192, -1.35388, 2.11192, -1.35388, 2.11192, -1.35388, 2.11192, -1.35388, 2.11192, -1.35388, 2.11192, -1.35388, 2.11192, -1.35388, 2.11192, -1.35388, 2.11192, -1.35388, 2.11192, -1.35388, 2.11192, -1.35388, 2.11192, -1.35388, 2.11192 ]
						}
					]
				}
			}
		}
	},
	"Float Towards for Walk": {
		"bones": {
			"Left_Foot3": {
				"translate": [
					{ "time": 0, "x": 0, "y": 0, "curve": "stepped" },
					{ "time": 0.8, "x": 0, "y": 0 }
				]
			},
			"Head": {
				"rotate": [
					{ "time": 0, "angle": 5.96, "curve": "stepped" },
					{ "time": 1.6, "angle": 5.96 }
				],
				"translate": [
					{ "time": 0, "x": 0, "y": 0, "curve": "stepped" },
					{ "time": 0.8, "x": 0, "y": 0 }
				]
			},
			"Left_Forearm": {
				"rotate": [
					{ "time": 0, "angle": 7.53, "curve": "stepped" },
					{ "time": 1.6, "angle": 7.53 }
				],
				"translate": [
					{ "time": 0, "x": 0, "y": 0, "curve": "stepped" },
					{ "time": 0.8, "x": 0, "y": 0 }
				]
			},
			"Left_Bicep": {
				"rotate": [
					{ "time": 0, "angle": 2.94 },
					{ "time": 0.8, "angle": 9.76 },
					{ "time": 1.6, "angle": 2.94 }
				],
				"translate": [
					{ "time": 0, "x": 0, "y": 0, "curve": "stepped" },
					{ "time": 0.8, "x": 0, "y": 0 }
				]
			},
			"Right_Bicep": {
				"rotate": [
					{ "time": 0, "angle": -3.09 },
					{ "time": 0.8, "angle": -4.72 },
					{ "time": 1.6, "angle": -3.09 }
				],
				"translate": [
					{ "time": 0, "x": 0, "y": 0, "curve": "stepped" },
					{ "time": 0.8, "x": 0, "y": 0 }
				]
			},
			"Left_Foot": {
				"rotate": [
					{ "time": 0, "angle": -15.77, "curve": "stepped" },
					{ "time": 0.8, "angle": -15.77 }
				],
				"translate": [
					{ "time": 0, "x": -144.97, "y": 75.07, "curve": "stepped" },
					{ "time": 0.8, "x": -144.97, "y": 75.07, "curve": "stepped" },
					{ "time": 1.6, "x": -144.97, "y": 75.07 }
				]
			},
			"Left_Shoulder": {
				"rotate": [
					{ "time": 0, "angle": 4.21, "curve": "stepped" },
					{ "time": 1.6, "angle": 4.21 }
				],
				"translate": [
					{ "time": 0, "x": 0, "y": 0, "curve": "stepped" },
					{ "time": 0.8, "x": 0, "y": 0 }
				]
			},
			"Right_Forearm": {
				"rotate": [
					{ "time": 0, "angle": -3.39 },
					{ "time": 0.8, "angle": -10.97 },
					{ "time": 1.6, "angle": -3.39 }
				],
				"translate": [
					{ "time": 0, "x": 0, "y": 0, "curve": "stepped" },
					{ "time": 0.8, "x": 0, "y": 0 }
				]
			},
			"Right_Foot3": {
				"translate": [
					{ "time": 0, "x": 0, "y": 0, "curve": "stepped" },
					{ "time": 0.8, "x": 0, "y": 0 }
				]
			},
			"Torso": {
				"rotate": [
					{ "time": 0, "angle": 3.1, "curve": "stepped" },
					{ "time": 1.6, "angle": 3.1 }
				],
				"translate": [
					{ "time": 0, "x": 0, "y": 0, "curve": "stepped" },
					{ "time": 0.8, "x": 0, "y": 0 }
				]
			},
			"Right_Foot": {
				"rotate": [
					{ "time": 0, "angle": -5.07, "curve": "stepped" },
					{ "time": 0.8, "angle": -5.07 }
				],
				"translate": [
					{ "time": 0, "x": -146.07, "y": 57.16, "curve": "stepped" },
					{ "time": 0.8, "x": -146.07, "y": 57.16, "curve": "stepped" },
					{ "time": 1.6, "x": -146.07, "y": 57.16 }
				]
			},
			"Hip": {
				"translate": [
					{ "time": 0, "x": 9.88, "y": 123.45 },
					{ "time": 0.8, "x": 5.39, "y": 217.61 },
					{ "time": 1.6, "x": 9.88, "y": 123.45 }
				]
			},
			"Robes": {
				"rotate": [
					{ "time": 0, "angle": -8.68 },
					{ "time": 0.8, "angle": -10.45 },
					{ "time": 1.6, "angle": -8.68 }
				],
				"translate": [
					{ "time": 0, "x": 0, "y": 0, "curve": "stepped" },
					{ "time": 0.8, "x": 0, "y": 0 }
				]
			},
			"root": {
				"translate": [
					{ "time": 0, "x": 0, "y": 0, "curve": "stepped" },
					{ "time": 0.8, "x": 0, "y": 0 }
				]
			},
			"Arcane Orb": {
				"translate": [
					{ "time": 0, "x": 0, "y": 0, "curve": "stepped" },
					{ "time": 0.8, "x": 0, "y": 0 }
				]
			},
			"Fire Orb": {
				"translate": [
					{ "time": 0, "x": 0, "y": 0, "curve": "stepped" },
					{ "time": 0.8, "x": 0, "y": 0 }
				]
			},
			"Water Orb": {
				"translate": [
					{ "time": 0, "x": 0, "y": 0, "curve": "stepped" },
					{ "time": 0.8, "x": 0, "y": 0 }
				]
			},
			"Earth Orb": {
				"translate": [
					{ "time": 0, "x": 0, "y": 0, "curve": "stepped" },
					{ "time": 0.8, "x": 0, "y": 0 }
				]
			},
			"Light Orb": {
				"translate": [
					{ "time": 0, "x": 0, "y": 0, "curve": "stepped" },
					{ "time": 0.8, "x": 0, "y": 0 }
				]
			},
			"Robes2": {
				"translate": [
					{ "time": 0, "x": 0, "y": 0, "curve": "stepped" },
					{ "time": 0.8, "x": 0, "y": 0 }
				]
			},
			"Neck": {
				"translate": [
					{ "time": 0, "x": 0, "y": 0, "curve": "stepped" },
					{ "time": 0.8, "x": 0, "y": 0 }
				]
			},
			"Head3": {
				"rotate": [
					{ "time": 0, "angle": 348.7 },
					{ "time": 0.8, "angle": 349.82 },
					{ "time": 1.6, "angle": 348.7 }
				],
				"translate": [
					{ "time": 0, "x": -0.27, "y": -5.17, "curve": "stepped" },
					{ "time": 0.8, "x": -0.27, "y": -5.17, "curve": "stepped" },
					{ "time": 1.6, "x": -0.27, "y": -5.17 }
				]
			},
			"Head2": {
				"rotate": [
					{ "time": 0, "angle": 0 },
					{ "time": 0.8, "angle": 1.62 },
					{ "time": 1.6, "angle": -0.06 }
				],
				"translate": [
					{ "time": 0, "x": 0, "y": 0, "curve": "stepped" },
					{ "time": 0.8, "x": 0, "y": 0, "curve": "stepped" },
					{ "time": 1.6, "x": 0, "y": 0 }
				]
			},
			"Head5": {
				"rotate": [
					{ "time": 0, "angle": 0 },
					{ "time": 0.8, "angle": 1.84 },
					{ "time": 1.6, "angle": 0 }
				],
				"translate": [
					{ "time": 0, "x": 0, "y": 0, "curve": "stepped" },
					{ "time": 0.8, "x": 0, "y": 0, "curve": "stepped" },
					{ "time": 1.6, "x": 0, "y": 0 }
				]
			},
			"Left_Shoulder_Pad": {
				"translate": [
					{ "time": 0, "x": 0, "y": 0, "curve": "stepped" },
					{ "time": 0.8, "x": 0, "y": 0 }
				]
			},
			"Right_Should_Pad": {
				"translate": [
					{ "time": 0, "x": 0, "y": 0, "curve": "stepped" },
					{ "time": 0.8, "x": 0, "y": 0 }
				]
			},
			"Left_Hand": {
				"translate": [
					{ "time": 0, "x": 0, "y": 0, "curve": "stepped" },
					{ "time": 0.8, "x": 0, "y": 0 }
				]
			},
			"Right_Shoulder": {
				"translate": [
					{ "time": 0, "x": 0, "y": 0, "curve": "stepped" },
					{ "time": 0.8, "x": 0, "y": 0 }
				]
			},
			"Right_Hand": {
				"translate": [
					{ "time": 0, "x": 0, "y": 0, "curve": "stepped" },
					{ "time": 0.8, "x": 0, "y": 0 }
				]
			}
		},
		"deform": {
			"default": {
				"Left_Foot": {
					"Left_Foot": [
						{
							"time": 0,
							"vertices": [ -56.44446, 79.08896, -56.44446, 79.08896, -56.44446, 79.08896, -56.44446, 79.08896, -56.44446, 79.08896, -56.44446, 79.08896, -56.44446, 79.08896, -56.44446, 79.08896, -56.44446, 79.08896, -56.44446, 79.08896, -56.44446, 79.08896, -56.44446, 79.08896, -56.44446, 79.08896, -56.44446, 79.08896, -56.44446, 79.08896, -56.44446, 79.08896, -56.44446, 79.08896, -56.44446, 79.08896, -56.44446, 79.08896, -56.44446, 79.08896, -56.44446, 79.08896, -56.44446, 79.08896 ]
						},
						{
							"time": 0.8,
							"vertices": [ -67.20618, 90.94838, -58.81921, 91.26106, -52.08752, 89.91319, -45.35547, 88.56532, -51.96191, 86.76038, -52.65356, 82.35765, -47.61975, 75.76746, -42.58398, 69.17719, -43.58887, 64.15881, -48.69641, 65.18182, -53.80664, 66.20482, -62.99011, 70.42494, -65.86279, 75.92009, -73.31421, 81.38565, -72.11377, 87.38939, -62.33606, 84.25478, -54.9325, 72.58719, -56.69128, 78.14734, -65.24878, 80.43614, -48.53674, 68.84727, -57.51196, 87.58131, -61.14758, 75.50555 ]
						},
						{
							"time": 1.6,
							"vertices": [ -56.44446, 79.08896, -56.44446, 79.08896, -56.44446, 79.08896, -56.44446, 79.08896, -56.44446, 79.08896, -56.44446, 79.08896, -56.44446, 79.08896, -56.44446, 79.08896, -56.44446, 79.08896, -56.44446, 79.08896, -56.44446, 79.08896, -56.44446, 79.08896, -56.44446, 79.08896, -56.44446, 79.08896, -56.44446, 79.08896, -56.44446, 79.08896, -56.44446, 79.08896, -56.44446, 79.08896, -56.44446, 79.08896, -56.44446, 79.08896, -56.44446, 79.08896, -56.44446, 79.08896 ]
						}
					]
				},
				"Right_Foot": {
					"Right_Foot": [
						{
							"time": 0,
							"vertices": [ -1.35388, 2.11192, -1.35388, 2.11192, -1.35388, 2.11192, -1.35388, 2.11192, -1.35388, 2.11192, -1.35388, 2.11192, -1.35388, 2.11192, -1.35388, 2.11192, -1.35388, 2.11192, -1.35388, 2.11192, -1.35388, 2.11192, -1.35388, 2.11192, -1.35388, 2.11192, -1.35388, 2.11192, -1.35388, 2.11192, -1.35388, 2.11192, -1.35388, 2.11192, -1.35388, 2.11192, -1.35388, 2.11192, -1.35388, 2.11192 ],
							"curve": "stepped"
						},
						{
							"time": 1.6,
							"vertices": [ -1.35388, 2.11192, -1.35388, 2.11192, -1.35388, 2.11192, -1.35388, 2.11192, -1.35388, 2.11192, -1.35388, 2.11192, -1.35388, 2.11192, -1.35388, 2.11192, -1.35388, 2.11192, -1.35388, 2.11192, -1.35388, 2.11192, -1.35388, 2.11192, -1.35388, 2.11192, -1.35388, 2.11192, -1.35388, 2.11192, -1.35388, 2.11192, -1.35388, 2.11192, -1.35388, 2.11192, -1.35388, 2.11192, -1.35388, 2.11192 ]
						}
					]
				}
			}
		}
	},
	"Float Up For Walk": {
		"bones": {
			"root": {
				"rotate": [
					{ "time": 0, "angle": 0 }
				],
				"translate": [
					{ "time": 0, "x": 0, "y": 0, "curve": "stepped" },
					{ "time": 0.8, "x": 0, "y": 0 }
				]
			},
			"Hip": {
				"rotate": [
					{ "time": 0, "angle": 0 }
				],
				"translate": [
					{ "time": 0, "x": 0, "y": 0 },
					{ "time": 0.8, "x": 9.88, "y": 123.45 }
				]
			},
			"Arcane Orb": {
				"rotate": [
					{ "time": 0, "angle": 0 }
				],
				"translate": [
					{ "time": 0, "x": 0, "y": 0, "curve": "stepped" },
					{ "time": 0.8, "x": 0, "y": 0 }
				]
			},
			"Fire Orb": {
				"rotate": [
					{ "time": 0, "angle": 0 }
				],
				"translate": [
					{ "time": 0, "x": 0, "y": 0, "curve": "stepped" },
					{ "time": 0.8, "x": 0, "y": 0 }
				]
			},
			"Water Orb": {
				"rotate": [
					{ "time": 0, "angle": 0 }
				],
				"translate": [
					{ "time": 0, "x": 0, "y": 0, "curve": "stepped" },
					{ "time": 0.8, "x": 0, "y": 0 }
				]
			},
			"Earth Orb": {
				"rotate": [
					{ "time": 0, "angle": 0 }
				],
				"translate": [
					{ "time": 0, "x": 0, "y": 0, "curve": "stepped" },
					{ "time": 0.8, "x": 0, "y": 0 }
				]
			},
			"Light Orb": {
				"rotate": [
					{ "time": 0, "angle": 0 }
				],
				"translate": [
					{ "time": 0, "x": 0, "y": 0, "curve": "stepped" },
					{ "time": 0.8, "x": 0, "y": 0 }
				]
			},
			"Robes": {
				"rotate": [
					{ "time": 0, "angle": 0 },
					{ "time": 0.8, "angle": -8.68 }
				],
				"translate": [
					{ "time": 0, "x": 0, "y": 0, "curve": "stepped" },
					{ "time": 0.8, "x": 0, "y": 0 }
				]
			},
			"Robes2": {
				"rotate": [
					{ "time": 0, "angle": 0 }
				],
				"translate": [
					{ "time": 0, "x": 0, "y": 0, "curve": "stepped" },
					{ "time": 0.8, "x": 0, "y": 0 }
				]
			},
			"Left_Foot": {
				"rotate": [
					{ "time": 0, "angle": 0 },
					{ "time": 0.8, "angle": -15.77 }
				],
				"translate": [
					{ "time": 0, "x": 0, "y": 0 },
					{ "time": 0.8, "x": -144.97, "y": 75.07 }
				]
			},
			"Left_Foot3": {
				"rotate": [
					{ "time": 0, "angle": 0 }
				],
				"translate": [
					{ "time": 0, "x": 0, "y": 0, "curve": "stepped" },
					{ "time": 0.8, "x": 0, "y": 0 }
				]
			},
			"Right_Foot": {
				"rotate": [
					{ "time": 0, "angle": 0 },
					{ "time": 0.8, "angle": -5.07 }
				],
				"translate": [
					{ "time": 0, "x": 0, "y": 0 },
					{ "time": 0.8, "x": -146.07, "y": 57.16 }
				]
			},
			"Right_Foot3": {
				"rotate": [
					{ "time": 0, "angle": 0 }
				],
				"translate": [
					{ "time": 0, "x": 0, "y": 0, "curve": "stepped" },
					{ "time": 0.8, "x": 0, "y": 0 }
				]
			},
			"Torso": {
				"rotate": [
					{ "time": 0, "angle": 0 },
					{ "time": 0.8, "angle": 3.1 }
				],
				"translate": [
					{ "time": 0, "x": 0, "y": 0, "curve": "stepped" },
					{ "time": 0.8, "x": 0, "y": 0 }
				]
			},
			"Neck": {
				"rotate": [
					{ "time": 0, "angle": 0 }
				],
				"translate": [
					{ "time": 0, "x": 0, "y": 0, "curve": "stepped" },
					{ "time": 0.8, "x": 0, "y": 0 }
				]
			},
			"Head": {
				"rotate": [
					{ "time": 0, "angle": 0 },
					{ "time": 0.8, "angle": 5.96 }
				],
				"translate": [
					{ "time": 0, "x": 0, "y": 0, "curve": "stepped" },
					{ "time": 0.8, "x": 0, "y": 0 }
				]
			},
			"Head3": {
				"rotate": [
					{ "time": 0, "angle": 0 },
					{ "time": 0.8, "angle": 348.7 }
				],
				"translate": [
					{ "time": 0, "x": 0, "y": 0 },
					{ "time": 0.8, "x": -0.27, "y": -5.17 }
				]
			},
			"Head2": {
				"rotate": [
					{ "time": 0, "angle": 0, "curve": "stepped" },
					{ "time": 0.8, "angle": 0 }
				],
				"translate": [
					{ "time": 0, "x": 0, "y": 0, "curve": "stepped" },
					{ "time": 0.8, "x": 0, "y": 0 }
				]
			},
			"Head5": {
				"rotate": [
					{ "time": 0, "angle": 0, "curve": "stepped" },
					{ "time": 0.8, "angle": 0 }
				],
				"translate": [
					{ "time": 0, "x": 0, "y": 0, "curve": "stepped" },
					{ "time": 0.8, "x": 0, "y": 0 }
				]
			},
			"Left_Shoulder_Pad": {
				"rotate": [
					{ "time": 0, "angle": 0 }
				],
				"translate": [
					{ "time": 0, "x": 0, "y": 0, "curve": "stepped" },
					{ "time": 0.8, "x": 0, "y": 0 }
				]
			},
			"Right_Should_Pad": {
				"rotate": [
					{ "time": 0, "angle": 0 }
				],
				"translate": [
					{ "time": 0, "x": 0, "y": 0, "curve": "stepped" },
					{ "time": 0.8, "x": 0, "y": 0 }
				]
			},
			"Left_Shoulder": {
				"rotate": [
					{ "time": 0, "angle": 0 },
					{ "time": 0.8, "angle": 4.21 }
				],
				"translate": [
					{ "time": 0, "x": 0, "y": 0, "curve": "stepped" },
					{ "time": 0.8, "x": 0, "y": 0 }
				]
			},
			"Left_Bicep": {
				"rotate": [
					{ "time": 0, "angle": 0 },
					{ "time": 0.8, "angle": 2.94 }
				],
				"translate": [
					{ "time": 0, "x": 0, "y": 0, "curve": "stepped" },
					{ "time": 0.8, "x": 0, "y": 0 }
				]
			},
			"Left_Forearm": {
				"rotate": [
					{ "time": 0, "angle": 0 },
					{ "time": 0.8, "angle": 7.53 }
				],
				"translate": [
					{ "time": 0, "x": 0, "y": 0, "curve": "stepped" },
					{ "time": 0.8, "x": 0, "y": 0 }
				]
			},
			"Left_Hand": {
				"rotate": [
					{ "time": 0, "angle": 0 }
				],
				"translate": [
					{ "time": 0, "x": 0, "y": 0, "curve": "stepped" },
					{ "time": 0.8, "x": 0, "y": 0 }
				]
			},
			"Right_Shoulder": {
				"rotate": [
					{ "time": 0, "angle": 0 }
				],
				"translate": [
					{ "time": 0, "x": 0, "y": 0, "curve": "stepped" },
					{ "time": 0.8, "x": 0, "y": 0 }
				]
			},
			"Right_Bicep": {
				"rotate": [
					{ "time": 0, "angle": 0 },
					{ "time": 0.8, "angle": -3.09 }
				],
				"translate": [
					{ "time": 0, "x": 0, "y": 0, "curve": "stepped" },
					{ "time": 0.8, "x": 0, "y": 0 }
				]
			},
			"Right_Forearm": {
				"rotate": [
					{ "time": 0, "angle": 0 },
					{ "time": 0.8, "angle": -3.39 }
				],
				"translate": [
					{ "time": 0, "x": 0, "y": 0, "curve": "stepped" },
					{ "time": 0.8, "x": 0, "y": 0 }
				]
			},
			"Right_Hand": {
				"rotate": [
					{ "time": 0, "angle": 0 }
				],
				"translate": [
					{ "time": 0, "x": 0, "y": 0, "curve": "stepped" },
					{ "time": 0.8, "x": 0, "y": 0 }
				]
			}
		},
		"deform": {
			"default": {
				"Left_Foot": {
					"Left_Foot": [
						{
							"time": 0.8,
							"vertices": [ -56.44446, 79.08896, -56.44446, 79.08896, -56.44446, 79.08896, -56.44446, 79.08896, -56.44446, 79.08896, -56.44446, 79.08896, -56.44446, 79.08896, -56.44446, 79.08896, -56.44446, 79.08896, -56.44446, 79.08896, -56.44446, 79.08896, -56.44446, 79.08896, -56.44446, 79.08896, -56.44446, 79.08896, -56.44446, 79.08896, -56.44446, 79.08896, -56.44446, 79.08896, -56.44446, 79.08896, -56.44446, 79.08896, -56.44446, 79.08896, -56.44446, 79.08896, -56.44446, 79.08896 ]
						}
					]
				},
				"Right_Foot": {
					"Right_Foot": [
						{
							"time": 0.8,
							"vertices": [ -1.35388, 2.11192, -1.35388, 2.11192, -1.35388, 2.11192, -1.35388, 2.11192, -1.35388, 2.11192, -1.35388, 2.11192, -1.35388, 2.11192, -1.35388, 2.11192, -1.35388, 2.11192, -1.35388, 2.11192, -1.35388, 2.11192, -1.35388, 2.11192, -1.35388, 2.11192, -1.35388, 2.11192, -1.35388, 2.11192, -1.35388, 2.11192, -1.35388, 2.11192, -1.35388, 2.11192, -1.35388, 2.11192, -1.35388, 2.11192 ]
						}
					]
				}
			}
		}
	},
	"Idle": {
		"bones": {
			"Hip": {
				"rotate": [
					{ "time": 0, "angle": 0, "curve": "stepped" },
					{ "time": 1.6, "angle": 0 }
				],
				"translate": [
					{ "time": 0, "x": 0, "y": 0 },
					{ "time": 0.8, "x": 11.58, "y": 248.88 },
					{ "time": 1.6, "x": 0, "y": 0 }
				]
			},
			"Arcane Orb": {
				"rotate": [
					{ "time": 0, "angle": 0 }
				],
				"translate": [
					{ "time": 0, "x": 0, "y": 0 }
				]
			},
			"Fire Orb": {
				"rotate": [
					{ "time": 0, "angle": 0 }
				],
				"translate": [
					{ "time": 0, "x": 0, "y": 0 }
				]
			},
			"Water Orb": {
				"rotate": [
					{ "time": 0, "angle": 0 }
				],
				"translate": [
					{ "time": 0, "x": 0, "y": 0 }
				]
			},
			"Earth Orb": {
				"rotate": [
					{ "time": 0, "angle": 0 }
				],
				"translate": [
					{ "time": 0, "x": 0, "y": 0 }
				]
			},
			"Light Orb": {
				"rotate": [
					{ "time": 0, "angle": 0 }
				],
				"translate": [
					{ "time": 0, "x": 0, "y": 0 }
				]
			},
			"Robes": {
				"rotate": [
					{ "time": 0, "angle": 0, "curve": "stepped" },
					{ "time": 1.6, "angle": 0 }
				],
				"translate": [
					{ "time": 0, "x": 0, "y": 0, "curve": "stepped" },
					{ "time": 1.6, "x": 0, "y": 0 }
				]
			},
			"Robes2": {
				"rotate": [
					{ "time": 0, "angle": 0, "curve": "stepped" },
					{ "time": 1.6, "angle": 0 }
				],
				"translate": [
					{ "time": 0, "x": 0, "y": 0, "curve": "stepped" },
					{ "time": 1.6, "x": 0, "y": 0 }
				]
			},
			"Left_Foot": {
				"rotate": [
					{ "time": 0, "angle": 0, "curve": "stepped" },
					{ "time": 1.6, "angle": 0 }
				],
				"translate": [
					{ "time": 0, "x": 0, "y": 0, "curve": "stepped" },
					{ "time": 1.6, "x": 0, "y": 0 }
				]
			},
			"Left_Foot3": {
				"rotate": [
					{ "time": 0, "angle": 0 },
					{ "time": 0.8, "angle": -12.72 },
					{ "time": 1.6, "angle": 0 }
				],
				"translate": [
					{ "time": 0, "x": 0, "y": 0 },
					{ "time": 0.8, "x": -34.73, "y": 0 },
					{ "time": 1.6, "x": 0, "y": 0 }
				]
			},
			"Right_Foot": {
				"rotate": [
					{ "time": 0, "angle": 0, "curve": "stepped" },
					{ "time": 1.6, "angle": 0 }
				],
				"translate": [
					{ "time": 0, "x": 0, "y": 0, "curve": "stepped" },
					{ "time": 1.6, "x": 0, "y": 0 }
				]
			},
			"Right_Foot3": {
				"rotate": [
					{ "time": 0, "angle": 0 },
					{ "time": 0.8, "angle": -9.34 },
					{ "time": 1.6, "angle": 0 }
				],
				"translate": [
					{ "time": 0, "x": 0, "y": 0 },
					{ "time": 0.8, "x": -46.59, "y": -23.3 },
					{ "time": 1.6, "x": 0, "y": 0 }
				]
			},
			"Torso": {
				"rotate": [
					{ "time": 0, "angle": 0, "curve": "stepped" },
					{ "time": 1.6, "angle": 0 }
				],
				"translate": [
					{ "time": 0, "x": 0, "y": 0, "curve": "stepped" },
					{ "time": 1.6, "x": 0, "y": 0 }
				]
			},
			"Neck": {
				"rotate": [
					{ "time": 0, "angle": 0, "curve": "stepped" },
					{ "time": 1.6, "angle": 0 }
				],
				"translate": [
					{ "time": 0, "x": 0, "y": 0, "curve": "stepped" },
					{ "time": 1.6, "x": 0, "y": 0 }
				]
			},
			"Head": {
				"rotate": [
					{ "time": 0, "angle": 0 },
					{ "time": 0.8, "angle": 6.94 },
					{ "time": 1.6, "angle": 0 }
				],
				"translate": [
					{ "time": 0, "x": 0, "y": 0, "curve": "stepped" },
					{ "time": 1.6, "x": 0, "y": 0 }
				]
			},
			"Head3": {
				"rotate": [
					{ "time": 0, "angle": 0, "curve": "stepped" },
					{ "time": 1.6, "angle": 0 }
				],
				"translate": [
					{ "time": 0, "x": 0, "y": 0, "curve": "stepped" },
					{ "time": 1.6, "x": 0, "y": 0 }
				]
			},
			"Head2": {
				"rotate": [
					{ "time": 0, "angle": 0, "curve": "stepped" },
					{ "time": 1.6, "angle": 0 }
				],
				"translate": [
					{ "time": 0, "x": 0, "y": 0, "curve": "stepped" },
					{ "time": 1.6, "x": 0, "y": 0 }
				]
			},
			"Head5": {
				"rotate": [
					{ "time": 0, "angle": 0, "curve": "stepped" },
					{ "time": 1.6, "angle": 0 }
				],
				"translate": [
					{ "time": 0, "x": 0, "y": 0, "curve": "stepped" },
					{ "time": 1.6, "x": 0, "y": 0 }
				]
			},
			"Left_Shoulder_Pad": {
				"rotate": [
					{ "time": 0, "angle": 0 },
					{ "time": 0.8, "angle": 9.01 },
					{ "time": 1.6, "angle": 0 }
				],
				"translate": [
					{ "time": 0, "x": 0, "y": 0, "curve": "stepped" },
					{ "time": 1.6, "x": 0, "y": 0 }
				]
			},
			"Right_Should_Pad": {
				"rotate": [
					{ "time": 0, "angle": 0 },
					{ "time": 0.8, "angle": -4.82 },
					{ "time": 1.6, "angle": 0 }
				],
				"translate": [
					{ "time": 0, "x": 0, "y": 0, "curve": "stepped" },
					{ "time": 1.6, "x": 0, "y": 0 }
				]
			},
			"Left_Shoulder": {
				"rotate": [
					{ "time": 0, "angle": 0 },
					{ "time": 0.8, "angle": 2.61 },
					{ "time": 1.6, "angle": 0 }
				],
				"translate": [
					{ "time": 0, "x": 0, "y": 0, "curve": "stepped" },
					{ "time": 1.6, "x": 0, "y": 0 }
				]
			},
			"Left_Bicep": {
				"rotate": [
					{ "time": 0, "angle": 0 },
					{ "time": 0.8, "angle": 12.16 },
					{ "time": 1.6, "angle": 0 }
				],
				"translate": [
					{ "time": 0, "x": 0, "y": 0, "curve": "stepped" },
					{ "time": 1.6, "x": 0, "y": 0 }
				]
			},
			"Left_Forearm": {
				"rotate": [
					{ "time": 0, "angle": 0 },
					{ "time": 0.8, "angle": 8.55 },
					{ "time": 1.6, "angle": 0 }
				],
				"translate": [
					{ "time": 0, "x": 0, "y": 0, "curve": "stepped" },
					{ "time": 1.6, "x": 0, "y": 0 }
				]
			},
			"Left_Hand": {
				"rotate": [
					{ "time": 0, "angle": 0, "curve": "stepped" },
					{ "time": 1.6, "angle": 0 }
				],
				"translate": [
					{ "time": 0, "x": 0, "y": 0, "curve": "stepped" },
					{ "time": 1.6, "x": 0, "y": 0 }
				]
			},
			"Right_Shoulder": {
				"rotate": [
					{ "time": 0, "angle": 0 },
					{ "time": 0.8, "angle": 3.75 },
					{ "time": 1.6, "angle": 0 }
				],
				"translate": [
					{ "time": 0, "x": 0, "y": 0, "curve": "stepped" },
					{ "time": 1.6, "x": 0, "y": 0 }
				]
			},
			"Right_Bicep": {
				"rotate": [
					{ "time": 0, "angle": 0 },
					{ "time": 0.8, "angle": -9.78 },
					{ "time": 1.6, "angle": 0 }
				],
				"translate": [
					{ "time": 0, "x": 0, "y": 0, "curve": "stepped" },
					{ "time": 1.6, "x": 0, "y": 0 }
				]
			},
			"Right_Forearm": {
				"rotate": [
					{ "time": 0, "angle": 0 },
					{ "time": 0.8, "angle": -11.38 },
					{ "time": 1.6, "angle": 0 }
				],
				"translate": [
					{ "time": 0, "x": 0, "y": 0, "curve": "stepped" },
					{ "time": 1.6, "x": 0, "y": 0 }
				]
			},
			"Right_Hand": {
				"rotate": [
					{ "time": 0, "angle": 0, "curve": "stepped" },
					{ "time": 1.6, "angle": 0 }
				],
				"translate": [
					{ "time": 0, "x": 0, "y": 0, "curve": "stepped" },
					{ "time": 1.6, "x": 0, "y": 0 }
				]
			}
		}
	},
	"Orbiting Orbs": {
		"bones": {
			"root": {
				"rotate": [
					{ "time": 0, "angle": 0 }
				],
				"translate": [
					{ "time": 0, "x": 0, "y": 0 }
				]
			},
			"Hip": {
				"rotate": [
					{ "time": 0, "angle": 0 }
				],
				"translate": [
					{ "time": 0, "x": 0, "y": 0 }
				]
			},
			"Arcane Orb": {
				"rotate": [
					{ "time": 0, "angle": -18.51 }
				],
				"translate": [
					{ "time": 0, "x": -2180.63, "y": -896.96 }
				]
			},
			"Fire Orb": {
				"rotate": [
					{ "time": 0, "angle": -8.94 }
				],
				"translate": [
					{ "time": 0, "x": -1548.15, "y": 1667.09 }
				]
			},
			"Water Orb": {
				"rotate": [
					{ "time": 0, "angle": 23.51 }
				],
				"translate": [
					{ "time": 0, "x": 1686.23, "y": 1530.08 }
				]
			},
			"Earth Orb": {
				"rotate": [
					{ "time": 0, "angle": 12.14 }
				],
				"translate": [
					{ "time": 0, "x": 2142.01, "y": -954.2 }
				]
			},
			"Light Orb": {
				"rotate": [
					{ "time": 0, "angle": -11.89 }
				],
				"translate": [
					{ "time": 0, "x": 84.56, "y": -2522.63 }
				]
			},
			"Robes": {
				"rotate": [
					{ "time": 0, "angle": 0 }
				],
				"translate": [
					{ "time": 0, "x": 0, "y": 0 }
				]
			},
			"Robes2": {
				"rotate": [
					{ "time": 0, "angle": 0 }
				],
				"translate": [
					{ "time": 0, "x": 0, "y": 0 }
				]
			},
			"Left_Foot": {
				"rotate": [
					{ "time": 0, "angle": 0 }
				],
				"translate": [
					{ "time": 0, "x": 0, "y": 0 }
				]
			},
			"Left_Foot3": {
				"rotate": [
					{ "time": 0, "angle": 0 }
				],
				"translate": [
					{ "time": 0, "x": 0, "y": 0 }
				]
			},
			"Right_Foot": {
				"rotate": [
					{ "time": 0, "angle": 0 }
				],
				"translate": [
					{ "time": 0, "x": 0, "y": 0 }
				]
			},
			"Right_Foot3": {
				"rotate": [
					{ "time": 0, "angle": 0 }
				],
				"translate": [
					{ "time": 0, "x": 0, "y": 0 }
				]
			},
			"Torso": {
				"rotate": [
					{ "time": 0, "angle": 0 }
				],
				"translate": [
					{ "time": 0, "x": 0, "y": 0 }
				]
			},
			"Neck": {
				"rotate": [
					{ "time": 0, "angle": 0 }
				],
				"translate": [
					{ "time": 0, "x": 0, "y": 0 }
				]
			},
			"Head": {
				"rotate": [
					{ "time": 0, "angle": 0 }
				],
				"translate": [
					{ "time": 0, "x": 0, "y": 0 }
				]
			},
			"Head3": {
				"rotate": [
					{ "time": 0, "angle": 0 }
				],
				"translate": [
					{ "time": 0, "x": 0, "y": 0 }
				]
			},
			"Head2": {
				"rotate": [
					{ "time": 0, "angle": 0 }
				],
				"translate": [
					{ "time": 0, "x": 0, "y": 0 }
				]
			},
			"Head5": {
				"rotate": [
					{ "time": 0, "angle": 0 }
				],
				"translate": [
					{ "time": 0, "x": 0, "y": 0 }
				]
			},
			"Left_Shoulder_Pad": {
				"rotate": [
					{ "time": 0, "angle": 0 }
				],
				"translate": [
					{ "time": 0, "x": 0, "y": 0 }
				]
			},
			"Right_Should_Pad": {
				"rotate": [
					{ "time": 0, "angle": 0 }
				],
				"translate": [
					{ "time": 0, "x": 0, "y": 0 }
				]
			},
			"Left_Shoulder": {
				"rotate": [
					{ "time": 0, "angle": 0 }
				],
				"translate": [
					{ "time": 0, "x": 0, "y": 0 }
				]
			},
			"Left_Bicep": {
				"rotate": [
					{ "time": 0, "angle": 0 }
				],
				"translate": [
					{ "time": 0, "x": 0, "y": 0 }
				]
			},
			"Left_Forearm": {
				"rotate": [
					{ "time": 0, "angle": 0 }
				],
				"translate": [
					{ "time": 0, "x": 0, "y": 0 }
				]
			},
			"Left_Hand": {
				"rotate": [
					{ "time": 0, "angle": 0 }
				],
				"translate": [
					{ "time": 0, "x": 0, "y": 0 }
				]
			},
			"Right_Shoulder": {
				"rotate": [
					{ "time": 0, "angle": 0 }
				],
				"translate": [
					{ "time": 0, "x": 0, "y": 0 }
				]
			},
			"Right_Bicep": {
				"rotate": [
					{ "time": 0, "angle": 0 }
				],
				"translate": [
					{ "time": 0, "x": 0, "y": 0 }
				]
			},
			"Right_Forearm": {
				"rotate": [
					{ "time": 0, "angle": 0 }
				],
				"translate": [
					{ "time": 0, "x": 0, "y": 0 }
				]
			},
			"Right_Hand": {
				"rotate": [
					{ "time": 0, "angle": 0 }
				],
				"translate": [
					{ "time": 0, "x": 0, "y": 0 }
				]
			}
		},
		"paths": {
			"Orbs Light My Path Constraint": {
				"position": [
					{ "time": 0 },
					{ "time": 0.4, "position": -0.2 },
					{ "time": 0.8, "position": -0.4 },
					{ "time": 1.2, "position": -0.6 },
					{ "time": 1.6, "position": -0.8 },
					{ "time": 2, "position": -1 }
				]
			}
		}
	}
}
}