{
"skeleton": {
	"hash": "E54m7SCaw+C/lZQb9fXHINt8ti8",
	"spine": "3.6.52",
	"width": 224.53,
	"height": 260.17,
	"images": "E:/PhotoShop Creations/Gulrag The First Orc Assets/Attacker Sprites/images/"
},
"bones": [
	{ "name": "Root", "rotation": -88.45, "x": 383.97, "y": -541.96 },
	{ "name": "Hip", "parent": "Root", "rotation": -91.38, "x": -110.81, "y": -7.54, "color": "ffffffff" },
	{ "name": "Cloak", "parent": "Hip", "length": 27, "rotation": 32.62, "x": 16.76, "y": -77.67, "color": "331806ff" },
	{ "name": "Cloak2", "parent": "Cloak", "length": 27, "rotation": 27.77, "x": 18.53, "color": "331806ff" },
	{ "name": "Cloak3", "parent": "Cloak2", "length": 27, "rotation": 3.19, "x": 18.8, "color": "331806ff" },
	{ "name": "Cloak4", "parent": "Cloak3", "length": 27, "rotation": 13.5, "x": 22.08, "color": "331806ff" },
	{ "name": "Cloak5", "parent": "Cloak4", "length": 27, "rotation": 1.45, "x": 28.69, "color": "331806ff" },
	{ "name": "Cloak6", "parent": "Cloak5", "length": 27, "rotation": 4.31, "x": 21.54, "color": "331806ff" },
	{ "name": "Cloak7", "parent": "Cloak6", "length": 27, "rotation": -0.63, "x": 30.32, "color": "331806ff" },
	{ "name": "Cloak8", "parent": "Cloak7", "length": 27, "rotation": -6.11, "x": 29.83, "color": "331806ff" },
	{ "name": "Cloak9", "parent": "Hip", "length": 27, "rotation": 146.37, "x": -0.93, "y": -78.67, "color": "331806ff" },
	{ "name": "Cloak10", "parent": "Cloak9", "length": 27, "rotation": -24.69, "x": 18.67, "color": "331806ff" },
	{ "name": "Cloak11", "parent": "Cloak10", "length": 27, "rotation": -33.76, "x": 20.51, "color": "331806ff" },
	{ "name": "Cloak12", "parent": "Cloak11", "length": 27, "rotation": 16.96, "x": 23.77, "color": "331806ff" },
	{ "name": "Cloak13", "parent": "Cloak12", "length": 27, "rotation": -2.37, "x": 25.36, "y": -0.25, "color": "331806ff" },
	{ "name": "Cloak14", "parent": "Cloak13", "length": 27, "rotation": -5.56, "x": 21.65, "color": "331806ff" },
	{ "name": "Cloak15", "parent": "Cloak14", "length": 27, "rotation": -3, "x": 27.67, "color": "331806ff" },
	{ "name": "Cloak16", "parent": "Cloak15", "length": 27, "rotation": 2.59, "x": 29.38, "color": "331806ff" },
	{ "name": "Head", "parent": "Hip", "length": 18.06, "rotation": -75.7, "x": -1.05, "y": -99.67 },
	{ "name": "cloak ik", "parent": "Root", "x": -16.56, "y": 32.08, "color": "ff3f00ff" },
	{ "name": "Hip2", "parent": "Hip", "length": 187.91, "rotation": -107.04, "x": 63.42, "y": 98.45, "color": "ffffffff" },
	{ "name": "Hip3", "parent": "Hip2", "length": 181.99, "rotation": -146.84, "x": 187.91, "color": "ffffffff" },
	{ "name": "Skirt_IK_Constraint", "parent": "Root", "x": -10.55, "y": -53.87, "color": "ff3f00ff" },
	{ "name": "Hip4", "parent": "Hip", "length": 128.05, "rotation": 79.92, "x": 21.08, "y": -15.65, "color": "ffffffff" },
	{ "name": "Hip5", "parent": "Hip4", "length": 129.26, "rotation": 19.65, "x": -8.33, "y": 30.12, "color": "ffffffff" },
	{ "name": "Left_Hand_IKConstraint", "parent": "Root", "x": -144.99, "y": 25.06, "color": "ff3f00ff" },
	{ "name": "Left Arm", "parent": "Hip", "length": 37.83, "rotation": 87.63, "x": -21.12, "y": -75.96, "color": "00ff02ff" },
	{ "name": "Left_Forearm", "parent": "Left Arm", "length": 15.36, "rotation": 56.36, "x": 35.43, "y": -4.63, "color": "00ff02ff" },
	{
		"name": "Left_Hand_And_Staff",
		"parent": "Left_Forearm",
		"length": 18.93,
		"rotation": 0.58,
		"x": 17.66,
		"y": 0.37,
		"color": "00ff02ff"
	},
	{ "name": "Left_Thigh", "parent": "Hip", "length": 19.32, "rotation": 84.51, "x": -13.92, "y": -12.8, "color": "ff00e9ff" },
	{ "name": "Left_Hoof_IKConstraint", "parent": "Root", "x": -17.42, "y": 16.77, "color": "ff3f00ff" },
	{ "name": "Left_Thigh2", "parent": "Left_Thigh", "length": 46, "rotation": 32.07, "x": 19.32, "color": "ff00e9ff" },
	{ "name": "Left_Shin", "parent": "Left_Thigh2", "length": 47.18, "rotation": -29.1, "x": 42.31, "y": -3.6, "color": "ff00e9ff" },
	{ "name": "Left_Hoof", "parent": "Left_Shin", "length": 23.13, "rotation": 54.83, "x": 46.85, "y": 0.83, "color": "ff00e9ff" },
	{ "name": "Neck", "parent": "Head", "length": 14.95, "rotation": -13.39, "x": -14.89, "y": 3.26 },
	{ "name": "Right_Hand_IKConstraint", "parent": "Root", "x": -129.89, "y": -37.81, "color": "ff3f00ff" },
	{ "name": "Right_Shoulder_Pad", "parent": "Hip", "length": 25.69, "rotation": 63.86, "x": 23.83, "y": -65.77, "color": "ff0000ff" },
	{
		"name": "Right_Forearm",
		"parent": "Right_Shoulder_Pad",
		"length": 17.95,
		"rotation": 45.31,
		"x": 30.55,
		"y": 1.29,
		"color": "ff0000ff"
	},
	{
		"name": "Right_Hand",
		"parent": "Right_Forearm",
		"length": 18.82,
		"rotation": -1.93,
		"x": 20.12,
		"y": -1.12,
		"color": "ff0000ff"
	},
	{ "name": "Right_Hoof_IKConstraint", "parent": "Root", "x": -17.95, "y": -31.7, "color": "ff3f00ff" },
	{ "name": "Right_Thigh", "parent": "Hip", "length": 65.31, "rotation": 106.82, "x": 35.32, "y": -13.61, "color": "1a08f2ff" },
	{ "name": "Right_Shin", "parent": "Right_Thigh", "length": 48.28, "rotation": -24.28, "x": 61.72, "y": 1.8, "color": "1a08f2ff" },
	{ "name": "Right_Hoof", "parent": "Right_Shin", "length": 24.15, "rotation": 47.93, "x": 48.58, "y": 0.24, "color": "1a08f2ff" },
	{ "name": "Skirt2", "parent": "Hip5", "length": 24.08, "rotation": -56.39, "x": -2.47, "y": -20.69, "color": "26cae3ff" },
	{ "name": "Skirt", "parent": "Skirt2", "length": 34.79, "rotation": 44.27, "x": 24.06, "y": 0.46, "color": "26cae3ff" },
	{ "name": "Skirt4", "parent": "Skirt", "length": 32.73, "rotation": -0.33, "x": 34.58, "y": -1.32, "color": "26cae3ff" },
	{ "name": "Skirt3", "parent": "Skirt4", "length": 43.74, "rotation": -6.22, "x": 33.36, "y": 0.98, "color": "26cae3ff" },
	{ "name": "Skirt7", "parent": "Skirt3", "length": 20.8, "rotation": 62.6, "x": -87.86, "y": 13.99, "color": "26cae3ff" },
	{ "name": "Skirt10", "parent": "Skirt7", "length": 25.72, "rotation": -33.48, "x": 21.47, "y": -1.94, "color": "26cae3ff" },
	{ "name": "Skirt9", "parent": "Skirt10", "length": 35.65, "rotation": -11.28, "x": 25.2, "y": -0.51, "color": "26cae3ff" },
	{ "name": "Skirt12", "parent": "Skirt9", "length": 41.05, "rotation": 4.01, "x": 35.97, "y": -0.04, "color": "26cae3ff" },
	{ "name": "Torso", "parent": "Head", "length": 55.62, "rotation": -14.35, "x": -67.13, "y": 23.15, "color": "fab6b6ff" }
],
"slots": [
	{ "name": "Cloak", "bone": "Cloak16", "attachment": "Cloak" },
	{ "name": "Right_Thigh", "bone": "Right_Thigh", "attachment": "Right_Thigh" },
	{ "name": "Right_Hoof", "bone": "Right_Hoof", "attachment": "Right_Hoof" },
	{ "name": "Right_Shin", "bone": "Right_Shin", "attachment": "Right_Shin" },
	{ "name": "Left_Hoof", "bone": "Left_Hoof", "attachment": "Left_Hoof" },
	{ "name": "Left_Shin", "bone": "Left_Shin", "attachment": "Left_Shin" },
	{ "name": "Left_Thigh", "bone": "Left_Thigh2", "attachment": "Left_Thigh" },
	{ "name": "Neck", "bone": "Neck", "attachment": "Neck" },
	{ "name": "Head", "bone": "Head", "attachment": "Head" },
	{ "name": "Skirt", "bone": "Skirt12", "attachment": "Skirt" },
	{ "name": "Left_Bicep", "bone": "Left Arm", "attachment": "Left_Bicep" },
	{ "name": "Left_Forearm", "bone": "Left_Forearm", "attachment": "Left_Forearm" },
	{ "name": "Left_Hand_And_Staff", "bone": "Left_Hand_And_Staff", "attachment": "Left_Hand_And_Staff" },
	{ "name": "Torso", "bone": "Torso", "attachment": "Torso" },
	{ "name": "Left_Shoulder", "bone": "Head", "attachment": "Left_Shoulder" },
	{ "name": "Right_Forearm", "bone": "Right_Forearm", "attachment": "Right_Forearm" },
	{ "name": "Right_Bicep", "bone": "Right_Shoulder_Pad", "attachment": "Right_Bicep" },
	{ "name": "Right_Shoulder_Pad", "bone": "Head", "attachment": "Right_Shoulder_Pad" },
	{ "name": "Right_Hand", "bone": "Right_Hand", "attachment": "Right_Hand" },
	{ "name": "Cloak_Path", "bone": "Root", "attachment": "Cloak_Path" },
	{ "name": "Skirt Pathing", "bone": "Hip" }
],
"ik": [
	{
		"name": "Left_Hand_IKConstraint",
		"order": 3,
		"bones": [ "Left Arm", "Left_Forearm" ],
		"target": "Left_Hand_IKConstraint"
	},
	{
		"name": "Left_Hoof_IKConstraint",
		"order": 1,
		"bones": [ "Left_Thigh2", "Left_Shin" ],
		"target": "Left_Hoof_IKConstraint",
		"bendPositive": false
	},
	{
		"name": "Right_Hand_IKConstraint",
		"order": 2,
		"bones": [ "Right_Shoulder_Pad", "Right_Forearm" ],
		"target": "Right_Hand_IKConstraint"
	},
	{
		"name": "Right_Hoof_IKConstraint",
		"order": 0,
		"bones": [ "Right_Thigh", "Right_Shin" ],
		"target": "Right_Hoof_IKConstraint",
		"bendPositive": false
	},
	{
		"name": "Skirt_IK_Constraint",
		"order": 5,
		"bones": [ "Hip4" ],
		"target": "Skirt_IK_Constraint"
	},
	{
		"name": "cloak ik",
		"order": 4,
		"bones": [ "Hip2", "Hip3" ],
		"target": "cloak ik",
		"bendPositive": false
	}
],
"path": [
	{
		"name": "Cloak_Path_Constraint",
		"order": 6,
		"bones": [
			"Cloak",
			"Cloak2",
			"Cloak3",
			"Cloak4",
			"Cloak5",
			"Cloak6",
			"Cloak7",
			"Cloak8",
			"Cloak9",
			"Cloak10",
			"Cloak11",
			"Cloak12",
			"Cloak13",
			"Cloak14",
			"Cloak15",
			"Cloak16"
		],
		"target": "Cloak_Path",
		"spacingMode": "percent",
		"rotateMode": "chainScale",
		"spacing": 0.0625
	}
],
"skins": {
	"default": {
		"Cloak": {
			"Cloak": {
				"type": "mesh",
				"uvs": [ 0.35466, 0.96533, 0.59374, 0.96456, 0.83282, 0.96378, 0.94106, 0.9683, 1, 0.88542, 0.95854, 0.82213, 0.97927, 0.68359, 1, 0.54505, 0.92711, 0.38939, 0.91813, 0.25708, 0.90915, 0.12477, 0.78344, 0, 0.64537, 0.00245, 0.50731, 0.00491, 0.39507, 0.06406, 0.23568, 0.26486, 0.18629, 0.4143, 0.17507, 0.52637, 0.14965, 0.59827, 0.13241, 0.69293, 0.10772, 0.74897, 0.08527, 0.80189, 0, 0.85897, 0.0067, 0.93887, 0.06507, 0.97779, 0.18629, 1, 0.38522, 0.64689, 0.72807, 0.16935, 0.51007, 0.32918, 0.72309, 0.65935, 0.4566, 0.54636, 0.76032, 0.29508, 0.4999, 0.76141, 0.73174, 0.46222, 0.24555, 0.80472, 0.59096, 0.14436, 0.72503, 0.83614, 0.31966, 0.45716 ],
				"triangles": [ 17, 37, 26, 34, 19, 26, 34, 26, 32, 19, 18, 26, 25, 34, 0, 0, 34, 32, 24, 21, 25, 25, 21, 34, 21, 24, 22, 0, 32, 1, 34, 21, 20, 20, 19, 34, 17, 16, 37, 18, 17, 26, 16, 15, 37, 24, 23, 22, 30, 37, 28, 37, 15, 28, 26, 30, 32, 26, 37, 30, 33, 30, 28, 31, 28, 35, 32, 30, 29, 35, 14, 13, 35, 13, 12, 15, 14, 28, 28, 14, 35, 4, 3, 5, 1, 36, 2, 1, 32, 36, 3, 2, 5, 2, 36, 5, 32, 29, 36, 36, 29, 5, 5, 29, 6, 6, 29, 7, 7, 29, 33, 29, 30, 33, 33, 28, 31, 33, 31, 8, 7, 33, 8, 31, 9, 8, 27, 31, 35, 31, 27, 9, 27, 10, 9, 27, 11, 10, 27, 12, 11, 35, 12, 27 ],
				"vertices": [ 2, 21, 166.33, -84.22, 0.07484, 20, 2.57, -20.19, 0.92516, 2, 21, 176.99, -48.06, 0.55126, 20, 13.37, -56.31, 0.44874, 2, 21, 184.51, -10.89, 0.96944, 20, 27.35, -91.56, 0.03056, 1, 21, 187.43, 5.26, 1, 1, 21, 172.73, 15.73, 1, 1, 21, 160.06, 11.04, 1, 1, 21, 135.75, 18.33, 1, 1, 21, 111.05, 28.51, 1, 1, 21, 79.86, 26.32, 1, 1, 21, 55.31, 32.1, 1, 1, 21, 30.74, 37.96, 1, 1, 21, 3.25, 26.91, 1, 1, 21, -1.43, 7.19, 1, 2, 21, -6.1, -12.53, 7.4E-4, 20, 186.18, 13.83, 0.99926, 1, 20, 170.12, 26.23, 1, 1, 20, 125.86, 37.35, 1, 1, 20, 96.16, 35.89, 1, 1, 20, 75.16, 31.17, 1, 1, 20, 60.81, 30.64, 1, 1, 20, 42.69, 27.67, 1, 1, 20, 31.26, 27.9, 1, 1, 20, 20.53, 27.98, 1, 1, 20, 6.01, 36.53, 1, 1, 20, -8.23, 31.03, 1, 1, 20, -12.5, 20.71, 1, 1, 20, -10.84, 2.47, 1, 2, 21, 107.59, -64.28, 0.02098, 20, 62.68, -4.85, 0.97902, 1, 21, 32.22, 9.84, 1, 2, 21, 53.47, -29.64, 0.0639, 20, 126.92, -4.34, 0.9361, 2, 21, 122.38, -17.22, 0.83709, 20, 75.96, -52.35, 0.16291, 2, 21, 91.49, -48.84, 0.07821, 20, 84.6, -9, 0.92179, 1, 21, 56.48, 7.67, 1, 2, 21, 134.07, -53.94, 0.27126, 20, 46.12, -27.96, 0.72874, 2, 21, 86.08, -5.27, 0.95354, 20, 112.9, -42.56, 0.04646, 1, 20, 27.51, 5.49, 1, 2, 21, 22.56, -8.26, 0.37222, 20, 164.5, -5.39, 0.62778, 2, 21, 157.33, -24.1, 0.81855, 20, 42.92, -65.66, 0.18145, 1, 20, 94.65, 14.99, 1 ],
				"hull": 26,
				"edges": [ 0, 2, 2, 4, 4, 6, 6, 8, 8, 10, 10, 12, 12, 14, 14, 16, 16, 18, 18, 20, 20, 22, 22, 24, 24, 26, 26, 28, 28, 30, 30, 32, 32, 34, 34, 36, 36, 38, 38, 40, 40, 42, 42, 44, 44, 46, 46, 48, 48, 50, 50, 0 ],
				"width": 147,
				"height": 212
			}
		},
		"Cloak_Path": {
			"Cloak_Path": {
				"type": "path",
				"lengths": [ 135.87, 255.53, 387.96, 517.14 ],
				"vertexCount": 12,
				"vertices": [ 1, 21, 224.7, -117.63, 1, 1, 20, -0.69, 1.97, 1, 1, 20, 9.22, 6, 1, 1, 20, 106.69, 23.99, 1, 1, 20, 133.51, 21.41, 1, 2, 21, -14.95, -8.68, 0.496, 20, 195.7, 15.43, 0.504, 2, 21, -2.41, 28.78, 0.504, 20, 205.64, -22.8, 0.496, 1, 21, 57.72, 19.25, 1, 1, 21, 181.78, -0.42, 1, 1, 21, 181.47, 2.09, 1, 1, 21, 188.83, 0.72, 1, 1, 21, 228.11, -6.6, 1 ]
			}
		},
		"Head": {
			"Head": { "x": -5.94, "y": 13.47, "rotation": 255.53, "width": 67, "height": 92 }
		},
		"Left_Bicep": {
			"Left_Bicep": { "x": 22.1, "y": 4.9, "rotation": 85.84, "width": 33, "height": 46 }
		},
		"Left_Forearm": {
			"Left_Forearm": { "x": 11.77, "y": -1.86, "rotation": 29.48, "width": 33, "height": 24 }
		},
		"Left_Hand_And_Staff": {
			"Left_Hand_And_Staff": { "x": -1.36, "y": -11.33, "rotation": 29.19, "width": 180, "height": 133 }
		},
		"Left_Hoof": {
			"Left_Hoof": { "x": 11.87, "y": 0.5, "rotation": 38.6, "width": 33, "height": 31 }
		},
		"Left_Shin": {
			"Left_Shin": { "x": 22.36, "y": -1.55, "rotation": 93.43, "width": 36, "height": 63 }
		},
		"Left_Shoulder": {
			"Left_Shoulder": { "x": -28.29, "y": -12.27, "rotation": -109.85, "width": 33, "height": 35 }
		},
		"Left_Thigh": {
			"Left_Thigh": {
				"type": "mesh",
				"uvs": [ 0.77136, 0.99101, 0.912, 0.97915, 0.97425, 0.9009, 0.87742, 0.7509, 0.78059, 0.60091, 0.70047, 0.51021, 0.62035, 0.4195, 0.46012, 0.23809, 0.41401, 0.12367, 0.3679, 0.00925, 0.30334, 0.00806, 0.21573, 0.01518, 0.1627, 0.0543, 0.08893, 0.1705, 0.08086, 0.36022, 0.07279, 0.54993, 0.16731, 0.60091, 0.24685, 0.7011, 0.3264, 0.8013, 0.44398, 0.8843, 0.63995, 0.91987, 0.35339, 0.47121, 0.77366, 0.85007, 0.25424, 0.16636, 0.56286, 0.70723, 0.42197, 0.58616, 0.23739, 0.37173, 0.41924, 0.41719, 0.72689, 0.76579, 0.58408, 0.54044, 0.35693, 0.2634, 0.42736, 0.747, 0.56049, 0.80439 ],
				"triangles": [ 14, 13, 26, 26, 30, 27, 27, 7, 6, 21, 26, 27, 29, 27, 6, 29, 6, 5, 15, 14, 26, 25, 27, 29, 21, 27, 25, 16, 15, 26, 16, 26, 21, 17, 16, 21, 25, 17, 21, 24, 25, 29, 31, 25, 24, 17, 25, 31, 4, 29, 5, 28, 4, 3, 4, 24, 29, 28, 24, 4, 18, 17, 31, 32, 31, 24, 32, 24, 28, 22, 28, 3, 19, 31, 32, 18, 31, 19, 22, 3, 2, 20, 32, 28, 20, 28, 22, 19, 32, 20, 1, 22, 2, 0, 20, 22, 0, 22, 1, 23, 11, 10, 12, 11, 23, 13, 12, 23, 10, 8, 23, 8, 10, 9, 30, 8, 7, 30, 23, 8, 26, 13, 23, 26, 23, 30, 27, 30, 7 ],
				"vertices": [ 1, 31, 51.37, -2.98, 1, 1, 31, 52.81, 1.94, 1, 1, 31, 48.85, 6.34, 1, 1, 31, 37.87, 7.74, 1, 1, 31, 26.9, 9.15, 1, 1, 31, 19.93, 9.3, 1, 2, 29, 25.28, 14.89, 0.01816, 31, 12.96, 9.45, 0.98184, 2, 29, 13.3, 7.74, 0.79262, 31, -0.99, 9.76, 0.20738, 2, 29, 5.52, 5.2, 0.99983, 31, -8.93, 11.73, 1.7E-4, 1, 29, -2.25, 2.66, 1, 1, 29, -2.07, 0.34, 1, 1, 29, -1.23, -2.74, 1, 1, 29, 1.71, -4.33, 1, 1, 29, 10.09, -6.06, 1, 2, 29, 23.32, -4.87, 0.09965, 31, 0.8, -6.25, 0.90035, 1, 31, 12.64, -12.27, 1, 1, 31, 17.34, -10.75, 1, 1, 31, 24.9, -11.2, 1, 1, 31, 32.46, -11.66, 1, 1, 31, 39.53, -10.37, 1, 1, 31, 44.83, -5.09, 1, 1, 31, 12.05, -0.78, 1, 1, 31, 42.51, 1.37, 1, 1, 29, 9.13, -0.18, 1, 1, 31, 30.21, -1.14, 1, 1, 31, 20.38, -2.04, 1, 1, 31, 3.97, -1.52, 1, 2, 29, 25.92, 7.68, 0.01724, 31, 9.67, 3, 0.98276, 1, 31, 36.47, 2.41, 1, 1, 31, 20.02, 4.61, 1, 2, 29, 15.47, 4.25, 0.80103, 31, -1, 5.64, 0.19897, 1, 31, 30.61, -6.74, 1, 1, 31, 36.31, -4.16, 1 ],
				"hull": 21,
				"edges": [ 0, 2, 2, 4, 4, 6, 6, 8, 8, 10, 10, 12, 12, 14, 14, 16, 16, 18, 18, 20, 20, 22, 22, 24, 24, 26, 26, 28, 28, 30, 30, 32, 32, 34, 34, 36, 36, 38, 38, 40, 40, 0 ],
				"width": 36,
				"height": 70
			}
		},
		"Neck": {
			"Neck": { "x": 3.99, "y": 4.15, "rotation": -91.08, "width": 34, "height": 26 }
		},
		"Right_Bicep": {
			"Right_Bicep": { "x": 14.36, "y": 0.83, "rotation": 118.03, "width": 32, "height": 38 }
		},
		"Right_Forearm": {
			"Right_Forearm": { "x": 10.07, "y": 0.44, "rotation": 72.82, "width": 26, "height": 30 }
		},
		"Right_Hand": {
			"Right_Hand": { "x": 9.21, "y": -0.19, "rotation": 74.85, "width": 27, "height": 28 }
		},
		"Right_Hoof": {
			"Right_Hoof": { "x": 10.39, "y": -1.91, "rotation": 49.36, "width": 33, "height": 31 }
		},
		"Right_Shin": {
			"Right_Shin": { "x": 25.94, "y": -3.74, "rotation": 97.29, "width": 33, "height": 60 }
		},
		"Right_Shoulder_Pad": {
			"Right_Shoulder_Pad": { "x": -21.61, "y": 45.19, "rotation": -104.47, "width": 55, "height": 53 }
		},
		"Right_Thigh": {
			"Right_Thigh": { "x": 35.05, "y": 1.27, "rotation": 73.01, "width": 36, "height": 78 }
		},
		"Skirt": {
			"Skirt": {
				"type": "mesh",
				"uvs": [ 0.12305, 0.96661, 0.21335, 0.98512, 0.38456, 0.99261, 0.58049, 0.99125, 0.82134, 0.98854, 0.98811, 0.94792, 0.98625, 0.9119, 0.96164, 0.90567, 0.94864, 0.80262, 0.91661, 0.71695, 0.91707, 0.56892, 0.91568, 0.42157, 0.89247, 0.25041, 0.82793, 0.14628, 0.80379, 0.01442, 0.67563, 0.01483, 0.54747, 0.01523, 0.41931, 0.01564, 0.29116, 0.01605, 0.21641, 0.20993, 0.15309, 0.38564, 0.09924, 0.55024, 0.09552, 0.70963, 0.01195, 0.95012, 0.50744, 0.76767, 0.53748, 0.41541, 0.59528, 0.17524, 0.27796, 0.6111, 0.762, 0.61954, 0.26811, 0.83868, 0.78444, 0.82736, 0.39562, 0.20855, 0.52401, 0.53787, 0.31463, 0.41744, 0.7463, 0.39229 ],
				"triangles": [ 0, 23, 22, 22, 21, 27, 27, 21, 33, 33, 21, 20, 30, 8, 7, 30, 9, 8, 10, 34, 11, 9, 28, 10, 24, 32, 28, 3, 24, 30, 2, 24, 3, 30, 28, 9, 24, 28, 30, 4, 30, 7, 5, 4, 7, 5, 7, 6, 3, 30, 4, 24, 27, 32, 25, 31, 26, 34, 12, 11, 10, 28, 34, 25, 26, 34, 32, 33, 25, 32, 25, 34, 28, 32, 34, 26, 16, 15, 15, 13, 26, 13, 15, 14, 34, 26, 13, 34, 13, 12, 29, 22, 27, 29, 0, 22, 1, 0, 29, 1, 29, 2, 29, 27, 24, 2, 29, 24, 27, 33, 32, 19, 18, 31, 33, 31, 25, 33, 19, 31, 20, 19, 33, 31, 18, 17, 17, 26, 31, 26, 17, 16 ],
				"vertices": [ 1, 46, 50.48, -5.85, 1, 1, 46, 53.3, 1.78, 1, 2, 46, 54.51, 17.08, 0.95435, 50, 54.83, -62.79, 0.04565, 2, 46, 44.89, 45.71, 0.06233, 50, 56.55, -32.63, 0.93767, 1, 50, 58.98, -11.56, 1, 1, 50, 55.34, 3.18, 1, 1, 50, 50.19, 3.82, 1, 1, 24, 125.23, 7.76, 1, 1, 24, 110.36, 8.13, 1, 1, 24, 97.82, 6.66, 1, 1, 24, 76.61, 8.79, 1, 3, 48, 41.25, 3.71, 0.03264, 49, 14.92, 7.28, 0.47136, 24, 55.48, 10.76, 0.496, 3, 47, 40.45, -4.1, 0.00623, 48, 17.03, 8.67, 0.68177, 24, 30.76, 11.23, 0.312, 1, 47, 26.6, 3.8, 1, 1, 47, 12.74, 16.93, 1, 2, 43, -15.48, 7.51, 0.04148, 47, 4.54, 9.85, 0.95852, 2, 43, -5.74, -0.12, 0.94317, 47, -4.71, 1.63, 0.05683, 1, 43, 2.72, -6.93, 1, 1, 43, 11.09, -13.7, 1, 3, 43, 33.58, 4.24, 0.06858, 44, 9.45, -3.94, 0.60342, 23, 25.66, -6.96, 0.328, 2, 45, 0.29, -4.57, 0.52, 23, 51.09, -5.62, 0.48, 1, 23, 75.22, -5.44, 1, 1, 23, 96.81, -4.06, 1, 1, 23, 131.54, -10.51, 1, 1, 50, 23.51, -32.75, 1, 2, 49, 11.37, -24.31, 0.99973, 50, -26.23, -22.49, 2.7E-4, 3, 47, 14.43, -12.05, 0.24734, 48, -0.29, -12.32, 0.73901, 49, -22.68, -16.57, 0.01365, 3, 44, 68, 6.58, 4.5E-4, 45, 33.37, 8.09, 0.00747, 46, -0.75, 7.07, 0.99208, 2, 49, 42.24, -7.98, 0.07162, 50, 5.7, -8.35, 0.92838, 1, 46, 32.2, 6.36, 1, 1, 50, 35.56, -11.07, 1, 1, 44, 7.26, 10.98, 1, 2, 49, 28.85, -26.91, 0.63512, 50, -8.98, -26.3, 0.36488, 3, 44, 38.13, 8.27, 0.71521, 45, 3.5, 9.61, 0.27914, 46, -30.61, 5.34, 0.00565, 1, 49, 9.52, -6.55, 1 ],
				"hull": 24,
				"edges": [ 0, 2, 2, 4, 4, 6, 6, 8, 8, 10, 10, 12, 12, 14, 14, 16, 16, 18, 18, 20, 20, 22, 22, 24, 24, 26, 26, 28, 28, 30, 30, 32, 32, 34, 34, 36, 36, 38, 38, 40, 40, 42, 42, 44, 44, 46, 46, 0 ],
				"width": 84,
				"height": 144
			}
		},
		"Torso": {
			"Torso": { "x": -5.11, "y": 1.25, "rotation": -83.6, "width": 60, "height": 134 }
		}
	}
},
"animations": {
	"Attack": {
		"slots": {
			"Left_Hand_And_Staff": {
				"color": [
					{ "time": 0.5333, "color": "c600ffff" },
					{ "time": 1.3333, "color": "ffffffff" }
				]
			}
		},
		"bones": {
			"Root": {
				"rotate": [
					{ "time": 0, "angle": 0, "curve": "stepped" },
					{ "time": 1.3333, "angle": 0 }
				],
				"translate": [
					{ "time": 0, "x": 0, "y": 0, "curve": "stepped" },
					{ "time": 1.3333, "x": 0, "y": 0 }
				]
			},
			"Hip": {
				"rotate": [
					{ "time": 0, "angle": 0, "curve": "stepped" },
					{ "time": 1.3333, "angle": 0 }
				],
				"translate": [
					{ "time": 0, "x": 0, "y": 0, "curve": "stepped" },
					{ "time": 1.3333, "x": 0, "y": 0 }
				]
			},
			"Head": {
				"rotate": [
					{ "time": 0, "angle": 0 },
					{ "time": 0.2667, "angle": 7.17 },
					{ "time": 1.3333, "angle": 0 }
				],
				"translate": [
					{ "time": 0, "x": 0, "y": 0, "curve": "stepped" },
					{ "time": 1.3333, "x": 0, "y": 0 }
				]
			},
			"Torso": {
				"rotate": [
					{ "time": 0, "angle": 0 },
					{ "time": 0.2667, "angle": -7.17 },
					{ "time": 1.3333, "angle": 0 }
				],
				"translate": [
					{ "time": 0, "x": 0, "y": 0 },
					{ "time": 0.2667, "x": 3.41, "y": 8.2 },
					{ "time": 1.3333, "x": 0, "y": 0 }
				]
			},
			"Right_Hoof_IKConstraint": {
				"rotate": [
					{ "time": 0, "angle": 0, "curve": "stepped" },
					{ "time": 1.3333, "angle": 0 }
				],
				"translate": [
					{ "time": 0, "x": 0, "y": 0 },
					{ "time": 0.5333, "x": -9.53, "y": -29.43, "curve": "stepped" },
					{ "time": 0.8, "x": -9.53, "y": -29.43 },
					{ "time": 1.3333, "x": 0, "y": 0 }
				]
			},
			"Right_Thigh": {
				"rotate": [
					{ "time": 0, "angle": -1.33, "curve": "stepped" },
					{ "time": 1.3333, "angle": -1.33 }
				],
				"translate": [
					{ "time": 0, "x": 0, "y": 0 },
					{ "time": 0.5333, "x": -4.38, "y": -5.23, "curve": "stepped" },
					{ "time": 0.8, "x": -4.38, "y": -5.23 },
					{ "time": 1.3333, "x": 0, "y": 0 }
				]
			},
			"Right_Shin": {
				"rotate": [
					{ "time": 0, "angle": 3.06, "curve": "stepped" },
					{ "time": 1.3333, "angle": 3.06 }
				],
				"translate": [
					{ "time": 0, "x": 0, "y": 0, "curve": "stepped" },
					{ "time": 1.3333, "x": 0, "y": 0 }
				]
			},
			"Left_Thigh": {
				"rotate": [
					{ "time": 0, "angle": 0, "curve": "stepped" },
					{ "time": 1.3333, "angle": 0 }
				],
				"translate": [
					{ "time": 0, "x": 0, "y": 0, "curve": "stepped" },
					{ "time": 1.3333, "x": 0, "y": 0 }
				]
			},
			"Left_Hoof_IKConstraint": {
				"rotate": [
					{ "time": 0, "angle": 0, "curve": "stepped" },
					{ "time": 1.3333, "angle": 0 }
				],
				"translate": [
					{ "time": 0, "x": 0, "y": 0 },
					{ "time": 0.5333, "x": -6.93, "y": 1.93, "curve": "stepped" },
					{ "time": 0.8, "x": -6.93, "y": 1.93 },
					{ "time": 1.3333, "x": 0, "y": 0 }
				]
			},
			"Left_Thigh2": {
				"rotate": [
					{ "time": 0, "angle": 0.89, "curve": "stepped" },
					{ "time": 1.3333, "angle": 0.89 }
				],
				"translate": [
					{ "time": 0, "x": 0, "y": 0, "curve": "stepped" },
					{ "time": 1.3333, "x": 0, "y": 0 }
				]
			},
			"Left_Shin": {
				"rotate": [
					{ "time": 0, "angle": -0.59, "curve": "stepped" },
					{ "time": 1.3333, "angle": -0.59 }
				],
				"translate": [
					{ "time": 0, "x": 0, "y": 0, "curve": "stepped" },
					{ "time": 1.3333, "x": 0, "y": 0 }
				]
			},
			"Left_Hoof": {
				"rotate": [
					{ "time": 0, "angle": 0, "curve": "stepped" },
					{ "time": 1.3333, "angle": 0 }
				],
				"translate": [
					{ "time": 0, "x": 0, "y": 0, "curve": "stepped" },
					{ "time": 1.3333, "x": 0, "y": 0 }
				]
			},
			"Neck": {
				"rotate": [
					{ "time": 0, "angle": 0 },
					{ "time": 0.2667, "angle": -7.17 },
					{ "time": 1.3333, "angle": 0 }
				],
				"translate": [
					{ "time": 0, "x": 0, "y": 0 },
					{ "time": 0.2667, "x": 0.52, "y": 1.83 },
					{ "time": 1.3333, "x": 0, "y": 0 }
				]
			},
			"Left_Hand_IKConstraint": {
				"rotate": [
					{ "time": 0, "angle": 0, "curve": "stepped" },
					{ "time": 1.3333, "angle": 0 }
				],
				"translate": [
					{ "time": 0, "x": 0, "y": 0 },
					{ "time": 0.2667, "x": -42.05, "y": 27.34 },
					{ "time": 0.5333, "x": -72.29, "y": 39.51, "curve": "stepped" },
					{ "time": 0.8, "x": -72.29, "y": 39.51 },
					{ "time": 1.3333, "x": 0, "y": 0 }
				]
			},
			"Left Arm": {
				"rotate": [
					{ "time": 0, "angle": 3.86, "curve": "stepped" },
					{ "time": 1.3333, "angle": 3.86 }
				],
				"translate": [
					{ "time": 0, "x": 0, "y": 0, "curve": "stepped" },
					{ "time": 1.3333, "x": 0, "y": 0 }
				]
			},
			"Left_Forearm": {
				"rotate": [
					{ "time": 0, "angle": 11.27, "curve": "stepped" },
					{ "time": 1.3333, "angle": 11.27 }
				],
				"translate": [
					{ "time": 0, "x": 0, "y": 0, "curve": "stepped" },
					{ "time": 1.3333, "x": 0, "y": 0 }
				]
			},
			"Right_Hand_IKConstraint": {
				"rotate": [
					{ "time": 0, "angle": 0, "curve": "stepped" },
					{ "time": 1.3333, "angle": 0 }
				],
				"translate": [
					{ "time": 0, "x": 0, "y": 0 },
					{ "time": 0.2667, "x": -11.87, "y": -18.89 },
					{ "time": 0.5333, "x": -17.36, "y": -28.35, "curve": "stepped" },
					{ "time": 0.8, "x": -17.36, "y": -28.35 },
					{ "time": 1.3333, "x": 0, "y": 0 }
				]
			},
			"Right_Shoulder_Pad": {
				"rotate": [
					{ "time": 0, "angle": 8.58, "curve": "stepped" },
					{ "time": 1.3333, "angle": 8.58 }
				],
				"translate": [
					{ "time": 0, "x": 0, "y": 0, "curve": "stepped" },
					{ "time": 1.3333, "x": 0, "y": 0 }
				]
			},
			"Right_Forearm": {
				"rotate": [
					{ "time": 0, "angle": -24.24, "curve": "stepped" },
					{ "time": 1.3333, "angle": -24.24 }
				],
				"translate": [
					{ "time": 0, "x": 0, "y": 0, "curve": "stepped" },
					{ "time": 1.3333, "x": 0, "y": 0 }
				]
			},
			"Right_Hoof": {
				"rotate": [
					{ "time": 0, "angle": 0, "curve": "stepped" },
					{ "time": 1.3333, "angle": 0 }
				],
				"translate": [
					{ "time": 0, "x": 0, "y": 0, "curve": "stepped" },
					{ "time": 1.3333, "x": 0, "y": 0 }
				]
			},
			"Skirt_IK_Constraint": {
				"rotate": [
					{ "time": 0, "angle": 0, "curve": "stepped" },
					{ "time": 1.3333, "angle": 0 }
				],
				"translate": [
					{ "time": 0, "x": 0, "y": 0, "curve": "stepped" },
					{ "time": 1.3333, "x": 0, "y": 0 }
				]
			},
			"Hip4": {
				"rotate": [
					{ "time": 0, "angle": -0.95, "curve": "stepped" },
					{ "time": 1.3333, "angle": -0.95 }
				],
				"translate": [
					{ "time": 0, "x": 0, "y": 0, "curve": "stepped" },
					{ "time": 1.3333, "x": 0, "y": 0 }
				]
			},
			"Hip5": {
				"rotate": [
					{ "time": 0, "angle": 0, "curve": "stepped" },
					{ "time": 1.3333, "angle": 0 }
				],
				"translate": [
					{ "time": 0, "x": 0, "y": 0, "curve": "stepped" },
					{ "time": 1.3333, "x": 0, "y": 0 }
				]
			},
			"Skirt2": {
				"rotate": [
					{ "time": 0, "angle": 0, "curve": "stepped" },
					{ "time": 1.3333, "angle": 0 }
				],
				"translate": [
					{ "time": 0, "x": 0, "y": 0, "curve": "stepped" },
					{ "time": 1.3333, "x": 0, "y": 0 }
				]
			},
			"Right_Hand": {
				"rotate": [
					{ "time": 0, "angle": 0, "curve": "stepped" },
					{ "time": 1.3333, "angle": 0 }
				],
				"translate": [
					{ "time": 0, "x": 0, "y": 0, "curve": "stepped" },
					{ "time": 1.3333, "x": 0, "y": 0 }
				]
			},
			"Left_Hand_And_Staff": {
				"rotate": [
					{ "time": 0, "angle": 0, "curve": "stepped" },
					{ "time": 1.3333, "angle": 0 }
				],
				"translate": [
					{ "time": 0, "x": 0, "y": 0, "curve": "stepped" },
					{ "time": 1.3333, "x": 0, "y": 0 }
				]
			},
			"Skirt": {
				"rotate": [
					{ "time": 0, "angle": 0, "curve": "stepped" },
					{ "time": 1.3333, "angle": 0 }
				],
				"translate": [
					{ "time": 0, "x": 0, "y": 0, "curve": "stepped" },
					{ "time": 1.3333, "x": 0, "y": 0 }
				]
			},
			"Skirt4": {
				"rotate": [
					{ "time": 0, "angle": 0, "curve": "stepped" },
					{ "time": 1.3333, "angle": 0 }
				],
				"translate": [
					{ "time": 0, "x": 0, "y": 0, "curve": "stepped" },
					{ "time": 1.3333, "x": 0, "y": 0 }
				]
			},
			"Skirt3": {
				"rotate": [
					{ "time": 0, "angle": 0, "curve": "stepped" },
					{ "time": 1.3333, "angle": 0 }
				],
				"translate": [
					{ "time": 0, "x": 0, "y": 0, "curve": "stepped" },
					{ "time": 1.3333, "x": 0, "y": 0 }
				]
			},
			"Skirt7": {
				"rotate": [
					{ "time": 0, "angle": 0, "curve": "stepped" },
					{ "time": 1.3333, "angle": 0 }
				],
				"translate": [
					{ "time": 0, "x": 0, "y": 0, "curve": "stepped" },
					{ "time": 1.3333, "x": 0, "y": 0 }
				]
			},
			"Skirt10": {
				"rotate": [
					{ "time": 0, "angle": 0, "curve": "stepped" },
					{ "time": 1.3333, "angle": 0 }
				],
				"translate": [
					{ "time": 0, "x": 0, "y": 0, "curve": "stepped" },
					{ "time": 1.3333, "x": 0, "y": 0 }
				]
			},
			"Skirt9": {
				"rotate": [
					{ "time": 0, "angle": 0, "curve": "stepped" },
					{ "time": 1.3333, "angle": 0 }
				],
				"translate": [
					{ "time": 0, "x": 0, "y": 0, "curve": "stepped" },
					{ "time": 1.3333, "x": 0, "y": 0 }
				]
			},
			"Skirt12": {
				"rotate": [
					{ "time": 0, "angle": 0, "curve": "stepped" },
					{ "time": 1.3333, "angle": 0 }
				],
				"translate": [
					{ "time": 0, "x": 0, "y": 0, "curve": "stepped" },
					{ "time": 1.3333, "x": 0, "y": 0 }
				]
			},
			"Cloak": {
				"rotate": [
					{ "time": 0, "angle": -126.16, "curve": "stepped" },
					{ "time": 1.3333, "angle": -126.16 }
				],
				"translate": [
					{ "time": 0, "x": 48.75, "y": 176.21, "curve": "stepped" },
					{ "time": 1.3333, "x": 48.75, "y": 176.21 }
				]
			},
			"Cloak2": {
				"rotate": [
					{ "time": 0, "angle": -30.2, "curve": "stepped" },
					{ "time": 1.3333, "angle": -30.2 }
				],
				"translate": [
					{ "time": 0, "x": 8.47, "y": 0, "curve": "stepped" },
					{ "time": 1.3333, "x": 8.47, "y": 0 }
				]
			},
			"Cloak3": {
				"rotate": [
					{ "time": 0, "angle": -4.34, "curve": "stepped" },
					{ "time": 1.3333, "angle": -4.34 }
				],
				"translate": [
					{ "time": 0, "x": 8.2, "y": 0, "curve": "stepped" },
					{ "time": 1.3333, "x": 8.2, "y": 0 }
				]
			},
			"Cloak4": {
				"rotate": [
					{ "time": 0, "angle": -14.79, "curve": "stepped" },
					{ "time": 1.3333, "angle": -14.79 }
				],
				"translate": [
					{ "time": 0, "x": 4.92, "y": 0, "curve": "stepped" },
					{ "time": 1.3333, "x": 4.92, "y": 0 }
				]
			},
			"Cloak5": {
				"rotate": [
					{ "time": 0, "angle": -3.67, "curve": "stepped" },
					{ "time": 1.3333, "angle": -3.67 }
				],
				"translate": [
					{ "time": 0, "x": -1.69, "y": 0, "curve": "stepped" },
					{ "time": 1.3333, "x": -1.69, "y": 0 }
				]
			},
			"Cloak6": {
				"rotate": [
					{ "time": 0, "angle": -12, "curve": "stepped" },
					{ "time": 1.3333, "angle": -12 }
				],
				"translate": [
					{ "time": 0, "x": 5.46, "y": 0, "curve": "stepped" },
					{ "time": 1.3333, "x": 5.46, "y": 0 }
				]
			},
			"Cloak7": {
				"rotate": [
					{ "time": 0, "angle": -11.41, "curve": "stepped" },
					{ "time": 1.3333, "angle": -11.41 }
				],
				"translate": [
					{ "time": 0, "x": -3.32, "y": 0, "curve": "stepped" },
					{ "time": 1.3333, "x": -3.32, "y": 0 }
				]
			},
			"Cloak8": {
				"rotate": [
					{ "time": 0, "angle": -17.22, "curve": "stepped" },
					{ "time": 1.3333, "angle": -17.22 }
				],
				"translate": [
					{ "time": 0, "x": -2.83, "y": 0, "curve": "stepped" },
					{ "time": 1.3333, "x": -2.83, "y": 0 }
				]
			},
			"Cloak9": {
				"rotate": [
					{ "time": 0, "angle": 6.78, "curve": "stepped" },
					{ "time": 1.3333, "angle": 6.78 }
				],
				"translate": [
					{ "time": 0, "x": 8.16, "y": 0.98, "curve": "stepped" },
					{ "time": 1.3333, "x": 8.16, "y": 0.98 }
				]
			},
			"Cloak10": {
				"rotate": [
					{ "time": 0, "angle": -11.07, "curve": "stepped" },
					{ "time": 1.3333, "angle": -11.07 }
				],
				"translate": [
					{ "time": 0, "x": 8.33, "y": 0, "curve": "stepped" },
					{ "time": 1.3333, "x": 8.33, "y": 0 }
				]
			},
			"Cloak11": {
				"rotate": [
					{ "time": 0, "angle": 20.72, "curve": "stepped" },
					{ "time": 1.3333, "angle": 20.72 }
				],
				"translate": [
					{ "time": 0, "x": 6.49, "y": 0, "curve": "stepped" },
					{ "time": 1.3333, "x": 6.49, "y": 0 }
				]
			},
			"Cloak12": {
				"rotate": [
					{ "time": 0, "angle": -18.33, "curve": "stepped" },
					{ "time": 1.3333, "angle": -18.33 }
				],
				"translate": [
					{ "time": 0, "x": 3.23, "y": 0, "curve": "stepped" },
					{ "time": 1.3333, "x": 3.23, "y": 0 }
				]
			},
			"Cloak13": {
				"rotate": [
					{ "time": 0, "angle": 2.56, "curve": "stepped" },
					{ "time": 1.3333, "angle": 2.56 }
				],
				"translate": [
					{ "time": 0, "x": 1.64, "y": 0.25, "curve": "stepped" },
					{ "time": 1.3333, "x": 1.64, "y": 0.25 }
				]
			},
			"Cloak14": {
				"rotate": [
					{ "time": 0, "angle": 5.86, "curve": "stepped" },
					{ "time": 1.3333, "angle": 5.86 }
				],
				"translate": [
					{ "time": 0, "x": 5.35, "y": 0, "curve": "stepped" },
					{ "time": 1.3333, "x": 5.35, "y": 0 }
				]
			},
			"Cloak15": {
				"rotate": [
					{ "time": 0, "angle": 3.57, "curve": "stepped" },
					{ "time": 1.3333, "angle": 3.57 }
				],
				"translate": [
					{ "time": 0, "x": -0.67, "y": 0, "curve": "stepped" },
					{ "time": 1.3333, "x": -0.67, "y": 0 }
				]
			},
			"Cloak16": {
				"rotate": [
					{ "time": 0, "angle": -1.42, "curve": "stepped" },
					{ "time": 1.3333, "angle": -1.42 }
				],
				"translate": [
					{ "time": 0, "x": -2.38, "y": 0, "curve": "stepped" },
					{ "time": 1.3333, "x": -2.38, "y": 0 }
				]
			},
			"cloak ik": {
				"rotate": [
					{ "time": 0, "angle": 0, "curve": "stepped" },
					{ "time": 1.3333, "angle": 0 }
				],
				"translate": [
					{ "time": 0, "x": 0, "y": 0 },
					{ "time": 0.5333, "x": -3.23, "y": 9.69, "curve": "stepped" },
					{ "time": 0.8, "x": -3.23, "y": 9.69 },
					{ "time": 1.3333, "x": 0, "y": 0 }
				]
			},
			"Hip2": {
				"rotate": [
					{ "time": 0, "angle": 0.24, "curve": "stepped" },
					{ "time": 1.3333, "angle": 0.24 }
				],
				"translate": [
					{ "time": 0, "x": 0, "y": 0, "curve": "stepped" },
					{ "time": 1.3333, "x": 0, "y": 0 }
				]
			},
			"Hip3": {
				"rotate": [
					{ "time": 0, "angle": -0.08, "curve": "stepped" },
					{ "time": 1.3333, "angle": -0.08 }
				],
				"translate": [
					{ "time": 0, "x": 0, "y": 0, "curve": "stepped" },
					{ "time": 1.3333, "x": 0, "y": 0 }
				]
			}
		}
	},
	"Death Animation": {
		"bones": {
			"Root": {
				"rotate": [
					{ "time": 0, "angle": 0 }
				],
				"translate": [
					{ "time": 0, "x": 0, "y": 0 }
				]
			},
			"Hip": {
				"rotate": [
					{ "time": 0, "angle": 0 }
				],
				"translate": [
					{ "time": 0, "x": 0, "y": 0 }
				]
			},
			"Head": {
				"rotate": [
					{ "time": 0, "angle": 0 },
					{ "time": 0.3333, "angle": -45.2 },
					{ "time": 0.4333, "angle": -59.87 },
					{ "time": 0.5333, "angle": -65.09, "curve": "stepped" },
					{ "time": 0.8, "angle": -65.09 }
				],
				"translate": [
					{ "time": 0, "x": 0, "y": 0 },
					{ "time": 0.3333, "x": -38.06, "y": 77.16 },
					{ "time": 0.4333, "x": -40.55, "y": 147.26 },
					{ "time": 0.5333, "x": -10.49, "y": 207.76, "curve": "stepped" },
					{ "time": 0.8, "x": -10.49, "y": 207.76 }
				]
			},
			"Torso": {
				"rotate": [
					{ "time": 0, "angle": 0 }
				],
				"translate": [
					{ "time": 0, "x": 0, "y": 0 }
				]
			},
			"Right_Hoof_IKConstraint": {
				"rotate": [
					{ "time": 0, "angle": 0 }
				],
				"translate": [
					{ "time": 0, "x": 0, "y": 0 },
					{ "time": 0.1333, "x": -25.59, "y": 35.12 },
					{ "time": 0.2667, "x": 9.69, "y": 57.74 },
					{ "time": 0.4333, "x": 26.76, "y": 80.58 },
					{ "time": 0.5333, "x": 82.96, "y": 25.73, "curve": "stepped" },
					{ "time": 0.8, "x": 82.96, "y": 25.73 }
				]
			},
			"Right_Thigh": {
				"rotate": [
					{ "time": 0, "angle": -1.33 }
				],
				"translate": [
					{ "time": 0, "x": 0, "y": 0 },
					{ "time": 0.3333, "x": 14.74, "y": 63.71 },
					{ "time": 0.4333, "x": -2.91, "y": 114.48 },
					{ "time": 0.5333, "x": 46.14, "y": 143.71, "curve": "stepped" },
					{ "time": 0.8, "x": 46.14, "y": 143.71 }
				]
			},
			"Right_Shin": {
				"rotate": [
					{ "time": 0, "angle": 3.06 }
				],
				"translate": [
					{ "time": 0, "x": 0, "y": 0 }
				]
			},
			"Left_Thigh": {
				"rotate": [
					{ "time": 0, "angle": 0 }
				],
				"translate": [
					{ "time": 0, "x": 0, "y": 0 },
					{ "time": 0.1333, "x": 47.22, "y": 16.12 },
					{ "time": 0.1667, "x": 17.91, "y": 24.63 },
					{ "time": 0.2, "x": 22.57, "y": 22.94 },
					{ "time": 0.4333, "x": 48.05, "y": 110.2 },
					{ "time": 0.5333, "x": 92.05, "y": 136.08, "curve": "stepped" },
					{ "time": 0.8, "x": 92.05, "y": 136.08 }
				]
			},
			"Left_Hoof_IKConstraint": {
				"rotate": [
					{ "time": 0, "angle": 0 }
				],
				"translate": [
					{ "time": 0, "x": 0, "y": 0 },
					{ "time": 0.3333, "x": 39.64, "y": 3.97 },
					{ "time": 0.4333, "x": 52.56, "y": 4.43 }
				]
			},
			"Left_Thigh2": {
				"rotate": [
					{ "time": 0, "angle": 0.89 }
				],
				"translate": [
					{ "time": 0, "x": 0, "y": 0 },
					{ "time": 0.1333, "x": -1.31, "y": -3.67 },
					{ "time": 0.1667, "x": -0.68, "y": -3.27 },
					{ "time": 0.2, "x": -1.03, "y": -6.28 },
					{ "time": 0.3333, "x": 47.9, "y": -13.63 },
					{ "time": 0.4333, "x": -0.82, "y": 1.49 }
				]
			},
			"Left_Shin": {
				"rotate": [
					{ "time": 0, "angle": -0.59 }
				],
				"translate": [
					{ "time": 0, "x": 0, "y": 0 }
				]
			},
			"Left_Hoof": {
				"rotate": [
					{ "time": 0, "angle": 0 }
				],
				"translate": [
					{ "time": 0, "x": 0, "y": 0 }
				]
			},
			"Neck": {
				"rotate": [
					{ "time": 0, "angle": 0 }
				],
				"translate": [
					{ "time": 0, "x": 0, "y": 0 }
				]
			},
			"Left_Hand_IKConstraint": {
				"rotate": [
					{ "time": 0, "angle": 0 }
				],
				"translate": [
					{ "time": 0, "x": 0, "y": 0 },
					{ "time": 0.3333, "x": 112.97, "y": 47.97 },
					{ "time": 0.4333, "x": 105.86, "y": 9.73 },
					{ "time": 0.5333, "x": 167.91, "y": 32.13, "curve": "stepped" },
					{ "time": 0.8, "x": 167.91, "y": 32.13 }
				]
			},
			"Left Arm": {
				"rotate": [
					{ "time": 0, "angle": 3.86 }
				],
				"translate": [
					{ "time": 0, "x": 0, "y": 0 },
					{ "time": 0.3333, "x": -1.98, "y": 94.3 },
					{ "time": 0.4333, "x": 15.07, "y": 162.33 },
					{ "time": 0.5333, "x": 28.62, "y": 204.53, "curve": "stepped" },
					{ "time": 0.8, "x": 28.62, "y": 204.53 }
				]
			},
			"Left_Forearm": {
				"rotate": [
					{ "time": 0, "angle": 11.27 }
				],
				"translate": [
					{ "time": 0, "x": 0, "y": 0 }
				]
			},
			"Right_Hand_IKConstraint": {
				"rotate": [
					{ "time": 0, "angle": 0 }
				],
				"translate": [
					{ "time": 0, "x": 0, "y": 0 },
					{ "time": 0.3333, "x": 50.87, "y": 41.34 },
					{ "time": 0.4333, "x": 98.81, "y": -30.75 },
					{ "time": 0.5333, "x": 155.45, "y": -54.71, "curve": "stepped" },
					{ "time": 0.8, "x": 155.45, "y": -54.71 }
				]
			},
			"Right_Shoulder_Pad": {
				"rotate": [
					{ "time": 0, "angle": 8.58 }
				],
				"translate": [
					{ "time": 0, "x": 0, "y": 0 },
					{ "time": 0.3333, "x": -14.51, "y": 48.86 },
					{ "time": 0.4333, "x": -27.8, "y": 111.59 },
					{ "time": 0.5333, "x": -0.25, "y": 166.29, "curve": "stepped" },
					{ "time": 0.8, "x": -0.25, "y": 166.29 }
				]
			},
			"Right_Forearm": {
				"rotate": [
					{ "time": 0, "angle": -24.24 }
				],
				"translate": [
					{ "time": 0, "x": 0, "y": 0 }
				]
			},
			"Right_Hoof": {
				"rotate": [
					{ "time": 0, "angle": 0 }
				],
				"translate": [
					{ "time": 0, "x": 0, "y": 0 }
				]
			},
			"Skirt_IK_Constraint": {
				"rotate": [
					{ "time": 0, "angle": 0 }
				],
				"translate": [
					{ "time": 0, "x": 0, "y": 0 },
					{ "time": 0.3333, "x": 63.57, "y": -10.97 },
					{ "time": 0.4333, "x": 110.93, "y": 77.66 }
				]
			},
			"Hip4": {
				"rotate": [
					{ "time": 0, "angle": -0.95 }
				],
				"translate": [
					{ "time": 0, "x": 0, "y": 0 },
					{ "time": 0.3333, "x": 26.59, "y": 45.47 },
					{ "time": 0.4333, "x": 56.35, "y": 123.06 },
					{ "time": 0.5333, "x": 56.52, "y": 180.33, "curve": "stepped" },
					{ "time": 0.8, "x": 56.52, "y": 180.33 }
				]
			},
			"Hip5": {
				"rotate": [
					{ "time": 0, "angle": 0 },
					{ "time": 0.3333, "angle": 8.44 }
				],
				"translate": [
					{ "time": 0, "x": 0, "y": 0 }
				]
			},
			"Skirt2": {
				"rotate": [
					{ "time": 0, "angle": 0 }
				],
				"translate": [
					{ "time": 0, "x": 0, "y": 0 }
				]
			},
			"Right_Hand": {
				"rotate": [
					{ "time": 0, "angle": 0 }
				],
				"translate": [
					{ "time": 0, "x": 0, "y": 0 }
				]
			},
			"Left_Hand_And_Staff": {
				"rotate": [
					{ "time": 0, "angle": 0 }
				],
				"translate": [
					{ "time": 0, "x": 0, "y": 0 },
					{ "time": 0.3333, "x": -0.11, "y": 0 }
				]
			},
			"Skirt": {
				"rotate": [
					{ "time": 0, "angle": 0 }
				],
				"translate": [
					{ "time": 0, "x": 0, "y": 0 }
				]
			},
			"Skirt4": {
				"rotate": [
					{ "time": 0, "angle": 0 }
				],
				"translate": [
					{ "time": 0, "x": 0, "y": 0 }
				]
			},
			"Skirt3": {
				"rotate": [
					{ "time": 0, "angle": 0 }
				],
				"translate": [
					{ "time": 0, "x": 0, "y": 0 }
				]
			},
			"Skirt7": {
				"rotate": [
					{ "time": 0, "angle": 0 }
				],
				"translate": [
					{ "time": 0, "x": 0, "y": 0 }
				]
			},
			"Skirt10": {
				"rotate": [
					{ "time": 0, "angle": 0 }
				],
				"translate": [
					{ "time": 0, "x": 0, "y": 0 }
				]
			},
			"Skirt9": {
				"rotate": [
					{ "time": 0, "angle": 0 }
				],
				"translate": [
					{ "time": 0, "x": 0, "y": 0 }
				]
			},
			"Skirt12": {
				"rotate": [
					{ "time": 0, "angle": 0 }
				],
				"translate": [
					{ "time": 0, "x": 0, "y": 0 }
				]
			},
			"Cloak": {
				"rotate": [
					{ "time": 0, "angle": -126.16 }
				],
				"translate": [
					{ "time": 0, "x": 48.75, "y": 176.21 }
				]
			},
			"Cloak2": {
				"rotate": [
					{ "time": 0, "angle": -30.2 }
				],
				"translate": [
					{ "time": 0, "x": 8.47, "y": 0 }
				]
			},
			"Cloak3": {
				"rotate": [
					{ "time": 0, "angle": -4.34 }
				],
				"translate": [
					{ "time": 0, "x": 8.2, "y": 0 }
				]
			},
			"Cloak4": {
				"rotate": [
					{ "time": 0, "angle": -14.79 }
				],
				"translate": [
					{ "time": 0, "x": 4.92, "y": 0 }
				]
			},
			"Cloak5": {
				"rotate": [
					{ "time": 0, "angle": -3.67 }
				],
				"translate": [
					{ "time": 0, "x": -1.69, "y": 0 }
				]
			},
			"Cloak6": {
				"rotate": [
					{ "time": 0, "angle": -12 }
				],
				"translate": [
					{ "time": 0, "x": 5.46, "y": 0 }
				]
			},
			"Cloak7": {
				"rotate": [
					{ "time": 0, "angle": -11.41 }
				],
				"translate": [
					{ "time": 0, "x": -3.32, "y": 0 }
				]
			},
			"Cloak8": {
				"rotate": [
					{ "time": 0, "angle": -17.22 }
				],
				"translate": [
					{ "time": 0, "x": -2.83, "y": 0 }
				]
			},
			"Cloak9": {
				"rotate": [
					{ "time": 0, "angle": 6.78 }
				],
				"translate": [
					{ "time": 0, "x": 8.16, "y": 0.98 }
				]
			},
			"Cloak10": {
				"rotate": [
					{ "time": 0, "angle": -11.07 }
				],
				"translate": [
					{ "time": 0, "x": 8.33, "y": 0 }
				]
			},
			"Cloak11": {
				"rotate": [
					{ "time": 0, "angle": 20.72 }
				],
				"translate": [
					{ "time": 0, "x": 6.49, "y": 0 }
				]
			},
			"Cloak12": {
				"rotate": [
					{ "time": 0, "angle": -18.33 }
				],
				"translate": [
					{ "time": 0, "x": 3.23, "y": 0 }
				]
			},
			"Cloak13": {
				"rotate": [
					{ "time": 0, "angle": 2.56 }
				],
				"translate": [
					{ "time": 0, "x": 1.64, "y": 0.25 }
				]
			},
			"Cloak14": {
				"rotate": [
					{ "time": 0, "angle": 5.86 }
				],
				"translate": [
					{ "time": 0, "x": 5.35, "y": 0 }
				]
			},
			"Cloak15": {
				"rotate": [
					{ "time": 0, "angle": 3.57 }
				],
				"translate": [
					{ "time": 0, "x": -0.67, "y": 0 }
				]
			},
			"Cloak16": {
				"rotate": [
					{ "time": 0, "angle": -1.42 }
				],
				"translate": [
					{ "time": 0, "x": -2.38, "y": 0 }
				]
			},
			"cloak ik": {
				"rotate": [
					{ "time": 0, "angle": 0 }
				],
				"translate": [
					{ "time": 0, "x": 0, "y": 0 },
					{ "time": 0.3333, "x": -12.05, "y": -65.32 },
					{ "time": 0.4, "x": -11.53, "y": -84.35 },
					{ "time": 0.4667, "x": -5.58, "y": -94.38 }
				]
			},
			"Hip2": {
				"rotate": [
					{ "time": 0, "angle": 0.24 }
				],
				"translate": [
					{ "time": 0, "x": 0, "y": 0 },
					{ "time": 0.3333, "x": -1.94, "y": 37.45 },
					{ "time": 0.4, "x": -20.31, "y": 42.45 },
					{ "time": 0.4667, "x": -31.63, "y": 39.66 }
				]
			},
			"Hip3": {
				"rotate": [
					{ "time": 0, "angle": -0.08 }
				],
				"translate": [
					{ "time": 0, "x": 0, "y": 0 },
					{ "time": 0.3333, "x": 5.64, "y": -3.62 }
				]
			}
		}
	},
	"Healing Animation": {
		"slots": {
			"Left_Hand_And_Staff": {
				"color": [
					{ "time": 0, "color": "ffffffff" },
					{ "time": 0.5667, "color": "17ff00ff" },
					{ "time": 2.4, "color": "ffffffff" }
				],
				"attachment": [
					{ "time": 0, "name": "Left_Hand_And_Staff" }
				]
			}
		},
		"bones": {
			"Root": {
				"rotate": [
					{ "time": 0, "angle": 0, "curve": "stepped" },
					{ "time": 2.4, "angle": 0 }
				],
				"translate": [
					{ "time": 0, "x": 0, "y": 0, "curve": "stepped" },
					{ "time": 2.4, "x": 0, "y": 0 }
				]
			},
			"Hip": {
				"rotate": [
					{ "time": 0, "angle": 0, "curve": "stepped" },
					{ "time": 2.4, "angle": 0 }
				],
				"translate": [
					{ "time": 0, "x": 0, "y": 0, "curve": "stepped" },
					{ "time": 2.4, "x": 0, "y": 0 }
				]
			},
			"Head": {
				"rotate": [
					{ "time": 0, "angle": 0 },
					{ "time": 0.2667, "angle": 9.14 },
					{ "time": 0.5333, "angle": 14.56, "curve": "stepped" },
					{ "time": 1.0667, "angle": 14.56, "curve": "stepped" },
					{ "time": 1.6, "angle": 14.56 },
					{ "time": 2.4, "angle": 0 }
				],
				"translate": [
					{ "time": 0, "x": 0, "y": 0, "curve": "stepped" },
					{ "time": 2.4, "x": 0, "y": 0 }
				]
			},
			"Torso": {
				"rotate": [
					{ "time": 0, "angle": 0 },
					{ "time": 0.2667, "angle": -8.71 },
					{ "time": 0.5333, "angle": -14.13, "curve": "stepped" },
					{ "time": 1.0667, "angle": -14.13, "curve": "stepped" },
					{ "time": 1.6, "angle": -14.13 },
					{ "time": 2.4, "angle": 0 }
				],
				"translate": [
					{ "time": 0, "x": 0, "y": 0 },
					{ "time": 0.2667, "x": 4.28, "y": 9.9 },
					{ "time": 0.5333, "x": 7.68, "y": 15.69, "curve": "stepped" },
					{ "time": 1.0667, "x": 7.68, "y": 15.69, "curve": "stepped" },
					{ "time": 1.6, "x": 7.68, "y": 15.69 },
					{ "time": 2.4, "x": 0, "y": 0 }
				]
			},
			"Right_Hoof_IKConstraint": {
				"rotate": [
					{ "time": 0, "angle": 0, "curve": "stepped" },
					{ "time": 2.4, "angle": 0 }
				],
				"translate": [
					{ "time": 0, "x": 0, "y": 0, "curve": "stepped" },
					{ "time": 2.4, "x": 0, "y": 0 }
				]
			},
			"Right_Thigh": {
				"rotate": [
					{ "time": 0, "angle": -1.33, "curve": "stepped" },
					{ "time": 2.4, "angle": -1.33 }
				],
				"translate": [
					{ "time": 0, "x": 0, "y": 0, "curve": "stepped" },
					{ "time": 2.4, "x": 0, "y": 0 }
				]
			},
			"Right_Shin": {
				"rotate": [
					{ "time": 0, "angle": 3.06, "curve": "stepped" },
					{ "time": 2.4, "angle": 3.06 }
				],
				"translate": [
					{ "time": 0, "x": 0, "y": 0, "curve": "stepped" },
					{ "time": 2.4, "x": 0, "y": 0 }
				]
			},
			"Left_Thigh": {
				"rotate": [
					{ "time": 0, "angle": 0, "curve": "stepped" },
					{ "time": 2.4, "angle": 0 }
				],
				"translate": [
					{ "time": 0, "x": 0, "y": 0, "curve": "stepped" },
					{ "time": 2.4, "x": 0, "y": 0 }
				]
			},
			"Left_Hoof_IKConstraint": {
				"rotate": [
					{ "time": 0, "angle": 0, "curve": "stepped" },
					{ "time": 2.4, "angle": 0 }
				],
				"translate": [
					{ "time": 0, "x": 0, "y": 0, "curve": "stepped" },
					{ "time": 2.4, "x": 0, "y": 0 }
				]
			},
			"Left_Thigh2": {
				"rotate": [
					{ "time": 0, "angle": 0.89, "curve": "stepped" },
					{ "time": 2.4, "angle": 0.89 }
				],
				"translate": [
					{ "time": 0, "x": 0, "y": 0, "curve": "stepped" },
					{ "time": 2.4, "x": 0, "y": 0 }
				]
			},
			"Left_Shin": {
				"rotate": [
					{ "time": 0, "angle": -0.59, "curve": "stepped" },
					{ "time": 2.4, "angle": -0.59 }
				],
				"translate": [
					{ "time": 0, "x": 0, "y": 0, "curve": "stepped" },
					{ "time": 2.4, "x": 0, "y": 0 }
				]
			},
			"Left_Hoof": {
				"rotate": [
					{ "time": 0, "angle": 0, "curve": "stepped" },
					{ "time": 2.4, "angle": 0 }
				],
				"translate": [
					{ "time": 0, "x": 0, "y": 0, "curve": "stepped" },
					{ "time": 2.4, "x": 0, "y": 0 }
				]
			},
			"Neck": {
				"rotate": [
					{ "time": 0, "angle": 0 },
					{ "time": 0.2667, "angle": -8.71 },
					{ "time": 0.5333, "angle": -14.13, "curve": "stepped" },
					{ "time": 1.0667, "angle": -14.13, "curve": "stepped" },
					{ "time": 1.6, "angle": -14.13 },
					{ "time": 2.4, "angle": 0 }
				],
				"translate": [
					{ "time": 0, "x": 0, "y": 0 },
					{ "time": 0.2667, "x": 0.67, "y": 2.22 },
					{ "time": 0.5333, "x": 1.25, "y": 3.54, "curve": "stepped" },
					{ "time": 1.0667, "x": 1.25, "y": 3.54, "curve": "stepped" },
					{ "time": 1.6, "x": 1.25, "y": 3.54 },
					{ "time": 2.4, "x": 0, "y": 0 }
				]
			},
			"Left_Hand_IKConstraint": {
				"rotate": [
					{ "time": 0, "angle": 0, "curve": "stepped" },
					{ "time": 2.4, "angle": 0 }
				],
				"translate": [
					{ "time": 0, "x": 0, "y": 0 },
					{ "time": 0.2667, "x": -66.85, "y": 27.06 },
					{ "time": 0.5333, "x": -88.08, "y": -4.94 },
					{ "time": 0.8, "x": -89.79, "y": -8.15 },
					{ "time": 1.0667, "x": -71.96, "y": 19.05 },
					{ "time": 1.3333, "x": -89.79, "y": -8.15 },
					{ "time": 1.6, "x": -71.96, "y": 19.05 },
					{ "time": 1.8667, "x": -89.79, "y": -8.15 },
					{ "time": 1.9333, "x": -72.37, "y": 11.43 },
					{ "time": 1.9667, "x": -61.98, "y": 22.69 },
					{ "time": 2.0333, "x": -46.58, "y": 25.55 },
					{ "time": 2.4, "x": 0, "y": 0 }
				]
			},
			"Left Arm": {
				"rotate": [
					{ "time": 0, "angle": 3.86, "curve": "stepped" },
					{ "time": 2.4, "angle": 3.86 }
				],
				"translate": [
					{ "time": 0, "x": 0, "y": 0, "curve": "stepped" },
					{ "time": 2.4, "x": 0, "y": 0 }
				]
			},
			"Left_Forearm": {
				"rotate": [
					{ "time": 0, "angle": 11.27, "curve": "stepped" },
					{ "time": 2.4, "angle": 11.27 }
				],
				"translate": [
					{ "time": 0, "x": 0, "y": 0, "curve": "stepped" },
					{ "time": 2.4, "x": 0, "y": 0 }
				]
			},
			"Right_Hand_IKConstraint": {
				"rotate": [
					{ "time": 0, "angle": 0, "curve": "stepped" },
					{ "time": 2.4, "angle": 0 }
				],
				"translate": [
					{ "time": 0, "x": 0, "y": 0 },
					{ "time": 0.2667, "x": -53.3, "y": 46.23 },
					{ "time": 0.5333, "x": -82.64, "y": 15.27 },
					{ "time": 0.8, "x": -97.42, "y": 10.78 },
					{ "time": 1.0667, "x": -83.76, "y": 34.03 },
					{ "time": 1.3333, "x": -97.42, "y": 10.78 },
					{ "time": 1.6, "x": -83.76, "y": 34.03 },
					{ "time": 1.8667, "x": -97.42, "y": 10.78 },
					{ "time": 2, "x": -84.02, "y": 24.67 },
					{ "time": 2.0333, "x": -77.41, "y": 38.1 },
					{ "time": 2.1333, "x": -53.28, "y": 48.8 },
					{ "time": 2.4, "x": 0, "y": 0 }
				]
			},
			"Right_Shoulder_Pad": {
				"rotate": [
					{ "time": 0, "angle": 8.58, "curve": "stepped" },
					{ "time": 2.4, "angle": 8.58 }
				],
				"translate": [
					{ "time": 0, "x": 0, "y": 0, "curve": "stepped" },
					{ "time": 2.4, "x": 0, "y": 0 }
				]
			},
			"Right_Forearm": {
				"rotate": [
					{ "time": 0, "angle": -24.24, "curve": "stepped" },
					{ "time": 2.4, "angle": -24.24 }
				],
				"translate": [
					{ "time": 0, "x": 0, "y": 0, "curve": "stepped" },
					{ "time": 2.4, "x": 0, "y": 0 }
				]
			},
			"Right_Hoof": {
				"rotate": [
					{ "time": 0, "angle": 0, "curve": "stepped" },
					{ "time": 2.4, "angle": 0 }
				],
				"translate": [
					{ "time": 0, "x": 0, "y": 0, "curve": "stepped" },
					{ "time": 2.4, "x": 0, "y": 0 }
				]
			},
			"Skirt_IK_Constraint": {
				"rotate": [
					{ "time": 0, "angle": 0, "curve": "stepped" },
					{ "time": 2.4, "angle": 0 }
				],
				"translate": [
					{ "time": 0, "x": 0, "y": 0, "curve": "stepped" },
					{ "time": 2.4, "x": 0, "y": 0 }
				]
			},
			"Hip4": {
				"rotate": [
					{ "time": 0, "angle": -0.95, "curve": "stepped" },
					{ "time": 2.4, "angle": -0.95 }
				],
				"translate": [
					{ "time": 0, "x": 0, "y": 0, "curve": "stepped" },
					{ "time": 2.4, "x": 0, "y": 0 }
				]
			},
			"Hip5": {
				"rotate": [
					{ "time": 0, "angle": 0, "curve": "stepped" },
					{ "time": 2.4, "angle": 0 }
				],
				"translate": [
					{ "time": 0, "x": 0, "y": 0, "curve": "stepped" },
					{ "time": 2.4, "x": 0, "y": 0 }
				]
			},
			"Skirt2": {
				"rotate": [
					{ "time": 0, "angle": 0, "curve": "stepped" },
					{ "time": 2.4, "angle": 0 }
				],
				"translate": [
					{ "time": 0, "x": 0, "y": 0, "curve": "stepped" },
					{ "time": 2.4, "x": 0, "y": 0 }
				]
			},
			"Right_Hand": {
				"rotate": [
					{ "time": 0, "angle": 0 },
					{ "time": 0.5, "angle": 14.81 },
					{ "time": 0.7333, "angle": 47.03 },
					{ "time": 0.8, "angle": 50.87 },
					{ "time": 1.0667, "angle": 39.16 },
					{ "time": 1.3333, "angle": 47.56, "curve": "stepped" },
					{ "time": 1.8667, "angle": 47.56 },
					{ "time": 2.4, "angle": 0 }
				],
				"translate": [
					{ "time": 0, "x": 0, "y": 0, "curve": "stepped" },
					{ "time": 2.4, "x": 0, "y": 0 }
				]
			},
			"Left_Hand_And_Staff": {
				"rotate": [
					{ "time": 0, "angle": 0 },
					{ "time": 0.8333, "angle": -7.08 },
					{ "time": 0.8667, "angle": -12.24 },
					{ "time": 0.9, "angle": -17.04 },
					{ "time": 0.9333, "angle": -12.56 },
					{ "time": 0.9667, "angle": -12.92 },
					{ "time": 1.0667, "angle": 1.33 },
					{ "time": 1.2333, "angle": -14.35 },
					{ "time": 1.2667, "angle": -11.6 },
					{ "time": 1.3, "angle": -6.81 },
					{ "time": 1.3333, "angle": -2.61 },
					{ "time": 1.3667, "angle": -8.99 },
					{ "time": 1.4, "angle": -13.01 },
					{ "time": 1.5, "angle": -13.01 },
					{ "time": 1.5667, "angle": -4.48 },
					{ "time": 1.6, "angle": 1.21 },
					{ "time": 1.6333, "angle": -2.14 },
					{ "time": 1.6667, "angle": -7.63 },
					{ "time": 1.7, "angle": -11.22 },
					{ "time": 1.7333, "angle": -13.24 },
					{ "time": 1.7667, "angle": -14.62 },
					{ "time": 1.8333, "angle": -11.41 },
					{ "time": 1.8667, "angle": -2.87 },
					{ "time": 2.4, "angle": 0 }
				],
				"translate": [
					{ "time": 0, "x": 0, "y": 0, "curve": "stepped" },
					{ "time": 2.4, "x": 0, "y": 0 }
				]
			},
			"Skirt": {
				"rotate": [
					{ "time": 0, "angle": 0, "curve": "stepped" },
					{ "time": 2.4, "angle": 0 }
				],
				"translate": [
					{ "time": 0, "x": 0, "y": 0, "curve": "stepped" },
					{ "time": 2.4, "x": 0, "y": 0 }
				]
			},
			"Skirt4": {
				"rotate": [
					{ "time": 0, "angle": 0, "curve": "stepped" },
					{ "time": 2.4, "angle": 0 }
				],
				"translate": [
					{ "time": 0, "x": 0, "y": 0, "curve": "stepped" },
					{ "time": 2.4, "x": 0, "y": 0 }
				]
			},
			"Skirt3": {
				"rotate": [
					{ "time": 0, "angle": 0, "curve": "stepped" },
					{ "time": 2.4, "angle": 0 }
				],
				"translate": [
					{ "time": 0, "x": 0, "y": 0, "curve": "stepped" },
					{ "time": 2.4, "x": 0, "y": 0 }
				]
			},
			"Skirt7": {
				"rotate": [
					{ "time": 0, "angle": 0, "curve": "stepped" },
					{ "time": 2.4, "angle": 0 }
				],
				"translate": [
					{ "time": 0, "x": 0, "y": 0, "curve": "stepped" },
					{ "time": 2.4, "x": 0, "y": 0 }
				]
			},
			"Skirt10": {
				"rotate": [
					{ "time": 0, "angle": 0, "curve": "stepped" },
					{ "time": 2.4, "angle": 0 }
				],
				"translate": [
					{ "time": 0, "x": 0, "y": 0, "curve": "stepped" },
					{ "time": 2.4, "x": 0, "y": 0 }
				]
			},
			"Skirt9": {
				"rotate": [
					{ "time": 0, "angle": 0, "curve": "stepped" },
					{ "time": 2.4, "angle": 0 }
				],
				"translate": [
					{ "time": 0, "x": 0, "y": 0, "curve": "stepped" },
					{ "time": 2.4, "x": 0, "y": 0 }
				]
			},
			"Skirt12": {
				"rotate": [
					{ "time": 0, "angle": 0, "curve": "stepped" },
					{ "time": 2.4, "angle": 0 }
				],
				"translate": [
					{ "time": 0, "x": 0, "y": 0, "curve": "stepped" },
					{ "time": 2.4, "x": 0, "y": 0 }
				]
			},
			"Cloak": {
				"rotate": [
					{ "time": 0, "angle": -126.16, "curve": "stepped" },
					{ "time": 2.4, "angle": -126.16 }
				],
				"translate": [
					{ "time": 0, "x": 48.75, "y": 176.21, "curve": "stepped" },
					{ "time": 2.4, "x": 48.75, "y": 176.21 }
				]
			},
			"Cloak2": {
				"rotate": [
					{ "time": 0, "angle": -30.2, "curve": "stepped" },
					{ "time": 2.4, "angle": -30.2 }
				],
				"translate": [
					{ "time": 0, "x": 8.47, "y": 0, "curve": "stepped" },
					{ "time": 2.4, "x": 8.47, "y": 0 }
				]
			},
			"Cloak3": {
				"rotate": [
					{ "time": 0, "angle": -4.34, "curve": "stepped" },
					{ "time": 2.4, "angle": -4.34 }
				],
				"translate": [
					{ "time": 0, "x": 8.2, "y": 0, "curve": "stepped" },
					{ "time": 2.4, "x": 8.2, "y": 0 }
				]
			},
			"Cloak4": {
				"rotate": [
					{ "time": 0, "angle": -14.79, "curve": "stepped" },
					{ "time": 2.4, "angle": -14.79 }
				],
				"translate": [
					{ "time": 0, "x": 4.92, "y": 0, "curve": "stepped" },
					{ "time": 2.4, "x": 4.92, "y": 0 }
				]
			},
			"Cloak5": {
				"rotate": [
					{ "time": 0, "angle": -3.67, "curve": "stepped" },
					{ "time": 2.4, "angle": -3.67 }
				],
				"translate": [
					{ "time": 0, "x": -1.69, "y": 0, "curve": "stepped" },
					{ "time": 2.4, "x": -1.69, "y": 0 }
				]
			},
			"Cloak6": {
				"rotate": [
					{ "time": 0, "angle": -12, "curve": "stepped" },
					{ "time": 2.4, "angle": -12 }
				],
				"translate": [
					{ "time": 0, "x": 5.46, "y": 0, "curve": "stepped" },
					{ "time": 2.4, "x": 5.46, "y": 0 }
				]
			},
			"Cloak7": {
				"rotate": [
					{ "time": 0, "angle": -11.41, "curve": "stepped" },
					{ "time": 2.4, "angle": -11.41 }
				],
				"translate": [
					{ "time": 0, "x": -3.32, "y": 0, "curve": "stepped" },
					{ "time": 2.4, "x": -3.32, "y": 0 }
				]
			},
			"Cloak8": {
				"rotate": [
					{ "time": 0, "angle": -17.22, "curve": "stepped" },
					{ "time": 2.4, "angle": -17.22 }
				],
				"translate": [
					{ "time": 0, "x": -2.83, "y": 0, "curve": "stepped" },
					{ "time": 2.4, "x": -2.83, "y": 0 }
				]
			},
			"Cloak9": {
				"rotate": [
					{ "time": 0, "angle": 6.78, "curve": "stepped" },
					{ "time": 2.4, "angle": 6.78 }
				],
				"translate": [
					{ "time": 0, "x": 8.16, "y": 0.98, "curve": "stepped" },
					{ "time": 2.4, "x": 8.16, "y": 0.98 }
				]
			},
			"Cloak10": {
				"rotate": [
					{ "time": 0, "angle": -11.07, "curve": "stepped" },
					{ "time": 2.4, "angle": -11.07 }
				],
				"translate": [
					{ "time": 0, "x": 8.33, "y": 0, "curve": "stepped" },
					{ "time": 2.4, "x": 8.33, "y": 0 }
				]
			},
			"Cloak11": {
				"rotate": [
					{ "time": 0, "angle": 20.72, "curve": "stepped" },
					{ "time": 2.4, "angle": 20.72 }
				],
				"translate": [
					{ "time": 0, "x": 6.49, "y": 0, "curve": "stepped" },
					{ "time": 2.4, "x": 6.49, "y": 0 }
				]
			},
			"Cloak12": {
				"rotate": [
					{ "time": 0, "angle": -18.33, "curve": "stepped" },
					{ "time": 2.4, "angle": -18.33 }
				],
				"translate": [
					{ "time": 0, "x": 3.23, "y": 0, "curve": "stepped" },
					{ "time": 2.4, "x": 3.23, "y": 0 }
				]
			},
			"Cloak13": {
				"rotate": [
					{ "time": 0, "angle": 2.56, "curve": "stepped" },
					{ "time": 2.4, "angle": 2.56 }
				],
				"translate": [
					{ "time": 0, "x": 1.64, "y": 0.25, "curve": "stepped" },
					{ "time": 2.4, "x": 1.64, "y": 0.25 }
				]
			},
			"Cloak14": {
				"rotate": [
					{ "time": 0, "angle": 5.86, "curve": "stepped" },
					{ "time": 2.4, "angle": 5.86 }
				],
				"translate": [
					{ "time": 0, "x": 5.35, "y": 0, "curve": "stepped" },
					{ "time": 2.4, "x": 5.35, "y": 0 }
				]
			},
			"Cloak15": {
				"rotate": [
					{ "time": 0, "angle": 3.57, "curve": "stepped" },
					{ "time": 2.4, "angle": 3.57 }
				],
				"translate": [
					{ "time": 0, "x": -0.67, "y": 0, "curve": "stepped" },
					{ "time": 2.4, "x": -0.67, "y": 0 }
				]
			},
			"Cloak16": {
				"rotate": [
					{ "time": 0, "angle": -1.42, "curve": "stepped" },
					{ "time": 2.4, "angle": -1.42 }
				],
				"translate": [
					{ "time": 0, "x": -2.38, "y": 0, "curve": "stepped" },
					{ "time": 2.4, "x": -2.38, "y": 0 }
				]
			},
			"cloak ik": {
				"rotate": [
					{ "time": 0, "angle": 0, "curve": "stepped" },
					{ "time": 2.4, "angle": 0 }
				],
				"translate": [
					{ "time": 0, "x": 0, "y": 0 },
					{ "time": 0.5333, "x": -3.36, "y": 26.15, "curve": "stepped" },
					{ "time": 1.0667, "x": -3.36, "y": 26.15, "curve": "stepped" },
					{ "time": 1.6, "x": -3.36, "y": 26.15 },
					{ "time": 2.4, "x": 0, "y": 0 }
				]
			},
			"Hip2": {
				"rotate": [
					{ "time": 0, "angle": 0.24, "curve": "stepped" },
					{ "time": 2.4, "angle": 0.24 }
				],
				"translate": [
					{ "time": 0, "x": 0, "y": 0 },
					{ "time": 0.5333, "x": -6.48, "y": 9.79, "curve": "stepped" },
					{ "time": 1.0667, "x": -6.48, "y": 9.79, "curve": "stepped" },
					{ "time": 1.6, "x": -6.48, "y": 9.79 },
					{ "time": 2.4, "x": 0, "y": 0 }
				]
			},
			"Hip3": {
				"rotate": [
					{ "time": 0, "angle": -0.08, "curve": "stepped" },
					{ "time": 2.4, "angle": -0.08 }
				],
				"translate": [
					{ "time": 0, "x": 0, "y": 0, "curve": "stepped" },
					{ "time": 2.4, "x": 0, "y": 0 }
				]
			}
		}
	},
	"Idle": {
		"slots": {
			"Cloak": {
				"attachment": [
					{ "time": 0, "name": "Cloak" }
				]
			},
			"Head": {
				"attachment": [
					{ "time": 0, "name": "Head" }
				]
			},
			"Left_Shoulder": {
				"attachment": [
					{ "time": 0, "name": "Left_Shoulder" }
				]
			},
			"Right_Shoulder_Pad": {
				"attachment": [
					{ "time": 0, "name": "Right_Shoulder_Pad" }
				]
			}
		},
		"bones": {
			"Root": {
				"rotate": [
					{ "time": 0, "angle": 0 }
				]
			},
			"Torso": {
				"rotate": [
					{ "time": 0, "angle": 0 }
				],
				"translate": [
					{ "time": 0, "x": 0, "y": 0 },
					{ "time": 0.8, "x": 1.86, "y": -0.49 },
					{ "time": 1.6, "x": 0, "y": 0 }
				]
			},
			"Right_Thigh": {
				"rotate": [
					{ "time": 0, "angle": 0 }
				],
				"translate": [
					{ "time": 0, "x": 0, "y": 0 }
				]
			},
			"Right_Shin": {
				"rotate": [
					{ "time": 0, "angle": 0 }
				]
			},
			"Left_Thigh": {
				"rotate": [
					{ "time": 0, "angle": 0 }
				]
			},
			"Left_Shin": {
				"rotate": [
					{ "time": 0, "angle": 0 }
				]
			},
			"Left_Hoof": {
				"rotate": [
					{ "time": 0, "angle": 0 }
				]
			},
			"Neck": {
				"rotate": [
					{ "time": 0, "angle": 0 }
				]
			},
			"Head": {
				"rotate": [
					{ "time": 0, "angle": 0 }
				],
				"translate": [
					{ "time": 0, "x": 0, "y": 0 },
					{ "time": 0.8, "x": 1.86, "y": -0.49 },
					{ "time": 1.6, "x": 0, "y": 0 }
				]
			},
			"Left Arm": {
				"rotate": [
					{ "time": 0, "angle": 0 }
				],
				"translate": [
					{ "time": 0, "x": 0, "y": 0 },
					{ "time": 0.8, "x": 5.81, "y": 0.28 },
					{ "time": 1.6, "x": 0, "y": 0 }
				]
			},
			"Left_Forearm": {
				"rotate": [
					{ "time": 0, "angle": 0 }
				]
			},
			"Right_Shoulder_Pad": {
				"rotate": [
					{ "time": 0, "angle": 0 }
				],
				"translate": [
					{ "time": 0, "x": 0, "y": 0 },
					{ "time": 0.8, "x": 5.42, "y": -2.1 },
					{ "time": 1.6, "x": 0, "y": 0 }
				]
			},
			"Right_Forearm": {
				"rotate": [
					{ "time": 0, "angle": 0 }
				]
			},
			"Right_Hoof": {
				"rotate": [
					{ "time": 0, "angle": 0 }
				]
			},
			"Hip": {
				"rotate": [
					{ "time": 0, "angle": 0 }
				],
				"translate": [
					{ "time": 0, "x": 0, "y": 0 },
					{ "time": 0.8, "x": 2.48, "y": -0.66 },
					{ "time": 1.6, "x": 0, "y": 0 }
				]
			},
			"Skirt2": {
				"rotate": [
					{ "time": 0, "angle": 0 }
				],
				"translate": [
					{ "time": 0, "x": 0, "y": 0 },
					{ "time": 0.8, "x": 3.15, "y": -0.52 },
					{ "time": 1.6, "x": 0, "y": 0 }
				]
			}
		}
	},
	"Walk Animation": {
		"bones": {
			"Left_Hoof": {
				"rotate": [
					{ "time": 0, "angle": 36.77 },
					{ "time": 0.2, "angle": 15.9 },
					{ "time": 0.4, "angle": 8.2 },
					{ "time": 0.6, "angle": -22.49 },
					{ "time": 0.8, "angle": 6.94 },
					{ "time": 1, "angle": -22.49 },
					{ "time": 1.2, "angle": 8.2 },
					{ "time": 1.4, "angle": 15.9 },
					{ "time": 1.6, "angle": 36.77 }
				]
			},
			"Right_Hoof_IKConstraint": {
				"translate": [
					{ "time": 0, "x": -6.96, "y": -35.73 },
					{ "time": 0.2, "x": -9.48, "y": -23.53 },
					{ "time": 0.4, "x": 1.75, "y": -3.87 },
					{ "time": 0.6, "x": 0.72, "y": -18.1 },
					{ "time": 0.8, "x": 2.26, "y": 53.44 },
					{ "time": 1, "x": 0.72, "y": -18.1 },
					{ "time": 1.2, "x": 1.75, "y": -3.87 },
					{ "time": 1.4, "x": -9.48, "y": -23.53 },
					{ "time": 1.6, "x": -6.96, "y": -35.73 }
				]
			},
			"Right_Hoof": {
				"rotate": [
					{ "time": 0, "angle": -10.77 },
					{ "time": 0.2, "angle": -24.54 },
					{ "time": 0.8, "angle": 1.28 },
					{ "time": 1.4, "angle": -24.54 },
					{ "time": 1.6, "angle": -10.77 }
				]
			},
			"Head": {
				"translate": [
					{ "time": 0, "x": 0, "y": 0 },
					{ "time": 0.3667, "x": 0.02, "y": 5.7 },
					{ "time": 0.8333, "x": 0, "y": 0 },
					{ "time": 1.1667, "x": 0.02, "y": 5.7 },
					{ "time": 1.6, "x": 0, "y": 0 }
				]
			},
			"Left_Hoof_IKConstraint": {
				"translate": [
					{ "time": 0, "x": 0, "y": 0 },
					{ "time": 0.2, "x": -1.87, "y": -16.35 },
					{ "time": 0.4, "x": -25.84, "y": -58.5 },
					{ "time": 0.6, "x": -10.59, "y": -21.37 },
					{ "time": 0.8, "x": -8.55, "y": -64.86 },
					{ "time": 1, "x": -10.59, "y": -21.37 },
					{ "time": 1.2, "x": -25.84, "y": -58.5 },
					{ "time": 1.4, "x": -1.87, "y": -16.35 },
					{ "time": 1.6, "x": 0, "y": 0 }
				]
			},
			"Left_Hand_IKConstraint": {
				"translate": [
					{ "time": 0, "x": -3.42, "y": -33.44 },
					{ "time": 0.2, "x": 2.87, "y": 1.19 },
					{ "time": 0.4, "x": -2.82, "y": 13.39 },
					{ "time": 0.6, "x": -18.51, "y": 27.2 },
					{ "time": 0.8, "x": -3.44, "y": 15.42 },
					{ "time": 1, "x": 1.91, "y": -9.49 },
					{ "time": 1.2, "x": -2.44, "y": -22.09 },
					{ "time": 1.4, "x": -6.8, "y": -31.21 },
					{ "time": 1.6, "x": -3.42, "y": -33.44 }
				]
			},
			"Right_Hand_IKConstraint": {
				"translate": [
					{ "time": 0, "x": -9.94, "y": 35.48 },
					{ "time": 0.2, "x": -4.75, "y": 4.55 },
					{ "time": 0.4, "x": -8.6, "y": -14.08 },
					{ "time": 0.6, "x": -14.69, "y": -16.59 },
					{ "time": 0.8, "x": -6.29, "y": -2.77 },
					{ "time": 1, "x": -8.82, "y": 27.42 },
					{ "time": 1.2, "x": -18.67, "y": 34.38 },
					{ "time": 1.4, "x": -39.16, "y": 43.63 },
					{ "time": 1.6, "x": -9.94, "y": 35.48 }
				]
			},
			"cloak ik": {
				"translate": [
					{ "time": 0, "x": -1.81, "y": 10.55 },
					{ "time": 0.3667, "x": 5.88, "y": -15.57 },
					{ "time": 0.8, "x": -1.81, "y": 10.55 },
					{ "time": 1.2, "x": 5.88, "y": -15.57 },
					{ "time": 1.6, "x": -1.81, "y": 10.55 }
				]
			},
			"Hip2": {
				"translate": [
					{ "time": 0, "x": 0, "y": 0 },
					{ "time": 0.3667, "x": 5.6, "y": 1.38 },
					{ "time": 0.8, "x": 0, "y": 0 },
					{ "time": 1.2, "x": 5.6, "y": 1.38 },
					{ "time": 1.6, "x": 0, "y": 0 }
				]
			},
			"Skirt_IK_Constraint": {
				"translate": [
					{ "time": 0, "x": 0, "y": 0 },
					{ "time": 0.5667, "x": 1.59, "y": -17.12 },
					{ "time": 0.9667, "x": 0, "y": 0 },
					{ "time": 1.3667, "x": 1.59, "y": -17.12 },
					{ "time": 1.6, "x": 0, "y": 0 }
				]
			},
			"Right_Thigh": {
				"translate": [
					{ "time": 0, "x": -4.77, "y": 2.06 }
				]
			}
		}
	}
}
}