%YAML 1.1
%TAG !u! tag:unity3d.com,2011:
--- !u!114 &11400000
MonoBehaviour:
  m_ObjectHideFlags: 0
  m_PrefabParentObject: {fileID: 0}
  m_PrefabInternal: {fileID: 0}
  m_GameObject: {fileID: 0}
  m_Enabled: 1
  m_EditorHideFlags: 0
  m_Script: {fileID: 11500000, guid: a6b194f808b1af6499c93410e504af42, type: 3}
  m_Name: Gulrag Prototype_Atlas
  m_EditorClassIdentifier: 
  atlasFile: {fileID: 4900000, guid: ef9c0e24197cbbc42943a3b68d365c69, type: 3}
  materials:
  - {fileID: 2100000, guid: 12f1eea07b815974e8d7f98f60d0afc9, type: 2}
