%YAML 1.1
%TAG !u! tag:unity3d.com,2011:
--- !u!114 &11400000
MonoBehaviour:
  m_ObjectHideFlags: 0
  m_PrefabParentObject: {fileID: 0}
  m_PrefabInternal: {fileID: 0}
  m_GameObject: {fileID: 0}
  m_Enabled: 1
  m_EditorHideFlags: 0
  m_Script: {fileID: 11500000, guid: 6e3e95a05e4c9774397eeeb7bdee8ccb, type: 3}
  m_Name: Death Animation
  m_EditorClassIdentifier: 
  skeletonDataAsset: {fileID: 11400000, guid: 980f3ce3f6a444f44b1a42734d215469, type: 2}
  animationName: Death Animation
